{
  "__inputs": [

  ],
  "__requires": [

  ],
  "annotations": {
    "list": [
      {
        "builtIn": 1,
        "datasource": "-- Grafana --",
        "enable": false,
        "hide": false,
        "iconColor": "#96D98D",
        "name": "deploy",
        "showIn": 0,
        "tags": [
          "deploy",
          "$environment"
        ],
        "type": "tags"
      },
      {
        "builtIn": 1,
        "datasource": "-- Grafana --",
        "enable": false,
        "hide": false,
        "iconColor": "#FFEE52",
        "name": "canary-deploy",
        "showIn": 0,
        "tags": [
          "deploy",
          "${environment}-cny"
        ],
        "type": "tags"
      },
      {
        "builtIn": 1,
        "datasource": "-- Grafana --",
        "enable": false,
        "hide": false,
        "iconColor": "#CA95E5",
        "name": "feature-flags",
        "showIn": 0,
        "tags": [
          "feature-flag",
          "${environment}"
        ],
        "type": "tags"
      }
    ]
  },
  "description": "Uploaded by https://gitlab.com/gitlab-com/runbooks/-/jobs/3271110524 at Thu Nov  3 17:35:21 UTC 2022",
  "editable": false,
  "gnetId": null,
  "graphTooltip": 1,
  "hideControls": false,
  "id": null,
  "links": [
    {
      "asDropdown": true,
      "icon": "external link",
      "includeVars": true,
      "keepTime": true,
      "tags": [
        "managed",
        "service overview"
      ],
      "targetBlank": false,
      "title": "Service Overview Dashboards",
      "type": "dashboards",
      "url": ""
    },
    {
      "asDropdown": true,
      "icon": "external link",
      "includeVars": false,
      "keepTime": true,
      "tags": "",
      "targetBlank": false,
      "title": "Platform Triage",
      "type": "link",
      "url": "https://dashboards.gitlab.net/d/general-triage/platform-triage?orgId=1"
    }
  ],
  "panels": [
    {
      "collapse": false,
      "collapsed": false,
      "gridPos": {
        "h": 1,
        "w": 24,
        "x": 0,
        "y": 1
      },
      "id": 2,
      "panels": [

      ],
      "repeat": null,
      "repeatIteration": null,
      "repeatRowId": null,
      "showTitle": true,
      "title": "Sidekiq",
      "titleSize": "h6",
      "type": "row"
    },
    {
      "content": "This table shows the apdex scores for each Sidekiq worker in the application, aggregated up\nto the feature category level.\n\nTo help understand what this metric means, you can think of it as the percentage of jobs\nfor each feature category that meet their execution SLO.\n\nCurrently we have 3 levels of `urgency` for Sidekiq jobs. High, low and throttled. Each\nlevel has an maximum execution time. The apdex score is effectively the number of jobs\nin each category that meet their execution latency SLO.\n",
      "datasource": null,
      "gridPos": {
        "h": 6,
        "w": 12,
        "x": 0,
        "y": 1
      },
      "id": 3,
      "mode": "markdown",
      "title": "Apdex by Feature Category Help",
      "type": "text"
    },
    {
      "content": "This table shows the error ratios for each Sidekiq worker in the application, aggregated up\nto the feature category level.\n\nThis is a percentage of jobs in each feature category that complete successfully.\n",
      "datasource": null,
      "gridPos": {
        "h": 6,
        "w": 12,
        "x": 12,
        "y": 1
      },
      "id": 4,
      "mode": "markdown",
      "title": "Error Rate by Feature Category Help",
      "type": "text"
    },
    {
      "columns": [

      ],
      "datasource": "$PROMETHEUS_DS",
      "description": "",
      "gridPos": {
        "h": 12,
        "w": 12,
        "x": 0,
        "y": 100
      },
      "id": 5,
      "links": [

      ],
      "styles": [
        {
          "mappingType": 1,
          "pattern": "Time",
          "type": "hidden"
        },
        {
          "decimals": 3,
          "mappingType": 1,
          "pattern": "Value",
          "type": "number",
          "unit": "percentunit"
        },
        {
          "alias": "Queue",
          "decimals": 2,
          "link": true,
          "linkTooltip": "View worker details",
          "linkUrl": "/d/sidekiq-worker-detail/sidekiq-worker-detail?orgId=1&var-environment=$environment&var-worker=${__cell}",
          "mappingType": 2,
          "pattern": "queue",
          "type": "string",
          "unit": "short"
        }
      ],
      "targets": [
        {
          "expr": "sort_desc(\n  clamp_max(\n    sum by (feature_category) (\n      avg_over_time(gitlab_background_jobs:execution:apdex:ratio_6h{environment=\"$environment\", env=\"$environment\"}[$__range])\n      *\n      avg_over_time(gitlab_background_jobs:execution:ops:rate_6h{environment=\"$environment\", env=\"$environment\"}[$__range])\n    )\n    /\n      (\n      sum by(feature_category) (\n        avg_over_time(gitlab_background_jobs:execution:ops:rate_6h{environment=\"$environment\", env=\"$environment\"}[$__range])\n      )\n    ) > 0,\n    1\n  )\n)\n",
          "format": "table",
          "instant": true,
          "interval": "1m",
          "intervalFactor": 3,
          "legendFormat": "",
          "refId": "A"
        }
      ],
      "timeFrom": null,
      "timeShift": null,
      "title": "Apdex by Feature Category",
      "transformations": [

      ],
      "type": "table"
    },
    {
      "columns": [

      ],
      "datasource": "$PROMETHEUS_DS",
      "description": "",
      "gridPos": {
        "h": 12,
        "w": 12,
        "x": 12,
        "y": 100
      },
      "id": 6,
      "links": [

      ],
      "styles": [
        {
          "mappingType": 1,
          "pattern": "Time",
          "type": "hidden"
        },
        {
          "decimals": 3,
          "mappingType": 1,
          "pattern": "Value",
          "type": "number",
          "unit": "percentunit"
        },
        {
          "alias": "Queue",
          "decimals": 2,
          "link": true,
          "linkTooltip": "View worker details",
          "linkUrl": "/d/sidekiq-worker-detail/sidekiq-worker-detail?orgId=1&var-environment=$environment&var-worker=${__cell}",
          "mappingType": 2,
          "pattern": "queue",
          "type": "string",
          "unit": "short"
        }
      ],
      "targets": [
        {
          "expr": "sort(\n  clamp_max(\n    sum by (feature_category) (\n      avg_over_time(gitlab_background_jobs:execution:error:rate_6h{environment=\"$environment\", env=\"$environment\"}[$__range])\n    )\n    /\n      (\n      sum by(feature_category) (\n        avg_over_time(gitlab_background_jobs:execution:ops:rate_6h{environment=\"$environment\", env=\"$environment\"}[$__range])\n      ) > 0\n    ),\n    1\n  )\n)\n",
          "format": "table",
          "instant": true,
          "interval": "1m",
          "intervalFactor": 3,
          "legendFormat": "",
          "refId": "A"
        }
      ],
      "timeFrom": null,
      "timeShift": null,
      "title": "Error Rate by Feature Category",
      "transformations": [

      ],
      "type": "table"
    },
    {
      "content": "This table shows the apdex scores for each Sidekiq worker in the application.\n\nThe apdex score measures the percentage of jobs that complete within their\nexecution latency SLO.\n\nTo find out what the execution latency SLO for a job is, click through the table\nto the Sidekiq Queue Detail dashboard.\n",
      "datasource": null,
      "gridPos": {
        "h": 6,
        "w": 12,
        "x": 0,
        "y": 200
      },
      "id": 7,
      "mode": "markdown",
      "title": "Apdex by Queue Help",
      "type": "text"
    },
    {
      "content": "This table shows the error ratios for each Sidekiq worker in the application.\n\nThis is a percentage of jobs for each worker that complete successfully.\n",
      "datasource": null,
      "gridPos": {
        "h": 6,
        "w": 12,
        "x": 12,
        "y": 200
      },
      "id": 8,
      "mode": "markdown",
      "title": "Error Rate by Queue Help",
      "type": "text"
    },
    {
      "columns": [

      ],
      "datasource": "$PROMETHEUS_DS",
      "description": "",
      "gridPos": {
        "h": 12,
        "w": 12,
        "x": 0,
        "y": 300
      },
      "id": 9,
      "links": [

      ],
      "styles": [
        {
          "mappingType": 1,
          "pattern": "Time",
          "type": "hidden"
        },
        {
          "decimals": 3,
          "mappingType": 1,
          "pattern": "Value",
          "type": "number",
          "unit": "percentunit"
        },
        {
          "alias": "Queue",
          "decimals": 2,
          "link": true,
          "linkTooltip": "View worker details",
          "linkUrl": "/d/sidekiq-worker-detail/sidekiq-worker-detail?orgId=1&var-environment=$environment&var-worker=${__cell}",
          "mappingType": 2,
          "pattern": "queue",
          "type": "string",
          "unit": "short"
        }
      ],
      "targets": [
        {
          "expr": "sort_desc(\n  clamp_max(\n    sum by (queue, feature_category) (\n      avg_over_time(gitlab_background_jobs:execution:apdex:ratio_6h{environment=\"$environment\", env=\"$environment\"}[$__range])\n      *\n      avg_over_time(gitlab_background_jobs:execution:ops:rate_6h{environment=\"$environment\", env=\"$environment\"}[$__range])\n    )\n    /\n      (\n      sum by(queue, feature_category) (\n        avg_over_time(gitlab_background_jobs:execution:ops:rate_6h{environment=\"$environment\", env=\"$environment\"}[$__range])\n      )\n    ) > 0,\n    1\n  )\n)\n",
          "format": "table",
          "instant": true,
          "interval": "1m",
          "intervalFactor": 3,
          "legendFormat": "",
          "refId": "A"
        }
      ],
      "timeFrom": null,
      "timeShift": null,
      "title": "Apdex by Queue",
      "transformations": [

      ],
      "type": "table"
    },
    {
      "columns": [

      ],
      "datasource": "$PROMETHEUS_DS",
      "description": "",
      "gridPos": {
        "h": 12,
        "w": 12,
        "x": 12,
        "y": 300
      },
      "id": 10,
      "links": [

      ],
      "styles": [
        {
          "mappingType": 1,
          "pattern": "Time",
          "type": "hidden"
        },
        {
          "decimals": 3,
          "mappingType": 1,
          "pattern": "Value",
          "type": "number",
          "unit": "percentunit"
        },
        {
          "alias": "Queue",
          "decimals": 2,
          "link": true,
          "linkTooltip": "View worker details",
          "linkUrl": "/d/sidekiq-worker-detail/sidekiq-worker-detail?orgId=1&var-environment=$environment&var-worker=${__cell}",
          "mappingType": 2,
          "pattern": "queue",
          "type": "string",
          "unit": "short"
        }
      ],
      "targets": [
        {
          "expr": "sort(\n  clamp_max(\n    sum by (queue, feature_category) (\n      avg_over_time(gitlab_background_jobs:execution:error:rate_6h{environment=\"$environment\", env=\"$environment\"}[$__range])\n    )\n    /\n    (\n      sum by(queue, feature_category) (\n        avg_over_time(gitlab_background_jobs:execution:ops:rate_6h{environment=\"$environment\", env=\"$environment\"}[$__range])\n      )\n    ) > 0,\n    1\n  )\n)\n",
          "format": "table",
          "instant": true,
          "interval": "1m",
          "intervalFactor": 3,
          "legendFormat": "",
          "refId": "A"
        }
      ],
      "timeFrom": null,
      "timeShift": null,
      "title": "Error Rate by Queue",
      "transformations": [

      ],
      "type": "table"
    },
    {
      "content": "This charts shows how much each queue contributed to the total degradation of availability\nof the Sidekiq service, over the range for this dashboard. This takes into account\npercentage of time that it missed its queueing latency SLO, percentage of time that it\nmissed its execution latency SLO, and error rates.\n\nThe ratio is measured as a fraction of the entire service, not on a per-queue basis.\n",
      "datasource": null,
      "gridPos": {
        "h": 4,
        "w": 24,
        "x": 0,
        "y": 400
      },
      "id": 11,
      "mode": "markdown",
      "title": "Error Budget Queue Attribution Help",
      "type": "text"
    },
    {
      "aliasColors": {
      },
      "bars": true,
      "dashLength": 10,
      "dashes": false,
      "datasource": null,
      "description": "Total queue contribution to error budget",
      "fill": 1,
      "fillGradient": 0,
      "gridPos": {
        "h": 12,
        "w": 24,
        "x": 0,
        "y": 500
      },
      "id": 12,
      "legend": {
        "alignAsTable": false,
        "avg": false,
        "current": false,
        "max": false,
        "min": false,
        "rightSide": false,
        "show": false,
        "sideWidth": null,
        "total": false,
        "values": false
      },
      "lines": false,
      "linewidth": 1,
      "links": [

      ],
      "nullPointMode": "null",
      "percentage": false,
      "pointradius": 5,
      "points": false,
      "renderer": "flot",
      "repeat": null,
      "seriesOverrides": [

      ],
      "spaceLength": 10,
      "stack": false,
      "steppedLine": false,
      "targets": [
        {
          "expr": "topk(8,\n  sum without(attribution) (\n    label_replace(\n      (1 - avg_over_time(gitlab_background_jobs:execution:apdex:ratio_6h{environment=\"$environment\", env=\"$environment\"}[$__range]))\n      *\n      avg_over_time(gitlab_background_jobs:execution:apdex:weight:score_6h{environment=\"$environment\", env=\"$environment\"}[$__range])\n      / on() group_left()\n      sum(avg_over_time(gitlab_background_jobs:execution:apdex:weight:score_6h{environment=\"$environment\", env=\"$environment\"}[$__range])),\n      \"attribution\", \"execution\", \"\", \"\"\n    )\n    or\n    label_replace(\n      (1 - avg_over_time(gitlab_background_jobs:queue:apdex:ratio_6h{environment=\"$environment\", env=\"$environment\"}[$__range]))\n      *\n      avg_over_time(gitlab_background_jobs:queue:apdex:weight:score_6h{environment=\"$environment\", env=\"$environment\"}[$__range])\n      / on() group_left()\n      sum(avg_over_time(gitlab_background_jobs:queue:apdex:weight:score_6h{environment=\"$environment\", env=\"$environment\"}[$__range])),\n      \"attribution\", \"queue\", \"\", \"\"\n    )\n    or\n    label_replace(\n      avg_over_time(gitlab_background_jobs:execution:error:rate_6h[$__range])\n      / on() group_left()\n      sum(avg_over_time(gitlab_background_jobs:execution:ops:rate_6h[$__range]))\n      ,\"attribution\", \"errors\", \"\", \"\"\n    )\n  )\n)\n",
          "format": "time_series",
          "instant": true,
          "interval": "1m",
          "intervalFactor": 3,
          "legendFormat": "{{ queue }}",
          "refId": "A"
        }
      ],
      "thresholds": [

      ],
      "timeFrom": null,
      "timeShift": null,
      "title": "Error Budget Queue Attribution",
      "tooltip": {
        "shared": false,
        "sort": 0,
        "value_type": "individual"
      },
      "type": "graph",
      "xaxis": {
        "buckets": null,
        "mode": "series",
        "name": null,
        "show": true,
        "values": [
          "current"
        ]
      },
      "yaxes": [
        {
          "format": "percentunit",
          "label": null,
          "logBase": 1,
          "max": null,
          "min": 0,
          "show": true
        },
        {
          "format": "percentunit",
          "label": null,
          "logBase": 1,
          "max": null,
          "min": 0,
          "show": true
        }
      ]
    },
    {
      "collapse": false,
      "collapsed": false,
      "gridPos": {
        "h": 1,
        "w": 24,
        "x": 0,
        "y": 600
      },
      "id": 13,
      "panels": [

      ],
      "repeat": null,
      "repeatIteration": null,
      "repeatRowId": null,
      "showTitle": true,
      "title": "API",
      "titleSize": "h6",
      "type": "row"
    },
    {
      "content": "This table shows the error ratios for all endpoints on the API service, aggregated up to the feature category level.\n\nThis is a percentage of requests in each feature category that fail.\n",
      "datasource": null,
      "gridPos": {
        "h": 3,
        "w": 24,
        "x": 0,
        "y": 600
      },
      "id": 14,
      "mode": "markdown",
      "title": "Error Rate by Feature Category Help",
      "type": "text"
    },
    {
      "columns": [

      ],
      "datasource": "$PROMETHEUS_DS",
      "description": "",
      "gridPos": {
        "h": 12,
        "w": 24,
        "x": 0,
        "y": 700
      },
      "id": 15,
      "links": [

      ],
      "styles": [
        {
          "mappingType": 1,
          "pattern": "Time",
          "type": "hidden"
        },
        {
          "decimals": 3,
          "mappingType": 1,
          "pattern": "Value",
          "type": "number",
          "unit": "percentunit"
        },
        {
          "alias": "Queue",
          "decimals": 2,
          "link": true,
          "linkTooltip": "View worker details",
          "linkUrl": "/d/sidekiq-worker-detail/sidekiq-worker-detail?orgId=1&var-environment=$environment&var-worker=${__cell}",
          "mappingType": 2,
          "pattern": "queue",
          "type": "string",
          "unit": "short"
        }
      ],
      "targets": [
        {
          "expr": "sort(clamp_max(\n  sum by (feature_category) (\n    avg_over_time(gitlab:component:feature_category:execution:error:ratio_6h{environment=\"$environment\", env=\"$environment\", component=\"puma\", type=\"api\"}[$__range])\n  ), 1\n))\n",
          "format": "table",
          "instant": true,
          "interval": "1m",
          "intervalFactor": 3,
          "legendFormat": "",
          "refId": "A"
        }
      ],
      "timeFrom": null,
      "timeShift": null,
      "title": "Error Rate by Feature Category",
      "transformations": [

      ],
      "type": "table"
    },
    {
      "collapse": false,
      "collapsed": false,
      "gridPos": {
        "h": 1,
        "w": 24,
        "x": 0,
        "y": 900
      },
      "id": 16,
      "panels": [

      ],
      "repeat": null,
      "repeatIteration": null,
      "repeatRowId": null,
      "showTitle": true,
      "title": "Git",
      "titleSize": "h6",
      "type": "row"
    },
    {
      "content": "This table shows the error ratios for all endpoints on the Git service, aggregated up to the feature category level.\n\nThis is a percentage of requests in each feature category that fail.\n",
      "datasource": null,
      "gridPos": {
        "h": 3,
        "w": 24,
        "x": 0,
        "y": 900
      },
      "id": 17,
      "mode": "markdown",
      "title": "Error Rate by Feature Category Help",
      "type": "text"
    },
    {
      "columns": [

      ],
      "datasource": "$PROMETHEUS_DS",
      "description": "",
      "gridPos": {
        "h": 12,
        "w": 24,
        "x": 0,
        "y": 1000
      },
      "id": 18,
      "links": [

      ],
      "styles": [
        {
          "mappingType": 1,
          "pattern": "Time",
          "type": "hidden"
        },
        {
          "decimals": 3,
          "mappingType": 1,
          "pattern": "Value",
          "type": "number",
          "unit": "percentunit"
        },
        {
          "alias": "Queue",
          "decimals": 2,
          "link": true,
          "linkTooltip": "View worker details",
          "linkUrl": "/d/sidekiq-worker-detail/sidekiq-worker-detail?orgId=1&var-environment=$environment&var-worker=${__cell}",
          "mappingType": 2,
          "pattern": "queue",
          "type": "string",
          "unit": "short"
        }
      ],
      "targets": [
        {
          "expr": "sort(clamp_max(\n  sum by (feature_category) (\n    avg_over_time(gitlab:component:feature_category:execution:error:ratio_6h{environment=\"$environment\", env=\"$environment\", component=\"puma\", type=\"git\"}[$__range])\n  ), 1\n))\n",
          "format": "table",
          "instant": true,
          "interval": "1m",
          "intervalFactor": 3,
          "legendFormat": "",
          "refId": "A"
        }
      ],
      "timeFrom": null,
      "timeShift": null,
      "title": "Error Rate by Feature Category",
      "transformations": [

      ],
      "type": "table"
    },
    {
      "collapse": false,
      "collapsed": false,
      "gridPos": {
        "h": 1,
        "w": 24,
        "x": 0,
        "y": 1200
      },
      "id": 19,
      "panels": [

      ],
      "repeat": null,
      "repeatIteration": null,
      "repeatRowId": null,
      "showTitle": true,
      "title": "Web",
      "titleSize": "h6",
      "type": "row"
    },
    {
      "content": "This table shows the error ratios for all endpoints on the Web service, aggregated up to the feature category level.\n\nThis is a percentage of requests in each feature category that fail.\n",
      "datasource": null,
      "gridPos": {
        "h": 3,
        "w": 24,
        "x": 0,
        "y": 1200
      },
      "id": 20,
      "mode": "markdown",
      "title": "Error Rate by Feature Category Help",
      "type": "text"
    },
    {
      "columns": [

      ],
      "datasource": "$PROMETHEUS_DS",
      "description": "",
      "gridPos": {
        "h": 12,
        "w": 24,
        "x": 0,
        "y": 1300
      },
      "id": 21,
      "links": [

      ],
      "styles": [
        {
          "mappingType": 1,
          "pattern": "Time",
          "type": "hidden"
        },
        {
          "decimals": 3,
          "mappingType": 1,
          "pattern": "Value",
          "type": "number",
          "unit": "percentunit"
        },
        {
          "alias": "Queue",
          "decimals": 2,
          "link": true,
          "linkTooltip": "View worker details",
          "linkUrl": "/d/sidekiq-worker-detail/sidekiq-worker-detail?orgId=1&var-environment=$environment&var-worker=${__cell}",
          "mappingType": 2,
          "pattern": "queue",
          "type": "string",
          "unit": "short"
        }
      ],
      "targets": [
        {
          "expr": "sort(clamp_max(\n  sum by (feature_category) (\n    avg_over_time(gitlab:component:feature_category:execution:error:ratio_6h{environment=\"$environment\", env=\"$environment\", component=\"puma\", type=\"web\"}[$__range])\n  ), 1\n))\n",
          "format": "table",
          "instant": true,
          "interval": "1m",
          "intervalFactor": 3,
          "legendFormat": "",
          "refId": "A"
        }
      ],
      "timeFrom": null,
      "timeShift": null,
      "title": "Error Rate by Feature Category",
      "transformations": [

      ],
      "type": "table"
    }
  ],
  "refresh": "",
  "rows": [

  ],
  "schemaVersion": 16,
  "style": "light",
  "tags": [
    "managed",
    "general",
    "feature_category"
  ],
  "templating": {
    "list": [
      {
        "current": {
          "text": "Global",
          "value": "Global"
        },
        "hide": 0,
        "label": null,
        "name": "PROMETHEUS_DS",
        "options": [

        ],
        "query": "prometheus",
        "refresh": 1,
        "regex": "",
        "type": "datasource"
      },
      {
        "allValue": null,
        "current": {
          "text": "gprd",
          "value": "gprd"
        },
        "datasource": "$PROMETHEUS_DS",
        "hide": 0,
        "includeAll": false,
        "label": null,
        "multi": false,
        "name": "environment",
        "options": [

        ],
        "query": "label_values(gitlab_service_ops:rate, environment)",
        "refresh": 1,
        "regex": "",
        "sort": 1,
        "tagValuesQuery": "",
        "tags": [

        ],
        "tagsQuery": "",
        "type": "query",
        "useTags": false
      }
    ]
  },
  "time": {
    "from": "now-7d",
    "to": "now/m"
  },
  "timepicker": {
    "refresh_intervals": [
      "1m",
      "5m",
      "10m",
      "15m",
      "30m"
    ],
    "time_options": [
      "5m",
      "15m",
      "1h",
      "6h",
      "12h",
      "24h",
      "2d",
      "7d",
      "30d"
    ]
  },
  "timezone": "utc",
  "title": "general: Feature Category Detail - Error Budgets",
  "uid": "general-error-budgets",
  "version": 2668
}