{
  "annotations": {
    "list": [

    ]
  },
  "description": "Uploaded by https://gitlab.com/gitlab-com/runbooks/-/jobs/3229213281 at Wed Oct 26 09:43:48 UTC 2022",
  "editable": true,
  "gnetId": null,
  "graphTooltip": 0,
  "hideControls": false,
  "id": null,
  "links": [

  ],
  "refresh": "5m",
  "rows": [
    {
      "collapse": false,
      "height": "100px",
      "panels": [
        {
          "aliasColors": {
          },
          "bars": false,
          "dashLength": 10,
          "dashes": false,
          "datasource": "$datasource",
          "fill": 1,
          "format": "percentunit",
          "id": 1,
          "interval": "1m",
          "legend": {
            "alignAsTable": true,
            "avg": false,
            "current": false,
            "max": false,
            "min": false,
            "rightSide": true,
            "show": true,
            "total": false,
            "values": false
          },
          "lines": true,
          "linewidth": 1,
          "links": [

          ],
          "nullPointMode": "null as zero",
          "percentage": false,
          "pointradius": 5,
          "points": false,
          "renderer": "flot",
          "seriesOverrides": [

          ],
          "spaceLength": 10,
          "span": 3,
          "stack": false,
          "steppedLine": false,
          "targets": [
            {
              "expr": "sum(node_namespace_pod_container:container_cpu_usage_seconds_total:sum_irate{cluster=\"$cluster\", namespace=\"$namespace\"}) / sum(kube_pod_container_resource_requests{job=\"kube-state-metrics\", cluster=\"$cluster\", namespace=\"$namespace\", resource=\"cpu\"})",
              "format": "time_series",
              "instant": true,
              "intervalFactor": 2,
              "refId": "A"
            }
          ],
          "thresholds": "70,80",
          "timeFrom": null,
          "timeShift": null,
          "title": "CPU Utilisation (from requests)",
          "tooltip": {
            "shared": false,
            "sort": 2,
            "value_type": "individual"
          },
          "type": "singlestat",
          "xaxis": {
            "buckets": null,
            "mode": "time",
            "name": null,
            "show": true,
            "values": [

            ]
          },
          "yaxes": [
            {
              "format": "short",
              "label": null,
              "logBase": 1,
              "max": null,
              "min": 0,
              "show": true
            },
            {
              "format": "short",
              "label": null,
              "logBase": 1,
              "max": null,
              "min": null,
              "show": false
            }
          ]
        },
        {
          "aliasColors": {
          },
          "bars": false,
          "dashLength": 10,
          "dashes": false,
          "datasource": "$datasource",
          "fill": 1,
          "format": "percentunit",
          "id": 2,
          "interval": "1m",
          "legend": {
            "alignAsTable": true,
            "avg": false,
            "current": false,
            "max": false,
            "min": false,
            "rightSide": true,
            "show": true,
            "total": false,
            "values": false
          },
          "lines": true,
          "linewidth": 1,
          "links": [

          ],
          "nullPointMode": "null as zero",
          "percentage": false,
          "pointradius": 5,
          "points": false,
          "renderer": "flot",
          "seriesOverrides": [

          ],
          "spaceLength": 10,
          "span": 3,
          "stack": false,
          "steppedLine": false,
          "targets": [
            {
              "expr": "sum(node_namespace_pod_container:container_cpu_usage_seconds_total:sum_irate{cluster=\"$cluster\", namespace=\"$namespace\"}) / sum(kube_pod_container_resource_limits{job=\"kube-state-metrics\", cluster=\"$cluster\", namespace=\"$namespace\", resource=\"cpu\"})",
              "format": "time_series",
              "instant": true,
              "intervalFactor": 2,
              "refId": "A"
            }
          ],
          "thresholds": "70,80",
          "timeFrom": null,
          "timeShift": null,
          "title": "CPU Utilisation (from limits)",
          "tooltip": {
            "shared": false,
            "sort": 2,
            "value_type": "individual"
          },
          "type": "singlestat",
          "xaxis": {
            "buckets": null,
            "mode": "time",
            "name": null,
            "show": true,
            "values": [

            ]
          },
          "yaxes": [
            {
              "format": "short",
              "label": null,
              "logBase": 1,
              "max": null,
              "min": 0,
              "show": true
            },
            {
              "format": "short",
              "label": null,
              "logBase": 1,
              "max": null,
              "min": null,
              "show": false
            }
          ]
        },
        {
          "aliasColors": {
          },
          "bars": false,
          "dashLength": 10,
          "dashes": false,
          "datasource": "$datasource",
          "fill": 1,
          "format": "percentunit",
          "id": 3,
          "interval": "1m",
          "legend": {
            "alignAsTable": true,
            "avg": false,
            "current": false,
            "max": false,
            "min": false,
            "rightSide": true,
            "show": true,
            "total": false,
            "values": false
          },
          "lines": true,
          "linewidth": 1,
          "links": [

          ],
          "nullPointMode": "null as zero",
          "percentage": false,
          "pointradius": 5,
          "points": false,
          "renderer": "flot",
          "seriesOverrides": [

          ],
          "spaceLength": 10,
          "span": 3,
          "stack": false,
          "steppedLine": false,
          "targets": [
            {
              "expr": "sum(container_memory_working_set_bytes{job=\"kubelet\", cluster=\"$cluster\", namespace=\"$namespace\",container!=\"\", image!=\"\"}) / sum(kube_pod_container_resource_requests{job=\"kube-state-metrics\", cluster=\"$cluster\", namespace=\"$namespace\", resource=\"memory\"})",
              "format": "time_series",
              "instant": true,
              "intervalFactor": 2,
              "refId": "A"
            }
          ],
          "thresholds": "70,80",
          "timeFrom": null,
          "timeShift": null,
          "title": "Memory Utilisation (from requests)",
          "tooltip": {
            "shared": false,
            "sort": 2,
            "value_type": "individual"
          },
          "type": "singlestat",
          "xaxis": {
            "buckets": null,
            "mode": "time",
            "name": null,
            "show": true,
            "values": [

            ]
          },
          "yaxes": [
            {
              "format": "short",
              "label": null,
              "logBase": 1,
              "max": null,
              "min": 0,
              "show": true
            },
            {
              "format": "short",
              "label": null,
              "logBase": 1,
              "max": null,
              "min": null,
              "show": false
            }
          ]
        },
        {
          "aliasColors": {
          },
          "bars": false,
          "dashLength": 10,
          "dashes": false,
          "datasource": "$datasource",
          "fill": 1,
          "format": "percentunit",
          "id": 4,
          "interval": "1m",
          "legend": {
            "alignAsTable": true,
            "avg": false,
            "current": false,
            "max": false,
            "min": false,
            "rightSide": true,
            "show": true,
            "total": false,
            "values": false
          },
          "lines": true,
          "linewidth": 1,
          "links": [

          ],
          "nullPointMode": "null as zero",
          "percentage": false,
          "pointradius": 5,
          "points": false,
          "renderer": "flot",
          "seriesOverrides": [

          ],
          "spaceLength": 10,
          "span": 3,
          "stack": false,
          "steppedLine": false,
          "targets": [
            {
              "expr": "sum(container_memory_working_set_bytes{job=\"kubelet\", cluster=\"$cluster\", namespace=\"$namespace\",container!=\"\", image!=\"\"}) / sum(kube_pod_container_resource_limits{job=\"kube-state-metrics\", cluster=\"$cluster\", namespace=\"$namespace\", resource=\"memory\"})",
              "format": "time_series",
              "instant": true,
              "intervalFactor": 2,
              "refId": "A"
            }
          ],
          "thresholds": "70,80",
          "timeFrom": null,
          "timeShift": null,
          "title": "Memory Utilisation (from limits)",
          "tooltip": {
            "shared": false,
            "sort": 2,
            "value_type": "individual"
          },
          "type": "singlestat",
          "xaxis": {
            "buckets": null,
            "mode": "time",
            "name": null,
            "show": true,
            "values": [

            ]
          },
          "yaxes": [
            {
              "format": "short",
              "label": null,
              "logBase": 1,
              "max": null,
              "min": 0,
              "show": true
            },
            {
              "format": "short",
              "label": null,
              "logBase": 1,
              "max": null,
              "min": null,
              "show": false
            }
          ]
        }
      ],
      "repeat": null,
      "repeatIteration": null,
      "repeatRowId": null,
      "showTitle": false,
      "title": "Headlines",
      "titleSize": "h6"
    },
    {
      "collapse": false,
      "height": "250px",
      "panels": [
        {
          "aliasColors": {
          },
          "bars": false,
          "dashLength": 10,
          "dashes": false,
          "datasource": "$datasource",
          "fill": 10,
          "id": 5,
          "interval": "1m",
          "legend": {
            "alignAsTable": true,
            "avg": false,
            "current": false,
            "max": false,
            "min": false,
            "rightSide": true,
            "show": true,
            "total": false,
            "values": false
          },
          "lines": true,
          "linewidth": 0,
          "links": [

          ],
          "nullPointMode": "null as zero",
          "percentage": false,
          "pointradius": 5,
          "points": false,
          "renderer": "flot",
          "seriesOverrides": [
            {
              "alias": "quota - requests",
              "color": "#F2495C",
              "dashes": true,
              "fill": 0,
              "hiddenSeries": true,
              "hideTooltip": true,
              "legend": true,
              "linewidth": 2,
              "stack": false
            },
            {
              "alias": "quota - limits",
              "color": "#FF9830",
              "dashes": true,
              "fill": 0,
              "hiddenSeries": true,
              "hideTooltip": true,
              "legend": true,
              "linewidth": 2,
              "stack": false
            }
          ],
          "spaceLength": 10,
          "span": 12,
          "stack": true,
          "steppedLine": false,
          "targets": [
            {
              "expr": "sum(node_namespace_pod_container:container_cpu_usage_seconds_total:sum_irate{cluster=\"$cluster\", namespace=\"$namespace\"}) by (pod)",
              "format": "time_series",
              "intervalFactor": 2,
              "legendFormat": "{{pod}}",
              "legendLink": null,
              "step": 10
            },
            {
              "expr": "scalar(kube_resourcequota{cluster=\"$cluster\", namespace=\"$namespace\", type=\"hard\",resource=\"requests.cpu\"})",
              "format": "time_series",
              "intervalFactor": 2,
              "legendFormat": "quota - requests",
              "legendLink": null,
              "step": 10
            },
            {
              "expr": "scalar(kube_resourcequota{cluster=\"$cluster\", namespace=\"$namespace\", type=\"hard\",resource=\"limits.cpu\"})",
              "format": "time_series",
              "intervalFactor": 2,
              "legendFormat": "quota - limits",
              "legendLink": null,
              "step": 10
            }
          ],
          "thresholds": [

          ],
          "timeFrom": null,
          "timeShift": null,
          "title": "CPU Usage",
          "tooltip": {
            "shared": false,
            "sort": 2,
            "value_type": "individual"
          },
          "type": "graph",
          "xaxis": {
            "buckets": null,
            "mode": "time",
            "name": null,
            "show": true,
            "values": [

            ]
          },
          "yaxes": [
            {
              "format": "short",
              "label": null,
              "logBase": 1,
              "max": null,
              "min": 0,
              "show": true
            },
            {
              "format": "short",
              "label": null,
              "logBase": 1,
              "max": null,
              "min": null,
              "show": false
            }
          ]
        }
      ],
      "repeat": null,
      "repeatIteration": null,
      "repeatRowId": null,
      "showTitle": true,
      "title": "CPU Usage",
      "titleSize": "h6"
    },
    {
      "collapse": false,
      "height": "250px",
      "panels": [
        {
          "aliasColors": {
          },
          "bars": false,
          "dashLength": 10,
          "dashes": false,
          "datasource": "$datasource",
          "fill": 1,
          "id": 6,
          "interval": "1m",
          "legend": {
            "alignAsTable": true,
            "avg": false,
            "current": false,
            "max": false,
            "min": false,
            "rightSide": true,
            "show": true,
            "total": false,
            "values": false
          },
          "lines": true,
          "linewidth": 1,
          "links": [

          ],
          "nullPointMode": "null as zero",
          "percentage": false,
          "pointradius": 5,
          "points": false,
          "renderer": "flot",
          "seriesOverrides": [

          ],
          "spaceLength": 10,
          "span": 12,
          "stack": false,
          "steppedLine": false,
          "styles": [
            {
              "alias": "Time",
              "dateFormat": "YYYY-MM-DD HH:mm:ss",
              "pattern": "Time",
              "type": "hidden"
            },
            {
              "alias": "CPU Usage",
              "colorMode": null,
              "colors": [

              ],
              "dateFormat": "YYYY-MM-DD HH:mm:ss",
              "decimals": 2,
              "link": false,
              "linkTargetBlank": false,
              "linkTooltip": "Drill down",
              "linkUrl": "",
              "pattern": "Value #A",
              "thresholds": [

              ],
              "type": "number",
              "unit": "short"
            },
            {
              "alias": "CPU Requests",
              "colorMode": null,
              "colors": [

              ],
              "dateFormat": "YYYY-MM-DD HH:mm:ss",
              "decimals": 2,
              "link": false,
              "linkTargetBlank": false,
              "linkTooltip": "Drill down",
              "linkUrl": "",
              "pattern": "Value #B",
              "thresholds": [

              ],
              "type": "number",
              "unit": "short"
            },
            {
              "alias": "CPU Requests %",
              "colorMode": null,
              "colors": [

              ],
              "dateFormat": "YYYY-MM-DD HH:mm:ss",
              "decimals": 2,
              "link": false,
              "linkTargetBlank": false,
              "linkTooltip": "Drill down",
              "linkUrl": "",
              "pattern": "Value #C",
              "thresholds": [

              ],
              "type": "number",
              "unit": "percentunit"
            },
            {
              "alias": "CPU Limits",
              "colorMode": null,
              "colors": [

              ],
              "dateFormat": "YYYY-MM-DD HH:mm:ss",
              "decimals": 2,
              "link": false,
              "linkTargetBlank": false,
              "linkTooltip": "Drill down",
              "linkUrl": "",
              "pattern": "Value #D",
              "thresholds": [

              ],
              "type": "number",
              "unit": "short"
            },
            {
              "alias": "CPU Limits %",
              "colorMode": null,
              "colors": [

              ],
              "dateFormat": "YYYY-MM-DD HH:mm:ss",
              "decimals": 2,
              "link": false,
              "linkTargetBlank": false,
              "linkTooltip": "Drill down",
              "linkUrl": "",
              "pattern": "Value #E",
              "thresholds": [

              ],
              "type": "number",
              "unit": "percentunit"
            },
            {
              "alias": "Pod",
              "colorMode": null,
              "colors": [

              ],
              "dateFormat": "YYYY-MM-DD HH:mm:ss",
              "decimals": 2,
              "link": true,
              "linkTargetBlank": false,
              "linkTooltip": "Drill down",
              "linkUrl": "/d/6581e46e4e5c7ba40a07646395ef7b23/k8s-resources-pod?var-datasource=$datasource&var-cluster=$cluster&var-namespace=$namespace&var-pod=$__cell",
              "pattern": "pod",
              "thresholds": [

              ],
              "type": "number",
              "unit": "short"
            },
            {
              "alias": "",
              "colorMode": null,
              "colors": [

              ],
              "dateFormat": "YYYY-MM-DD HH:mm:ss",
              "decimals": 2,
              "pattern": "/.*/",
              "thresholds": [

              ],
              "type": "string",
              "unit": "short"
            }
          ],
          "targets": [
            {
              "expr": "sum(node_namespace_pod_container:container_cpu_usage_seconds_total:sum_irate{cluster=\"$cluster\", namespace=\"$namespace\"}) by (pod)",
              "format": "table",
              "instant": true,
              "intervalFactor": 2,
              "legendFormat": "",
              "refId": "A",
              "step": 10
            },
            {
              "expr": "sum(cluster:namespace:pod_cpu:active:kube_pod_container_resource_requests{cluster=\"$cluster\", namespace=\"$namespace\"}) by (pod)",
              "format": "table",
              "instant": true,
              "intervalFactor": 2,
              "legendFormat": "",
              "refId": "B",
              "step": 10
            },
            {
              "expr": "sum(node_namespace_pod_container:container_cpu_usage_seconds_total:sum_irate{cluster=\"$cluster\", namespace=\"$namespace\"}) by (pod) / sum(cluster:namespace:pod_cpu:active:kube_pod_container_resource_requests{cluster=\"$cluster\", namespace=\"$namespace\"}) by (pod)",
              "format": "table",
              "instant": true,
              "intervalFactor": 2,
              "legendFormat": "",
              "refId": "C",
              "step": 10
            },
            {
              "expr": "sum(cluster:namespace:pod_cpu:active:kube_pod_container_resource_limits{cluster=\"$cluster\", namespace=\"$namespace\"}) by (pod)",
              "format": "table",
              "instant": true,
              "intervalFactor": 2,
              "legendFormat": "",
              "refId": "D",
              "step": 10
            },
            {
              "expr": "sum(node_namespace_pod_container:container_cpu_usage_seconds_total:sum_irate{cluster=\"$cluster\", namespace=\"$namespace\"}) by (pod) / sum(cluster:namespace:pod_cpu:active:kube_pod_container_resource_limits{cluster=\"$cluster\", namespace=\"$namespace\"}) by (pod)",
              "format": "table",
              "instant": true,
              "intervalFactor": 2,
              "legendFormat": "",
              "refId": "E",
              "step": 10
            }
          ],
          "thresholds": [

          ],
          "timeFrom": null,
          "timeShift": null,
          "title": "CPU Quota",
          "tooltip": {
            "shared": false,
            "sort": 2,
            "value_type": "individual"
          },
          "transform": "table",
          "type": "table",
          "xaxis": {
            "buckets": null,
            "mode": "time",
            "name": null,
            "show": true,
            "values": [

            ]
          },
          "yaxes": [
            {
              "format": "short",
              "label": null,
              "logBase": 1,
              "max": null,
              "min": 0,
              "show": true
            },
            {
              "format": "short",
              "label": null,
              "logBase": 1,
              "max": null,
              "min": null,
              "show": false
            }
          ]
        }
      ],
      "repeat": null,
      "repeatIteration": null,
      "repeatRowId": null,
      "showTitle": true,
      "title": "CPU Quota",
      "titleSize": "h6"
    },
    {
      "collapse": false,
      "height": "250px",
      "panels": [
        {
          "aliasColors": {
          },
          "bars": false,
          "dashLength": 10,
          "dashes": false,
          "datasource": "$datasource",
          "fill": 10,
          "id": 7,
          "interval": "1m",
          "legend": {
            "alignAsTable": true,
            "avg": false,
            "current": false,
            "max": false,
            "min": false,
            "rightSide": true,
            "show": true,
            "total": false,
            "values": false
          },
          "lines": true,
          "linewidth": 0,
          "links": [

          ],
          "nullPointMode": "null as zero",
          "percentage": false,
          "pointradius": 5,
          "points": false,
          "renderer": "flot",
          "seriesOverrides": [
            {
              "alias": "quota - requests",
              "color": "#F2495C",
              "dashes": true,
              "fill": 0,
              "hiddenSeries": true,
              "hideTooltip": true,
              "legend": true,
              "linewidth": 2,
              "stack": false
            },
            {
              "alias": "quota - limits",
              "color": "#FF9830",
              "dashes": true,
              "fill": 0,
              "hiddenSeries": true,
              "hideTooltip": true,
              "legend": true,
              "linewidth": 2,
              "stack": false
            }
          ],
          "spaceLength": 10,
          "span": 12,
          "stack": true,
          "steppedLine": false,
          "targets": [
            {
              "expr": "sum(container_memory_working_set_bytes{job=\"kubelet\", cluster=\"$cluster\", namespace=\"$namespace\", container!=\"\", image!=\"\"}) by (pod)",
              "format": "time_series",
              "intervalFactor": 2,
              "legendFormat": "{{pod}}",
              "legendLink": null,
              "step": 10
            },
            {
              "expr": "scalar(kube_resourcequota{cluster=\"$cluster\", namespace=\"$namespace\", type=\"hard\",resource=\"requests.memory\"})",
              "format": "time_series",
              "intervalFactor": 2,
              "legendFormat": "quota - requests",
              "legendLink": null,
              "step": 10
            },
            {
              "expr": "scalar(kube_resourcequota{cluster=\"$cluster\", namespace=\"$namespace\", type=\"hard\",resource=\"limits.memory\"})",
              "format": "time_series",
              "intervalFactor": 2,
              "legendFormat": "quota - limits",
              "legendLink": null,
              "step": 10
            }
          ],
          "thresholds": [

          ],
          "timeFrom": null,
          "timeShift": null,
          "title": "Memory Usage (w/o cache)",
          "tooltip": {
            "shared": false,
            "sort": 2,
            "value_type": "individual"
          },
          "type": "graph",
          "xaxis": {
            "buckets": null,
            "mode": "time",
            "name": null,
            "show": true,
            "values": [

            ]
          },
          "yaxes": [
            {
              "format": "bytes",
              "label": null,
              "logBase": 1,
              "max": null,
              "min": 0,
              "show": true
            },
            {
              "format": "short",
              "label": null,
              "logBase": 1,
              "max": null,
              "min": null,
              "show": false
            }
          ]
        }
      ],
      "repeat": null,
      "repeatIteration": null,
      "repeatRowId": null,
      "showTitle": true,
      "title": "Memory Usage",
      "titleSize": "h6"
    },
    {
      "collapse": false,
      "height": "250px",
      "panels": [
        {
          "aliasColors": {
          },
          "bars": false,
          "dashLength": 10,
          "dashes": false,
          "datasource": "$datasource",
          "fill": 1,
          "id": 8,
          "interval": "1m",
          "legend": {
            "alignAsTable": true,
            "avg": false,
            "current": false,
            "max": false,
            "min": false,
            "rightSide": true,
            "show": true,
            "total": false,
            "values": false
          },
          "lines": true,
          "linewidth": 1,
          "links": [

          ],
          "nullPointMode": "null as zero",
          "percentage": false,
          "pointradius": 5,
          "points": false,
          "renderer": "flot",
          "seriesOverrides": [

          ],
          "spaceLength": 10,
          "span": 12,
          "stack": false,
          "steppedLine": false,
          "styles": [
            {
              "alias": "Time",
              "dateFormat": "YYYY-MM-DD HH:mm:ss",
              "pattern": "Time",
              "type": "hidden"
            },
            {
              "alias": "Memory Usage",
              "colorMode": null,
              "colors": [

              ],
              "dateFormat": "YYYY-MM-DD HH:mm:ss",
              "decimals": 2,
              "link": false,
              "linkTargetBlank": false,
              "linkTooltip": "Drill down",
              "linkUrl": "",
              "pattern": "Value #A",
              "thresholds": [

              ],
              "type": "number",
              "unit": "bytes"
            },
            {
              "alias": "Memory Requests",
              "colorMode": null,
              "colors": [

              ],
              "dateFormat": "YYYY-MM-DD HH:mm:ss",
              "decimals": 2,
              "link": false,
              "linkTargetBlank": false,
              "linkTooltip": "Drill down",
              "linkUrl": "",
              "pattern": "Value #B",
              "thresholds": [

              ],
              "type": "number",
              "unit": "bytes"
            },
            {
              "alias": "Memory Requests %",
              "colorMode": null,
              "colors": [

              ],
              "dateFormat": "YYYY-MM-DD HH:mm:ss",
              "decimals": 2,
              "link": false,
              "linkTargetBlank": false,
              "linkTooltip": "Drill down",
              "linkUrl": "",
              "pattern": "Value #C",
              "thresholds": [

              ],
              "type": "number",
              "unit": "percentunit"
            },
            {
              "alias": "Memory Limits",
              "colorMode": null,
              "colors": [

              ],
              "dateFormat": "YYYY-MM-DD HH:mm:ss",
              "decimals": 2,
              "link": false,
              "linkTargetBlank": false,
              "linkTooltip": "Drill down",
              "linkUrl": "",
              "pattern": "Value #D",
              "thresholds": [

              ],
              "type": "number",
              "unit": "bytes"
            },
            {
              "alias": "Memory Limits %",
              "colorMode": null,
              "colors": [

              ],
              "dateFormat": "YYYY-MM-DD HH:mm:ss",
              "decimals": 2,
              "link": false,
              "linkTargetBlank": false,
              "linkTooltip": "Drill down",
              "linkUrl": "",
              "pattern": "Value #E",
              "thresholds": [

              ],
              "type": "number",
              "unit": "percentunit"
            },
            {
              "alias": "Memory Usage (RSS)",
              "colorMode": null,
              "colors": [

              ],
              "dateFormat": "YYYY-MM-DD HH:mm:ss",
              "decimals": 2,
              "link": false,
              "linkTargetBlank": false,
              "linkTooltip": "Drill down",
              "linkUrl": "",
              "pattern": "Value #F",
              "thresholds": [

              ],
              "type": "number",
              "unit": "bytes"
            },
            {
              "alias": "Memory Usage (Cache)",
              "colorMode": null,
              "colors": [

              ],
              "dateFormat": "YYYY-MM-DD HH:mm:ss",
              "decimals": 2,
              "link": false,
              "linkTargetBlank": false,
              "linkTooltip": "Drill down",
              "linkUrl": "",
              "pattern": "Value #G",
              "thresholds": [

              ],
              "type": "number",
              "unit": "bytes"
            },
            {
              "alias": "Memory Usage (Swap)",
              "colorMode": null,
              "colors": [

              ],
              "dateFormat": "YYYY-MM-DD HH:mm:ss",
              "decimals": 2,
              "link": false,
              "linkTargetBlank": false,
              "linkTooltip": "Drill down",
              "linkUrl": "",
              "pattern": "Value #H",
              "thresholds": [

              ],
              "type": "number",
              "unit": "bytes"
            },
            {
              "alias": "Pod",
              "colorMode": null,
              "colors": [

              ],
              "dateFormat": "YYYY-MM-DD HH:mm:ss",
              "decimals": 2,
              "link": true,
              "linkTargetBlank": false,
              "linkTooltip": "Drill down",
              "linkUrl": "/d/6581e46e4e5c7ba40a07646395ef7b23/k8s-resources-pod?var-datasource=$datasource&var-cluster=$cluster&var-namespace=$namespace&var-pod=$__cell",
              "pattern": "pod",
              "thresholds": [

              ],
              "type": "number",
              "unit": "short"
            },
            {
              "alias": "",
              "colorMode": null,
              "colors": [

              ],
              "dateFormat": "YYYY-MM-DD HH:mm:ss",
              "decimals": 2,
              "pattern": "/.*/",
              "thresholds": [

              ],
              "type": "string",
              "unit": "short"
            }
          ],
          "targets": [
            {
              "expr": "sum(container_memory_working_set_bytes{job=\"kubelet\", cluster=\"$cluster\", namespace=\"$namespace\",container!=\"\", image!=\"\"}) by (pod)",
              "format": "table",
              "instant": true,
              "intervalFactor": 2,
              "legendFormat": "",
              "refId": "A",
              "step": 10
            },
            {
              "expr": "sum(cluster:namespace:pod_memory:active:kube_pod_container_resource_requests{cluster=\"$cluster\", namespace=\"$namespace\"}) by (pod)",
              "format": "table",
              "instant": true,
              "intervalFactor": 2,
              "legendFormat": "",
              "refId": "B",
              "step": 10
            },
            {
              "expr": "sum(container_memory_working_set_bytes{job=\"kubelet\", cluster=\"$cluster\", namespace=\"$namespace\",container!=\"\", image!=\"\"}) by (pod) / sum(cluster:namespace:pod_memory:active:kube_pod_container_resource_requests{cluster=\"$cluster\", namespace=\"$namespace\"}) by (pod)",
              "format": "table",
              "instant": true,
              "intervalFactor": 2,
              "legendFormat": "",
              "refId": "C",
              "step": 10
            },
            {
              "expr": "sum(cluster:namespace:pod_memory:active:kube_pod_container_resource_limits{cluster=\"$cluster\", namespace=\"$namespace\"}) by (pod)",
              "format": "table",
              "instant": true,
              "intervalFactor": 2,
              "legendFormat": "",
              "refId": "D",
              "step": 10
            },
            {
              "expr": "sum(container_memory_working_set_bytes{job=\"kubelet\", cluster=\"$cluster\", namespace=\"$namespace\",container!=\"\", image!=\"\"}) by (pod) / sum(cluster:namespace:pod_memory:active:kube_pod_container_resource_limits{cluster=\"$cluster\", namespace=\"$namespace\"}) by (pod)",
              "format": "table",
              "instant": true,
              "intervalFactor": 2,
              "legendFormat": "",
              "refId": "E",
              "step": 10
            },
            {
              "expr": "sum(container_memory_rss{job=\"kubelet\", cluster=\"$cluster\", namespace=\"$namespace\",container!=\"\"}) by (pod)",
              "format": "table",
              "instant": true,
              "intervalFactor": 2,
              "legendFormat": "",
              "refId": "F",
              "step": 10
            },
            {
              "expr": "sum(container_memory_cache{job=\"kubelet\", cluster=\"$cluster\", namespace=\"$namespace\",container!=\"\"}) by (pod)",
              "format": "table",
              "instant": true,
              "intervalFactor": 2,
              "legendFormat": "",
              "refId": "G",
              "step": 10
            },
            {
              "expr": "sum(container_memory_swap{job=\"kubelet\", cluster=\"$cluster\", namespace=\"$namespace\",container!=\"\"}) by (pod)",
              "format": "table",
              "instant": true,
              "intervalFactor": 2,
              "legendFormat": "",
              "refId": "H",
              "step": 10
            }
          ],
          "thresholds": [

          ],
          "timeFrom": null,
          "timeShift": null,
          "title": "Memory Quota",
          "tooltip": {
            "shared": false,
            "sort": 2,
            "value_type": "individual"
          },
          "transform": "table",
          "type": "table",
          "xaxis": {
            "buckets": null,
            "mode": "time",
            "name": null,
            "show": true,
            "values": [

            ]
          },
          "yaxes": [
            {
              "format": "short",
              "label": null,
              "logBase": 1,
              "max": null,
              "min": 0,
              "show": true
            },
            {
              "format": "short",
              "label": null,
              "logBase": 1,
              "max": null,
              "min": null,
              "show": false
            }
          ]
        }
      ],
      "repeat": null,
      "repeatIteration": null,
      "repeatRowId": null,
      "showTitle": true,
      "title": "Memory Quota",
      "titleSize": "h6"
    },
    {
      "collapse": false,
      "height": "250px",
      "panels": [
        {
          "aliasColors": {
          },
          "bars": false,
          "dashLength": 10,
          "dashes": false,
          "datasource": "$datasource",
          "fill": 1,
          "id": 9,
          "interval": "1m",
          "legend": {
            "alignAsTable": true,
            "avg": false,
            "current": false,
            "max": false,
            "min": false,
            "rightSide": true,
            "show": true,
            "total": false,
            "values": false
          },
          "lines": true,
          "linewidth": 1,
          "links": [

          ],
          "nullPointMode": "null as zero",
          "percentage": false,
          "pointradius": 5,
          "points": false,
          "renderer": "flot",
          "seriesOverrides": [

          ],
          "spaceLength": 10,
          "span": 12,
          "stack": false,
          "steppedLine": false,
          "styles": [
            {
              "alias": "Time",
              "dateFormat": "YYYY-MM-DD HH:mm:ss",
              "pattern": "Time",
              "type": "hidden"
            },
            {
              "alias": "Current Receive Bandwidth",
              "colorMode": null,
              "colors": [

              ],
              "dateFormat": "YYYY-MM-DD HH:mm:ss",
              "decimals": 2,
              "link": false,
              "linkTargetBlank": false,
              "linkTooltip": "Drill down",
              "linkUrl": "",
              "pattern": "Value #A",
              "thresholds": [

              ],
              "type": "number",
              "unit": "Bps"
            },
            {
              "alias": "Current Transmit Bandwidth",
              "colorMode": null,
              "colors": [

              ],
              "dateFormat": "YYYY-MM-DD HH:mm:ss",
              "decimals": 2,
              "link": false,
              "linkTargetBlank": false,
              "linkTooltip": "Drill down",
              "linkUrl": "",
              "pattern": "Value #B",
              "thresholds": [

              ],
              "type": "number",
              "unit": "Bps"
            },
            {
              "alias": "Rate of Received Packets",
              "colorMode": null,
              "colors": [

              ],
              "dateFormat": "YYYY-MM-DD HH:mm:ss",
              "decimals": 2,
              "link": false,
              "linkTargetBlank": false,
              "linkTooltip": "Drill down",
              "linkUrl": "",
              "pattern": "Value #C",
              "thresholds": [

              ],
              "type": "number",
              "unit": "pps"
            },
            {
              "alias": "Rate of Transmitted Packets",
              "colorMode": null,
              "colors": [

              ],
              "dateFormat": "YYYY-MM-DD HH:mm:ss",
              "decimals": 2,
              "link": false,
              "linkTargetBlank": false,
              "linkTooltip": "Drill down",
              "linkUrl": "",
              "pattern": "Value #D",
              "thresholds": [

              ],
              "type": "number",
              "unit": "pps"
            },
            {
              "alias": "Rate of Received Packets Dropped",
              "colorMode": null,
              "colors": [

              ],
              "dateFormat": "YYYY-MM-DD HH:mm:ss",
              "decimals": 2,
              "link": false,
              "linkTargetBlank": false,
              "linkTooltip": "Drill down",
              "linkUrl": "",
              "pattern": "Value #E",
              "thresholds": [

              ],
              "type": "number",
              "unit": "pps"
            },
            {
              "alias": "Rate of Transmitted Packets Dropped",
              "colorMode": null,
              "colors": [

              ],
              "dateFormat": "YYYY-MM-DD HH:mm:ss",
              "decimals": 2,
              "link": false,
              "linkTargetBlank": false,
              "linkTooltip": "Drill down",
              "linkUrl": "",
              "pattern": "Value #F",
              "thresholds": [

              ],
              "type": "number",
              "unit": "pps"
            },
            {
              "alias": "Pod",
              "colorMode": null,
              "colors": [

              ],
              "dateFormat": "YYYY-MM-DD HH:mm:ss",
              "decimals": 2,
              "link": true,
              "linkTargetBlank": false,
              "linkTooltip": "Drill down to pods",
              "linkUrl": "/d/6581e46e4e5c7ba40a07646395ef7b23/k8s-resources-pod?var-datasource=$datasource&var-cluster=$cluster&var-namespace=$namespace&var-pod=$__cell",
              "pattern": "pod",
              "thresholds": [

              ],
              "type": "number",
              "unit": "short"
            },
            {
              "alias": "",
              "colorMode": null,
              "colors": [

              ],
              "dateFormat": "YYYY-MM-DD HH:mm:ss",
              "decimals": 2,
              "pattern": "/.*/",
              "thresholds": [

              ],
              "type": "string",
              "unit": "short"
            }
          ],
          "targets": [
            {
              "expr": "sum(irate(container_network_receive_bytes_total{job=\"kubelet\", cluster=\"$cluster\", namespace=\"$namespace\"}[$__rate_interval])) by (pod)",
              "format": "table",
              "instant": true,
              "intervalFactor": 2,
              "legendFormat": "",
              "refId": "A",
              "step": 10
            },
            {
              "expr": "sum(irate(container_network_transmit_bytes_total{job=\"kubelet\", cluster=\"$cluster\", namespace=\"$namespace\"}[$__rate_interval])) by (pod)",
              "format": "table",
              "instant": true,
              "intervalFactor": 2,
              "legendFormat": "",
              "refId": "B",
              "step": 10
            },
            {
              "expr": "sum(irate(container_network_receive_packets_total{job=\"kubelet\", cluster=\"$cluster\", namespace=\"$namespace\"}[$__rate_interval])) by (pod)",
              "format": "table",
              "instant": true,
              "intervalFactor": 2,
              "legendFormat": "",
              "refId": "C",
              "step": 10
            },
            {
              "expr": "sum(irate(container_network_transmit_packets_total{job=\"kubelet\", cluster=\"$cluster\", namespace=\"$namespace\"}[$__rate_interval])) by (pod)",
              "format": "table",
              "instant": true,
              "intervalFactor": 2,
              "legendFormat": "",
              "refId": "D",
              "step": 10
            },
            {
              "expr": "sum(irate(container_network_receive_packets_dropped_total{job=\"kubelet\", cluster=\"$cluster\", namespace=\"$namespace\"}[$__rate_interval])) by (pod)",
              "format": "table",
              "instant": true,
              "intervalFactor": 2,
              "legendFormat": "",
              "refId": "E",
              "step": 10
            },
            {
              "expr": "sum(irate(container_network_transmit_packets_dropped_total{job=\"kubelet\", cluster=\"$cluster\", namespace=\"$namespace\"}[$__rate_interval])) by (pod)",
              "format": "table",
              "instant": true,
              "intervalFactor": 2,
              "legendFormat": "",
              "refId": "F",
              "step": 10
            }
          ],
          "thresholds": [

          ],
          "timeFrom": null,
          "timeShift": null,
          "title": "Current Network Usage",
          "tooltip": {
            "shared": false,
            "sort": 2,
            "value_type": "individual"
          },
          "transform": "table",
          "type": "table",
          "xaxis": {
            "buckets": null,
            "mode": "time",
            "name": null,
            "show": true,
            "values": [

            ]
          },
          "yaxes": [
            {
              "format": "short",
              "label": null,
              "logBase": 1,
              "max": null,
              "min": 0,
              "show": true
            },
            {
              "format": "short",
              "label": null,
              "logBase": 1,
              "max": null,
              "min": null,
              "show": false
            }
          ]
        }
      ],
      "repeat": null,
      "repeatIteration": null,
      "repeatRowId": null,
      "showTitle": true,
      "title": "Current Network Usage",
      "titleSize": "h6"
    },
    {
      "collapse": false,
      "height": "250px",
      "panels": [
        {
          "aliasColors": {
          },
          "bars": false,
          "dashLength": 10,
          "dashes": false,
          "datasource": "$datasource",
          "fill": 10,
          "id": 10,
          "interval": "1m",
          "legend": {
            "alignAsTable": true,
            "avg": false,
            "current": false,
            "max": false,
            "min": false,
            "rightSide": true,
            "show": true,
            "total": false,
            "values": false
          },
          "lines": true,
          "linewidth": 0,
          "links": [

          ],
          "nullPointMode": "null as zero",
          "percentage": false,
          "pointradius": 5,
          "points": false,
          "renderer": "flot",
          "seriesOverrides": [

          ],
          "spaceLength": 10,
          "span": 6,
          "stack": true,
          "steppedLine": false,
          "targets": [
            {
              "expr": "sum(irate(container_network_receive_bytes_total{cluster=\"$cluster\", namespace=\"$namespace\"}[$__rate_interval])) by (pod)",
              "format": "time_series",
              "intervalFactor": 2,
              "legendFormat": "{{pod}}",
              "legendLink": null,
              "step": 10
            }
          ],
          "thresholds": [

          ],
          "timeFrom": null,
          "timeShift": null,
          "title": "Receive Bandwidth",
          "tooltip": {
            "shared": false,
            "sort": 2,
            "value_type": "individual"
          },
          "type": "graph",
          "xaxis": {
            "buckets": null,
            "mode": "time",
            "name": null,
            "show": true,
            "values": [

            ]
          },
          "yaxes": [
            {
              "format": "Bps",
              "label": null,
              "logBase": 1,
              "max": null,
              "min": 0,
              "show": true
            },
            {
              "format": "short",
              "label": null,
              "logBase": 1,
              "max": null,
              "min": null,
              "show": false
            }
          ]
        },
        {
          "aliasColors": {
          },
          "bars": false,
          "dashLength": 10,
          "dashes": false,
          "datasource": "$datasource",
          "fill": 10,
          "id": 11,
          "interval": "1m",
          "legend": {
            "alignAsTable": true,
            "avg": false,
            "current": false,
            "max": false,
            "min": false,
            "rightSide": true,
            "show": true,
            "total": false,
            "values": false
          },
          "lines": true,
          "linewidth": 0,
          "links": [

          ],
          "nullPointMode": "null as zero",
          "percentage": false,
          "pointradius": 5,
          "points": false,
          "renderer": "flot",
          "seriesOverrides": [

          ],
          "spaceLength": 10,
          "span": 6,
          "stack": true,
          "steppedLine": false,
          "targets": [
            {
              "expr": "sum(irate(container_network_transmit_bytes_total{cluster=\"$cluster\", namespace=\"$namespace\"}[$__rate_interval])) by (pod)",
              "format": "time_series",
              "intervalFactor": 2,
              "legendFormat": "{{pod}}",
              "legendLink": null,
              "step": 10
            }
          ],
          "thresholds": [

          ],
          "timeFrom": null,
          "timeShift": null,
          "title": "Transmit Bandwidth",
          "tooltip": {
            "shared": false,
            "sort": 2,
            "value_type": "individual"
          },
          "type": "graph",
          "xaxis": {
            "buckets": null,
            "mode": "time",
            "name": null,
            "show": true,
            "values": [

            ]
          },
          "yaxes": [
            {
              "format": "Bps",
              "label": null,
              "logBase": 1,
              "max": null,
              "min": 0,
              "show": true
            },
            {
              "format": "short",
              "label": null,
              "logBase": 1,
              "max": null,
              "min": null,
              "show": false
            }
          ]
        }
      ],
      "repeat": null,
      "repeatIteration": null,
      "repeatRowId": null,
      "showTitle": true,
      "title": "Bandwidth",
      "titleSize": "h6"
    },
    {
      "collapse": false,
      "height": "250px",
      "panels": [
        {
          "aliasColors": {
          },
          "bars": false,
          "dashLength": 10,
          "dashes": false,
          "datasource": "$datasource",
          "fill": 10,
          "id": 12,
          "interval": "1m",
          "legend": {
            "alignAsTable": true,
            "avg": false,
            "current": false,
            "max": false,
            "min": false,
            "rightSide": true,
            "show": true,
            "total": false,
            "values": false
          },
          "lines": true,
          "linewidth": 0,
          "links": [

          ],
          "nullPointMode": "null as zero",
          "percentage": false,
          "pointradius": 5,
          "points": false,
          "renderer": "flot",
          "seriesOverrides": [

          ],
          "spaceLength": 10,
          "span": 6,
          "stack": true,
          "steppedLine": false,
          "targets": [
            {
              "expr": "sum(irate(container_network_receive_packets_total{cluster=\"$cluster\", namespace=\"$namespace\"}[$__rate_interval])) by (pod)",
              "format": "time_series",
              "intervalFactor": 2,
              "legendFormat": "{{pod}}",
              "legendLink": null,
              "step": 10
            }
          ],
          "thresholds": [

          ],
          "timeFrom": null,
          "timeShift": null,
          "title": "Rate of Received Packets",
          "tooltip": {
            "shared": false,
            "sort": 2,
            "value_type": "individual"
          },
          "type": "graph",
          "xaxis": {
            "buckets": null,
            "mode": "time",
            "name": null,
            "show": true,
            "values": [

            ]
          },
          "yaxes": [
            {
              "format": "pps",
              "label": null,
              "logBase": 1,
              "max": null,
              "min": 0,
              "show": true
            },
            {
              "format": "short",
              "label": null,
              "logBase": 1,
              "max": null,
              "min": null,
              "show": false
            }
          ]
        },
        {
          "aliasColors": {
          },
          "bars": false,
          "dashLength": 10,
          "dashes": false,
          "datasource": "$datasource",
          "fill": 10,
          "id": 13,
          "interval": "1m",
          "legend": {
            "alignAsTable": true,
            "avg": false,
            "current": false,
            "max": false,
            "min": false,
            "rightSide": true,
            "show": true,
            "total": false,
            "values": false
          },
          "lines": true,
          "linewidth": 0,
          "links": [

          ],
          "nullPointMode": "null as zero",
          "percentage": false,
          "pointradius": 5,
          "points": false,
          "renderer": "flot",
          "seriesOverrides": [

          ],
          "spaceLength": 10,
          "span": 6,
          "stack": true,
          "steppedLine": false,
          "targets": [
            {
              "expr": "sum(irate(container_network_transmit_packets_total{cluster=\"$cluster\", namespace=\"$namespace\"}[$__rate_interval])) by (pod)",
              "format": "time_series",
              "intervalFactor": 2,
              "legendFormat": "{{pod}}",
              "legendLink": null,
              "step": 10
            }
          ],
          "thresholds": [

          ],
          "timeFrom": null,
          "timeShift": null,
          "title": "Rate of Transmitted Packets",
          "tooltip": {
            "shared": false,
            "sort": 2,
            "value_type": "individual"
          },
          "type": "graph",
          "xaxis": {
            "buckets": null,
            "mode": "time",
            "name": null,
            "show": true,
            "values": [

            ]
          },
          "yaxes": [
            {
              "format": "pps",
              "label": null,
              "logBase": 1,
              "max": null,
              "min": 0,
              "show": true
            },
            {
              "format": "short",
              "label": null,
              "logBase": 1,
              "max": null,
              "min": null,
              "show": false
            }
          ]
        }
      ],
      "repeat": null,
      "repeatIteration": null,
      "repeatRowId": null,
      "showTitle": true,
      "title": "Rate of Packets",
      "titleSize": "h6"
    },
    {
      "collapse": false,
      "height": "250px",
      "panels": [
        {
          "aliasColors": {
          },
          "bars": false,
          "dashLength": 10,
          "dashes": false,
          "datasource": "$datasource",
          "fill": 10,
          "id": 14,
          "interval": "1m",
          "legend": {
            "alignAsTable": true,
            "avg": false,
            "current": false,
            "max": false,
            "min": false,
            "rightSide": true,
            "show": true,
            "total": false,
            "values": false
          },
          "lines": true,
          "linewidth": 0,
          "links": [

          ],
          "nullPointMode": "null as zero",
          "percentage": false,
          "pointradius": 5,
          "points": false,
          "renderer": "flot",
          "seriesOverrides": [

          ],
          "spaceLength": 10,
          "span": 6,
          "stack": true,
          "steppedLine": false,
          "targets": [
            {
              "expr": "sum(irate(container_network_receive_packets_dropped_total{cluster=\"$cluster\", namespace=\"$namespace\"}[$__rate_interval])) by (pod)",
              "format": "time_series",
              "intervalFactor": 2,
              "legendFormat": "{{pod}}",
              "legendLink": null,
              "step": 10
            }
          ],
          "thresholds": [

          ],
          "timeFrom": null,
          "timeShift": null,
          "title": "Rate of Received Packets Dropped",
          "tooltip": {
            "shared": false,
            "sort": 2,
            "value_type": "individual"
          },
          "type": "graph",
          "xaxis": {
            "buckets": null,
            "mode": "time",
            "name": null,
            "show": true,
            "values": [

            ]
          },
          "yaxes": [
            {
              "format": "pps",
              "label": null,
              "logBase": 1,
              "max": null,
              "min": 0,
              "show": true
            },
            {
              "format": "short",
              "label": null,
              "logBase": 1,
              "max": null,
              "min": null,
              "show": false
            }
          ]
        },
        {
          "aliasColors": {
          },
          "bars": false,
          "dashLength": 10,
          "dashes": false,
          "datasource": "$datasource",
          "fill": 10,
          "id": 15,
          "interval": "1m",
          "legend": {
            "alignAsTable": true,
            "avg": false,
            "current": false,
            "max": false,
            "min": false,
            "rightSide": true,
            "show": true,
            "total": false,
            "values": false
          },
          "lines": true,
          "linewidth": 0,
          "links": [

          ],
          "nullPointMode": "null as zero",
          "percentage": false,
          "pointradius": 5,
          "points": false,
          "renderer": "flot",
          "seriesOverrides": [

          ],
          "spaceLength": 10,
          "span": 6,
          "stack": true,
          "steppedLine": false,
          "targets": [
            {
              "expr": "sum(irate(container_network_transmit_packets_dropped_total{cluster=\"$cluster\", namespace=\"$namespace\"}[$__rate_interval])) by (pod)",
              "format": "time_series",
              "intervalFactor": 2,
              "legendFormat": "{{pod}}",
              "legendLink": null,
              "step": 10
            }
          ],
          "thresholds": [

          ],
          "timeFrom": null,
          "timeShift": null,
          "title": "Rate of Transmitted Packets Dropped",
          "tooltip": {
            "shared": false,
            "sort": 2,
            "value_type": "individual"
          },
          "type": "graph",
          "xaxis": {
            "buckets": null,
            "mode": "time",
            "name": null,
            "show": true,
            "values": [

            ]
          },
          "yaxes": [
            {
              "format": "pps",
              "label": null,
              "logBase": 1,
              "max": null,
              "min": 0,
              "show": true
            },
            {
              "format": "short",
              "label": null,
              "logBase": 1,
              "max": null,
              "min": null,
              "show": false
            }
          ]
        }
      ],
      "repeat": null,
      "repeatIteration": null,
      "repeatRowId": null,
      "showTitle": true,
      "title": "Rate of Packets Dropped",
      "titleSize": "h6"
    },
    {
      "collapse": false,
      "height": "250px",
      "panels": [
        {
          "aliasColors": {
          },
          "bars": false,
          "dashLength": 10,
          "dashes": false,
          "datasource": "$datasource",
          "decimals": -1,
          "fill": 10,
          "id": 16,
          "interval": "1m",
          "legend": {
            "alignAsTable": true,
            "avg": false,
            "current": false,
            "max": false,
            "min": false,
            "rightSide": true,
            "show": true,
            "total": false,
            "values": false
          },
          "lines": true,
          "linewidth": 0,
          "links": [

          ],
          "nullPointMode": "null as zero",
          "percentage": false,
          "pointradius": 5,
          "points": false,
          "renderer": "flot",
          "seriesOverrides": [

          ],
          "spaceLength": 10,
          "span": 6,
          "stack": true,
          "steppedLine": false,
          "targets": [
            {
              "expr": "ceil(sum by(pod) (rate(container_fs_reads_total{container!=\"\", device=~\"mmcblk.p.+|nvme.+|rbd.+|sd.+|vd.+|xvd.+|dm-.+|dasd.+\", cluster=\"$cluster\", namespace=\"$namespace\"}[$__rate_interval]) + rate(container_fs_writes_total{container!=\"\", device=~\"mmcblk.p.+|nvme.+|rbd.+|sd.+|vd.+|xvd.+|dm-.+|dasd.+\", cluster=\"$cluster\", namespace=\"$namespace\"}[$__rate_interval])))",
              "format": "time_series",
              "intervalFactor": 2,
              "legendFormat": "{{pod}}",
              "legendLink": null,
              "step": 10
            }
          ],
          "thresholds": [

          ],
          "timeFrom": null,
          "timeShift": null,
          "title": "IOPS(Reads+Writes)",
          "tooltip": {
            "shared": false,
            "sort": 2,
            "value_type": "individual"
          },
          "type": "graph",
          "xaxis": {
            "buckets": null,
            "mode": "time",
            "name": null,
            "show": true,
            "values": [

            ]
          },
          "yaxes": [
            {
              "format": "short",
              "label": null,
              "logBase": 1,
              "max": null,
              "min": 0,
              "show": true
            },
            {
              "format": "short",
              "label": null,
              "logBase": 1,
              "max": null,
              "min": null,
              "show": false
            }
          ]
        },
        {
          "aliasColors": {
          },
          "bars": false,
          "dashLength": 10,
          "dashes": false,
          "datasource": "$datasource",
          "fill": 10,
          "id": 17,
          "interval": "1m",
          "legend": {
            "alignAsTable": true,
            "avg": false,
            "current": false,
            "max": false,
            "min": false,
            "rightSide": true,
            "show": true,
            "total": false,
            "values": false
          },
          "lines": true,
          "linewidth": 0,
          "links": [

          ],
          "nullPointMode": "null as zero",
          "percentage": false,
          "pointradius": 5,
          "points": false,
          "renderer": "flot",
          "seriesOverrides": [

          ],
          "spaceLength": 10,
          "span": 6,
          "stack": true,
          "steppedLine": false,
          "targets": [
            {
              "expr": "sum by(pod) (rate(container_fs_reads_bytes_total{container!=\"\", device=~\"mmcblk.p.+|nvme.+|rbd.+|sd.+|vd.+|xvd.+|dm-.+|dasd.+\", cluster=\"$cluster\", namespace=\"$namespace\"}[$__rate_interval]) + rate(container_fs_writes_bytes_total{container!=\"\", device=~\"mmcblk.p.+|nvme.+|rbd.+|sd.+|vd.+|xvd.+|dm-.+|dasd.+\", cluster=\"$cluster\", namespace=\"$namespace\"}[$__rate_interval]))",
              "format": "time_series",
              "intervalFactor": 2,
              "legendFormat": "{{pod}}",
              "legendLink": null,
              "step": 10
            }
          ],
          "thresholds": [

          ],
          "timeFrom": null,
          "timeShift": null,
          "title": "ThroughPut(Read+Write)",
          "tooltip": {
            "shared": false,
            "sort": 2,
            "value_type": "individual"
          },
          "type": "graph",
          "xaxis": {
            "buckets": null,
            "mode": "time",
            "name": null,
            "show": true,
            "values": [

            ]
          },
          "yaxes": [
            {
              "format": "Bps",
              "label": null,
              "logBase": 1,
              "max": null,
              "min": 0,
              "show": true
            },
            {
              "format": "short",
              "label": null,
              "logBase": 1,
              "max": null,
              "min": null,
              "show": false
            }
          ]
        }
      ],
      "repeat": null,
      "repeatIteration": null,
      "repeatRowId": null,
      "showTitle": true,
      "title": "Storage IO",
      "titleSize": "h6"
    },
    {
      "collapse": false,
      "height": "250px",
      "panels": [
        {
          "aliasColors": {
          },
          "bars": false,
          "dashLength": 10,
          "dashes": false,
          "datasource": "$datasource",
          "fill": 1,
          "id": 18,
          "interval": "1m",
          "legend": {
            "alignAsTable": true,
            "avg": false,
            "current": false,
            "max": false,
            "min": false,
            "rightSide": true,
            "show": true,
            "total": false,
            "values": false
          },
          "lines": true,
          "linewidth": 1,
          "links": [

          ],
          "nullPointMode": "null as zero",
          "percentage": false,
          "pointradius": 5,
          "points": false,
          "renderer": "flot",
          "seriesOverrides": [

          ],
          "sort": {
            "col": 4,
            "desc": true
          },
          "spaceLength": 10,
          "span": 12,
          "stack": false,
          "steppedLine": false,
          "styles": [
            {
              "alias": "Time",
              "dateFormat": "YYYY-MM-DD HH:mm:ss",
              "pattern": "Time",
              "type": "hidden"
            },
            {
              "alias": "IOPS(Reads)",
              "colorMode": null,
              "colors": [

              ],
              "dateFormat": "YYYY-MM-DD HH:mm:ss",
              "decimals": -1,
              "link": false,
              "linkTargetBlank": false,
              "linkTooltip": "Drill down",
              "linkUrl": "",
              "pattern": "Value #A",
              "thresholds": [

              ],
              "type": "number",
              "unit": "short"
            },
            {
              "alias": "IOPS(Writes)",
              "colorMode": null,
              "colors": [

              ],
              "dateFormat": "YYYY-MM-DD HH:mm:ss",
              "decimals": -1,
              "link": false,
              "linkTargetBlank": false,
              "linkTooltip": "Drill down",
              "linkUrl": "",
              "pattern": "Value #B",
              "thresholds": [

              ],
              "type": "number",
              "unit": "short"
            },
            {
              "alias": "IOPS(Reads + Writes)",
              "colorMode": null,
              "colors": [

              ],
              "dateFormat": "YYYY-MM-DD HH:mm:ss",
              "decimals": -1,
              "link": false,
              "linkTargetBlank": false,
              "linkTooltip": "Drill down",
              "linkUrl": "",
              "pattern": "Value #C",
              "thresholds": [

              ],
              "type": "number",
              "unit": "short"
            },
            {
              "alias": "Throughput(Read)",
              "colorMode": null,
              "colors": [

              ],
              "dateFormat": "YYYY-MM-DD HH:mm:ss",
              "decimals": 2,
              "link": false,
              "linkTargetBlank": false,
              "linkTooltip": "Drill down",
              "linkUrl": "",
              "pattern": "Value #D",
              "thresholds": [

              ],
              "type": "number",
              "unit": "Bps"
            },
            {
              "alias": "Throughput(Write)",
              "colorMode": null,
              "colors": [

              ],
              "dateFormat": "YYYY-MM-DD HH:mm:ss",
              "decimals": 2,
              "link": false,
              "linkTargetBlank": false,
              "linkTooltip": "Drill down",
              "linkUrl": "",
              "pattern": "Value #E",
              "thresholds": [

              ],
              "type": "number",
              "unit": "Bps"
            },
            {
              "alias": "Throughput(Read + Write)",
              "colorMode": null,
              "colors": [

              ],
              "dateFormat": "YYYY-MM-DD HH:mm:ss",
              "decimals": 2,
              "link": false,
              "linkTargetBlank": false,
              "linkTooltip": "Drill down",
              "linkUrl": "",
              "pattern": "Value #F",
              "thresholds": [

              ],
              "type": "number",
              "unit": "Bps"
            },
            {
              "alias": "Pod",
              "colorMode": null,
              "colors": [

              ],
              "dateFormat": "YYYY-MM-DD HH:mm:ss",
              "decimals": 2,
              "link": true,
              "linkTargetBlank": false,
              "linkTooltip": "Drill down to pods",
              "linkUrl": "/d/6581e46e4e5c7ba40a07646395ef7b23/k8s-resources-pod?var-datasource=$datasource&var-cluster=$cluster&var-namespace=$namespace&var-pod=$__cell",
              "pattern": "pod",
              "thresholds": [

              ],
              "type": "number",
              "unit": "short"
            },
            {
              "alias": "",
              "colorMode": null,
              "colors": [

              ],
              "dateFormat": "YYYY-MM-DD HH:mm:ss",
              "decimals": 2,
              "pattern": "/.*/",
              "thresholds": [

              ],
              "type": "string",
              "unit": "short"
            }
          ],
          "targets": [
            {
              "expr": "sum by(pod) (rate(container_fs_reads_total{job=\"kubelet\", device=~\"mmcblk.p.+|nvme.+|rbd.+|sd.+|vd.+|xvd.+|dm-.+|dasd.+\", container!=\"\", cluster=\"$cluster\", namespace=\"$namespace\"}[$__rate_interval]))",
              "format": "table",
              "instant": true,
              "intervalFactor": 2,
              "legendFormat": "",
              "refId": "A",
              "step": 10
            },
            {
              "expr": "sum by(pod) (rate(container_fs_writes_total{job=\"kubelet\", device=~\"mmcblk.p.+|nvme.+|rbd.+|sd.+|vd.+|xvd.+|dm-.+|dasd.+\", container!=\"\", cluster=\"$cluster\", namespace=\"$namespace\"}[$__rate_interval]))",
              "format": "table",
              "instant": true,
              "intervalFactor": 2,
              "legendFormat": "",
              "refId": "B",
              "step": 10
            },
            {
              "expr": "sum by(pod) (rate(container_fs_reads_total{job=\"kubelet\", device=~\"mmcblk.p.+|nvme.+|rbd.+|sd.+|vd.+|xvd.+|dm-.+|dasd.+\", container!=\"\", cluster=\"$cluster\", namespace=\"$namespace\"}[$__rate_interval]) + rate(container_fs_writes_total{job=\"kubelet\", device=~\"mmcblk.p.+|nvme.+|rbd.+|sd.+|vd.+|xvd.+|dm-.+|dasd.+\", container!=\"\", cluster=\"$cluster\", namespace=\"$namespace\"}[$__rate_interval]))",
              "format": "table",
              "instant": true,
              "intervalFactor": 2,
              "legendFormat": "",
              "refId": "C",
              "step": 10
            },
            {
              "expr": "sum by(pod) (rate(container_fs_reads_bytes_total{job=\"kubelet\", device=~\"mmcblk.p.+|nvme.+|rbd.+|sd.+|vd.+|xvd.+|dm-.+|dasd.+\", container!=\"\", cluster=\"$cluster\", namespace=\"$namespace\"}[$__rate_interval]))",
              "format": "table",
              "instant": true,
              "intervalFactor": 2,
              "legendFormat": "",
              "refId": "D",
              "step": 10
            },
            {
              "expr": "sum by(pod) (rate(container_fs_writes_bytes_total{job=\"kubelet\", device=~\"mmcblk.p.+|nvme.+|rbd.+|sd.+|vd.+|xvd.+|dm-.+|dasd.+\", container!=\"\", cluster=\"$cluster\", namespace=\"$namespace\"}[$__rate_interval]))",
              "format": "table",
              "instant": true,
              "intervalFactor": 2,
              "legendFormat": "",
              "refId": "E",
              "step": 10
            },
            {
              "expr": "sum by(pod) (rate(container_fs_reads_bytes_total{job=\"kubelet\", device=~\"mmcblk.p.+|nvme.+|rbd.+|sd.+|vd.+|xvd.+|dm-.+|dasd.+\", container!=\"\", cluster=\"$cluster\", namespace=\"$namespace\"}[$__rate_interval]) + rate(container_fs_writes_bytes_total{job=\"kubelet\", device=~\"mmcblk.p.+|nvme.+|rbd.+|sd.+|vd.+|xvd.+|dm-.+|dasd.+\", container!=\"\", cluster=\"$cluster\", namespace=\"$namespace\"}[$__rate_interval]))",
              "format": "table",
              "instant": true,
              "intervalFactor": 2,
              "legendFormat": "",
              "refId": "F",
              "step": 10
            }
          ],
          "thresholds": [

          ],
          "timeFrom": null,
          "timeShift": null,
          "title": "Current Storage IO",
          "tooltip": {
            "shared": false,
            "sort": 2,
            "value_type": "individual"
          },
          "transform": "table",
          "type": "table",
          "xaxis": {
            "buckets": null,
            "mode": "time",
            "name": null,
            "show": true,
            "values": [

            ]
          },
          "yaxes": [
            {
              "format": "short",
              "label": null,
              "logBase": 1,
              "max": null,
              "min": 0,
              "show": true
            },
            {
              "format": "short",
              "label": null,
              "logBase": 1,
              "max": null,
              "min": null,
              "show": false
            }
          ]
        }
      ],
      "repeat": null,
      "repeatIteration": null,
      "repeatRowId": null,
      "showTitle": true,
      "title": "Storage IO - Distribution",
      "titleSize": "h6"
    }
  ],
  "schemaVersion": 14,
  "style": "dark",
  "tags": [
    "managed",
    "kubernetes",
    "kubernetes",
    "infrastucture"
  ],
  "templating": {
    "list": [
      {
        "current": {
          "text": "default",
          "value": "default"
        },
        "hide": 0,
        "label": "Data Source",
        "name": "datasource",
        "options": [

        ],
        "query": "prometheus",
        "refresh": 1,
        "regex": "",
        "type": "datasource"
      },
      {
        "allValue": null,
        "current": {
          "text": "",
          "value": ""
        },
        "datasource": "$datasource",
        "hide": 0,
        "includeAll": false,
        "label": null,
        "multi": false,
        "name": "cluster",
        "options": [

        ],
        "query": "label_values(up{job=\"kube-state-metrics\"}, cluster)",
        "refresh": 2,
        "regex": "",
        "sort": 1,
        "tagValuesQuery": "",
        "tags": [

        ],
        "tagsQuery": "",
        "type": "query",
        "useTags": false
      },
      {
        "allValue": null,
        "current": {
          "text": "",
          "value": ""
        },
        "datasource": "$datasource",
        "hide": 0,
        "includeAll": false,
        "label": null,
        "multi": false,
        "name": "namespace",
        "options": [

        ],
        "query": "label_values(kube_namespace_status_phase{job=\"kube-state-metrics\", cluster=\"$cluster\"}, namespace)",
        "refresh": 2,
        "regex": "",
        "sort": 1,
        "tagValuesQuery": "",
        "tags": [

        ],
        "tagsQuery": "",
        "type": "query",
        "useTags": false
      }
    ]
  },
  "time": {
    "from": "now-1h",
    "to": "now"
  },
  "timepicker": {
    "refresh_intervals": [
      "5s",
      "10s",
      "30s",
      "1m",
      "5m",
      "15m",
      "30m",
      "1h",
      "2h",
      "1d"
    ],
    "time_options": [
      "5m",
      "15m",
      "1h",
      "6h",
      "12h",
      "24h",
      "2d",
      "7d",
      "30d"
    ]
  },
  "timezone": "UTC",
  "title": "kubernetes: Compute Resources / Namespace (Pods)",
  "uid": "kubernetes-resources-namespace",
  "version": 3375
}