{
  "annotations": {
    "list": [

    ]
  },
  "description": "Uploaded by https://gitlab.com/gitlab-com/runbooks/-/jobs/3229213281 at Wed Oct 26 09:43:46 UTC 2022",
  "editable": true,
  "gnetId": null,
  "graphTooltip": 0,
  "hideControls": false,
  "id": null,
  "links": [

  ],
  "refresh": "5m",
  "rows": [
    {
      "collapse": false,
      "height": "100px",
      "panels": [
        {
          "aliasColors": {
          },
          "bars": false,
          "dashLength": 10,
          "dashes": false,
          "datasource": "$datasource",
          "fill": 1,
          "format": "percentunit",
          "id": 1,
          "interval": "1m",
          "legend": {
            "alignAsTable": true,
            "avg": false,
            "current": false,
            "max": false,
            "min": false,
            "rightSide": true,
            "show": true,
            "total": false,
            "values": false
          },
          "lines": true,
          "linewidth": 1,
          "links": [

          ],
          "nullPointMode": "null as zero",
          "percentage": false,
          "pointradius": 5,
          "points": false,
          "renderer": "flot",
          "seriesOverrides": [

          ],
          "spaceLength": 10,
          "span": 2,
          "stack": false,
          "steppedLine": false,
          "targets": [
            {
              "expr": "cluster:node_cpu:ratio_rate5m",
              "format": "time_series",
              "instant": true,
              "intervalFactor": 2,
              "refId": "A"
            }
          ],
          "thresholds": "70,80",
          "timeFrom": null,
          "timeShift": null,
          "title": "CPU Utilisation",
          "tooltip": {
            "shared": false,
            "sort": 2,
            "value_type": "individual"
          },
          "type": "singlestat",
          "xaxis": {
            "buckets": null,
            "mode": "time",
            "name": null,
            "show": true,
            "values": [

            ]
          },
          "yaxes": [
            {
              "format": "short",
              "label": null,
              "logBase": 1,
              "max": null,
              "min": 0,
              "show": true
            },
            {
              "format": "short",
              "label": null,
              "logBase": 1,
              "max": null,
              "min": null,
              "show": false
            }
          ]
        },
        {
          "aliasColors": {
          },
          "bars": false,
          "dashLength": 10,
          "dashes": false,
          "datasource": "$datasource",
          "fill": 1,
          "format": "percentunit",
          "id": 2,
          "interval": "1m",
          "legend": {
            "alignAsTable": true,
            "avg": false,
            "current": false,
            "max": false,
            "min": false,
            "rightSide": true,
            "show": true,
            "total": false,
            "values": false
          },
          "lines": true,
          "linewidth": 1,
          "links": [

          ],
          "nullPointMode": "null as zero",
          "percentage": false,
          "pointradius": 5,
          "points": false,
          "renderer": "flot",
          "seriesOverrides": [

          ],
          "spaceLength": 10,
          "span": 2,
          "stack": false,
          "steppedLine": false,
          "targets": [
            {
              "expr": "sum(kube_pod_container_resource_requests{job=\"kube-state-metrics\", resource=\"cpu\"}) / sum(kube_node_status_allocatable{job=\"kube-state-metrics\", resource=\"cpu\"})",
              "format": "time_series",
              "instant": true,
              "intervalFactor": 2,
              "refId": "A"
            }
          ],
          "thresholds": "70,80",
          "timeFrom": null,
          "timeShift": null,
          "title": "CPU Requests Commitment",
          "tooltip": {
            "shared": false,
            "sort": 2,
            "value_type": "individual"
          },
          "type": "singlestat",
          "xaxis": {
            "buckets": null,
            "mode": "time",
            "name": null,
            "show": true,
            "values": [

            ]
          },
          "yaxes": [
            {
              "format": "short",
              "label": null,
              "logBase": 1,
              "max": null,
              "min": 0,
              "show": true
            },
            {
              "format": "short",
              "label": null,
              "logBase": 1,
              "max": null,
              "min": null,
              "show": false
            }
          ]
        },
        {
          "aliasColors": {
          },
          "bars": false,
          "dashLength": 10,
          "dashes": false,
          "datasource": "$datasource",
          "fill": 1,
          "format": "percentunit",
          "id": 3,
          "interval": "1m",
          "legend": {
            "alignAsTable": true,
            "avg": false,
            "current": false,
            "max": false,
            "min": false,
            "rightSide": true,
            "show": true,
            "total": false,
            "values": false
          },
          "lines": true,
          "linewidth": 1,
          "links": [

          ],
          "nullPointMode": "null as zero",
          "percentage": false,
          "pointradius": 5,
          "points": false,
          "renderer": "flot",
          "seriesOverrides": [

          ],
          "spaceLength": 10,
          "span": 2,
          "stack": false,
          "steppedLine": false,
          "targets": [
            {
              "expr": "sum(kube_pod_container_resource_limits{job=\"kube-state-metrics\", resource=\"cpu\"}) / sum(kube_node_status_allocatable{job=\"kube-state-metrics\", resource=\"cpu\"})",
              "format": "time_series",
              "instant": true,
              "intervalFactor": 2,
              "refId": "A"
            }
          ],
          "thresholds": "70,80",
          "timeFrom": null,
          "timeShift": null,
          "title": "CPU Limits Commitment",
          "tooltip": {
            "shared": false,
            "sort": 2,
            "value_type": "individual"
          },
          "type": "singlestat",
          "xaxis": {
            "buckets": null,
            "mode": "time",
            "name": null,
            "show": true,
            "values": [

            ]
          },
          "yaxes": [
            {
              "format": "short",
              "label": null,
              "logBase": 1,
              "max": null,
              "min": 0,
              "show": true
            },
            {
              "format": "short",
              "label": null,
              "logBase": 1,
              "max": null,
              "min": null,
              "show": false
            }
          ]
        },
        {
          "aliasColors": {
          },
          "bars": false,
          "dashLength": 10,
          "dashes": false,
          "datasource": "$datasource",
          "fill": 1,
          "format": "percentunit",
          "id": 4,
          "interval": "1m",
          "legend": {
            "alignAsTable": true,
            "avg": false,
            "current": false,
            "max": false,
            "min": false,
            "rightSide": true,
            "show": true,
            "total": false,
            "values": false
          },
          "lines": true,
          "linewidth": 1,
          "links": [

          ],
          "nullPointMode": "null as zero",
          "percentage": false,
          "pointradius": 5,
          "points": false,
          "renderer": "flot",
          "seriesOverrides": [

          ],
          "spaceLength": 10,
          "span": 2,
          "stack": false,
          "steppedLine": false,
          "targets": [
            {
              "expr": "1 - sum(:node_memory_MemAvailable_bytes:sum) / sum(node_memory_MemTotal_bytes{job=\"node-exporter\"})",
              "format": "time_series",
              "instant": true,
              "intervalFactor": 2,
              "refId": "A"
            }
          ],
          "thresholds": "70,80",
          "timeFrom": null,
          "timeShift": null,
          "title": "Memory Utilisation",
          "tooltip": {
            "shared": false,
            "sort": 2,
            "value_type": "individual"
          },
          "type": "singlestat",
          "xaxis": {
            "buckets": null,
            "mode": "time",
            "name": null,
            "show": true,
            "values": [

            ]
          },
          "yaxes": [
            {
              "format": "short",
              "label": null,
              "logBase": 1,
              "max": null,
              "min": 0,
              "show": true
            },
            {
              "format": "short",
              "label": null,
              "logBase": 1,
              "max": null,
              "min": null,
              "show": false
            }
          ]
        },
        {
          "aliasColors": {
          },
          "bars": false,
          "dashLength": 10,
          "dashes": false,
          "datasource": "$datasource",
          "fill": 1,
          "format": "percentunit",
          "id": 5,
          "interval": "1m",
          "legend": {
            "alignAsTable": true,
            "avg": false,
            "current": false,
            "max": false,
            "min": false,
            "rightSide": true,
            "show": true,
            "total": false,
            "values": false
          },
          "lines": true,
          "linewidth": 1,
          "links": [

          ],
          "nullPointMode": "null as zero",
          "percentage": false,
          "pointradius": 5,
          "points": false,
          "renderer": "flot",
          "seriesOverrides": [

          ],
          "spaceLength": 10,
          "span": 2,
          "stack": false,
          "steppedLine": false,
          "targets": [
            {
              "expr": "sum(kube_pod_container_resource_requests{job=\"kube-state-metrics\", resource=\"memory\"}) / sum(kube_node_status_allocatable{job=\"kube-state-metrics\", resource=\"memory\"})",
              "format": "time_series",
              "instant": true,
              "intervalFactor": 2,
              "refId": "A"
            }
          ],
          "thresholds": "70,80",
          "timeFrom": null,
          "timeShift": null,
          "title": "Memory Requests Commitment",
          "tooltip": {
            "shared": false,
            "sort": 2,
            "value_type": "individual"
          },
          "type": "singlestat",
          "xaxis": {
            "buckets": null,
            "mode": "time",
            "name": null,
            "show": true,
            "values": [

            ]
          },
          "yaxes": [
            {
              "format": "short",
              "label": null,
              "logBase": 1,
              "max": null,
              "min": 0,
              "show": true
            },
            {
              "format": "short",
              "label": null,
              "logBase": 1,
              "max": null,
              "min": null,
              "show": false
            }
          ]
        },
        {
          "aliasColors": {
          },
          "bars": false,
          "dashLength": 10,
          "dashes": false,
          "datasource": "$datasource",
          "fill": 1,
          "format": "percentunit",
          "id": 6,
          "interval": "1m",
          "legend": {
            "alignAsTable": true,
            "avg": false,
            "current": false,
            "max": false,
            "min": false,
            "rightSide": true,
            "show": true,
            "total": false,
            "values": false
          },
          "lines": true,
          "linewidth": 1,
          "links": [

          ],
          "nullPointMode": "null as zero",
          "percentage": false,
          "pointradius": 5,
          "points": false,
          "renderer": "flot",
          "seriesOverrides": [

          ],
          "spaceLength": 10,
          "span": 2,
          "stack": false,
          "steppedLine": false,
          "targets": [
            {
              "expr": "sum(kube_pod_container_resource_limits{job=\"kube-state-metrics\", resource=\"memory\"}) / sum(kube_node_status_allocatable{job=\"kube-state-metrics\", resource=\"memory\"})",
              "format": "time_series",
              "instant": true,
              "intervalFactor": 2,
              "refId": "A"
            }
          ],
          "thresholds": "70,80",
          "timeFrom": null,
          "timeShift": null,
          "title": "Memory Limits Commitment",
          "tooltip": {
            "shared": false,
            "sort": 2,
            "value_type": "individual"
          },
          "type": "singlestat",
          "xaxis": {
            "buckets": null,
            "mode": "time",
            "name": null,
            "show": true,
            "values": [

            ]
          },
          "yaxes": [
            {
              "format": "short",
              "label": null,
              "logBase": 1,
              "max": null,
              "min": 0,
              "show": true
            },
            {
              "format": "short",
              "label": null,
              "logBase": 1,
              "max": null,
              "min": null,
              "show": false
            }
          ]
        }
      ],
      "repeat": null,
      "repeatIteration": null,
      "repeatRowId": null,
      "showTitle": false,
      "title": "Headlines",
      "titleSize": "h6"
    },
    {
      "collapse": false,
      "height": "250px",
      "panels": [
        {
          "aliasColors": {
          },
          "bars": false,
          "dashLength": 10,
          "dashes": false,
          "datasource": "$datasource",
          "fill": 0,
          "id": 7,
          "interval": "1m",
          "legend": {
            "alignAsTable": true,
            "avg": false,
            "current": false,
            "max": false,
            "min": false,
            "rightSide": true,
            "show": true,
            "total": false,
            "values": false
          },
          "lines": true,
          "linewidth": 2,
          "links": [

          ],
          "nullPointMode": "null as zero",
          "percentage": false,
          "pointradius": 5,
          "points": false,
          "renderer": "flot",
          "seriesOverrides": [

          ],
          "spaceLength": 10,
          "span": 12,
          "stack": false,
          "steppedLine": false,
          "targets": [
            {
              "expr": "sum(node_namespace_pod_container:container_cpu_usage_seconds_total:sum_irate) by (cluster)",
              "format": "time_series",
              "intervalFactor": 2,
              "legendFormat": "{{cluster}}",
              "legendLink": null,
              "step": 10
            }
          ],
          "thresholds": [

          ],
          "timeFrom": null,
          "timeShift": null,
          "title": "CPU Usage",
          "tooltip": {
            "shared": false,
            "sort": 2,
            "value_type": "individual"
          },
          "type": "graph",
          "xaxis": {
            "buckets": null,
            "mode": "time",
            "name": null,
            "show": true,
            "values": [

            ]
          },
          "yaxes": [
            {
              "format": "short",
              "label": null,
              "logBase": 1,
              "max": null,
              "min": 0,
              "show": true
            },
            {
              "format": "short",
              "label": null,
              "logBase": 1,
              "max": null,
              "min": null,
              "show": false
            }
          ]
        }
      ],
      "repeat": null,
      "repeatIteration": null,
      "repeatRowId": null,
      "showTitle": true,
      "title": "CPU",
      "titleSize": "h6"
    },
    {
      "collapse": false,
      "height": "250px",
      "panels": [
        {
          "aliasColors": {
          },
          "bars": false,
          "dashLength": 10,
          "dashes": false,
          "datasource": "$datasource",
          "fill": 1,
          "id": 8,
          "interval": "1m",
          "legend": {
            "alignAsTable": true,
            "avg": false,
            "current": false,
            "max": false,
            "min": false,
            "rightSide": true,
            "show": true,
            "total": false,
            "values": false
          },
          "lines": true,
          "linewidth": 1,
          "links": [

          ],
          "nullPointMode": "null as zero",
          "percentage": false,
          "pointradius": 5,
          "points": false,
          "renderer": "flot",
          "seriesOverrides": [

          ],
          "spaceLength": 10,
          "span": 12,
          "stack": false,
          "steppedLine": false,
          "styles": [
            {
              "alias": "Time",
              "dateFormat": "YYYY-MM-DD HH:mm:ss",
              "pattern": "Time",
              "type": "hidden"
            },
            {
              "alias": "CPU Usage",
              "colorMode": null,
              "colors": [

              ],
              "dateFormat": "YYYY-MM-DD HH:mm:ss",
              "decimals": 2,
              "link": false,
              "linkTargetBlank": false,
              "linkTooltip": "Drill down",
              "linkUrl": "",
              "pattern": "Value #A",
              "thresholds": [

              ],
              "type": "number",
              "unit": "short"
            },
            {
              "alias": "CPU Requests",
              "colorMode": null,
              "colors": [

              ],
              "dateFormat": "YYYY-MM-DD HH:mm:ss",
              "decimals": 2,
              "link": false,
              "linkTargetBlank": false,
              "linkTooltip": "Drill down",
              "linkUrl": "",
              "pattern": "Value #B",
              "thresholds": [

              ],
              "type": "number",
              "unit": "short"
            },
            {
              "alias": "CPU Requests %",
              "colorMode": null,
              "colors": [

              ],
              "dateFormat": "YYYY-MM-DD HH:mm:ss",
              "decimals": 2,
              "link": false,
              "linkTargetBlank": false,
              "linkTooltip": "Drill down",
              "linkUrl": "",
              "pattern": "Value #C",
              "thresholds": [

              ],
              "type": "number",
              "unit": "percentunit"
            },
            {
              "alias": "CPU Limits",
              "colorMode": null,
              "colors": [

              ],
              "dateFormat": "YYYY-MM-DD HH:mm:ss",
              "decimals": 2,
              "link": false,
              "linkTargetBlank": false,
              "linkTooltip": "Drill down",
              "linkUrl": "",
              "pattern": "Value #D",
              "thresholds": [

              ],
              "type": "number",
              "unit": "short"
            },
            {
              "alias": "CPU Limits %",
              "colorMode": null,
              "colors": [

              ],
              "dateFormat": "YYYY-MM-DD HH:mm:ss",
              "decimals": 2,
              "link": false,
              "linkTargetBlank": false,
              "linkTooltip": "Drill down",
              "linkUrl": "",
              "pattern": "Value #E",
              "thresholds": [

              ],
              "type": "number",
              "unit": "percentunit"
            },
            {
              "alias": "Cluster",
              "colorMode": null,
              "colors": [

              ],
              "dateFormat": "YYYY-MM-DD HH:mm:ss",
              "decimals": 2,
              "link": true,
              "linkTargetBlank": false,
              "linkTooltip": "Drill down",
              "linkUrl": "/d/efa86fd1d0c121a26444b636a3f509a8/k8s-resources-cluster?var-datasource=$datasource&var-cluster=$__cell",
              "pattern": "cluster",
              "thresholds": [

              ],
              "type": "number",
              "unit": "short"
            },
            {
              "alias": "",
              "colorMode": null,
              "colors": [

              ],
              "dateFormat": "YYYY-MM-DD HH:mm:ss",
              "decimals": 2,
              "pattern": "/.*/",
              "thresholds": [

              ],
              "type": "string",
              "unit": "short"
            }
          ],
          "targets": [
            {
              "expr": "sum(node_namespace_pod_container:container_cpu_usage_seconds_total:sum_irate) by (cluster)",
              "format": "table",
              "instant": true,
              "intervalFactor": 2,
              "legendFormat": "",
              "refId": "A",
              "step": 10
            },
            {
              "expr": "sum(kube_pod_container_resource_requests{job=\"kube-state-metrics\", resource=\"cpu\"}) by (cluster)",
              "format": "table",
              "instant": true,
              "intervalFactor": 2,
              "legendFormat": "",
              "refId": "B",
              "step": 10
            },
            {
              "expr": "sum(node_namespace_pod_container:container_cpu_usage_seconds_total:sum_irate) by (cluster) / sum(kube_pod_container_resource_requests{job=\"kube-state-metrics\", resource=\"cpu\"}) by (cluster)",
              "format": "table",
              "instant": true,
              "intervalFactor": 2,
              "legendFormat": "",
              "refId": "C",
              "step": 10
            },
            {
              "expr": "sum(kube_pod_container_resource_limits{job=\"kube-state-metrics\", resource=\"cpu\"}) by (cluster)",
              "format": "table",
              "instant": true,
              "intervalFactor": 2,
              "legendFormat": "",
              "refId": "D",
              "step": 10
            },
            {
              "expr": "sum(node_namespace_pod_container:container_cpu_usage_seconds_total:sum_irate) by (cluster) / sum(kube_pod_container_resource_limits{job=\"kube-state-metrics\", resource=\"cpu\"}) by (cluster)",
              "format": "table",
              "instant": true,
              "intervalFactor": 2,
              "legendFormat": "",
              "refId": "E",
              "step": 10
            }
          ],
          "thresholds": [

          ],
          "timeFrom": null,
          "timeShift": null,
          "title": "CPU Quota",
          "tooltip": {
            "shared": false,
            "sort": 2,
            "value_type": "individual"
          },
          "transform": "table",
          "type": "table",
          "xaxis": {
            "buckets": null,
            "mode": "time",
            "name": null,
            "show": true,
            "values": [

            ]
          },
          "yaxes": [
            {
              "format": "short",
              "label": null,
              "logBase": 1,
              "max": null,
              "min": 0,
              "show": true
            },
            {
              "format": "short",
              "label": null,
              "logBase": 1,
              "max": null,
              "min": null,
              "show": false
            }
          ]
        }
      ],
      "repeat": null,
      "repeatIteration": null,
      "repeatRowId": null,
      "showTitle": true,
      "title": "CPU Quota",
      "titleSize": "h6"
    },
    {
      "collapse": false,
      "height": "250px",
      "panels": [
        {
          "aliasColors": {
          },
          "bars": false,
          "dashLength": 10,
          "dashes": false,
          "datasource": "$datasource",
          "fill": 0,
          "id": 9,
          "interval": "1m",
          "legend": {
            "alignAsTable": true,
            "avg": false,
            "current": false,
            "max": false,
            "min": false,
            "rightSide": true,
            "show": true,
            "total": false,
            "values": false
          },
          "lines": true,
          "linewidth": 2,
          "links": [

          ],
          "nullPointMode": "null as zero",
          "percentage": false,
          "pointradius": 5,
          "points": false,
          "renderer": "flot",
          "seriesOverrides": [

          ],
          "spaceLength": 10,
          "span": 12,
          "stack": false,
          "steppedLine": false,
          "targets": [
            {
              "expr": "sum(container_memory_rss{job=\"kubelet\", container!=\"\"}) by (cluster)",
              "format": "time_series",
              "intervalFactor": 2,
              "legendFormat": "{{cluster}}",
              "legendLink": null,
              "step": 10
            }
          ],
          "thresholds": [

          ],
          "timeFrom": null,
          "timeShift": null,
          "title": "Memory Usage (w/o cache)",
          "tooltip": {
            "shared": false,
            "sort": 2,
            "value_type": "individual"
          },
          "type": "graph",
          "xaxis": {
            "buckets": null,
            "mode": "time",
            "name": null,
            "show": true,
            "values": [

            ]
          },
          "yaxes": [
            {
              "format": "bytes",
              "label": null,
              "logBase": 1,
              "max": null,
              "min": 0,
              "show": true
            },
            {
              "format": "short",
              "label": null,
              "logBase": 1,
              "max": null,
              "min": null,
              "show": false
            }
          ]
        }
      ],
      "repeat": null,
      "repeatIteration": null,
      "repeatRowId": null,
      "showTitle": true,
      "title": "Memory",
      "titleSize": "h6"
    },
    {
      "collapse": false,
      "height": "250px",
      "panels": [
        {
          "aliasColors": {
          },
          "bars": false,
          "dashLength": 10,
          "dashes": false,
          "datasource": "$datasource",
          "fill": 1,
          "id": 10,
          "interval": "1m",
          "legend": {
            "alignAsTable": true,
            "avg": false,
            "current": false,
            "max": false,
            "min": false,
            "rightSide": true,
            "show": true,
            "total": false,
            "values": false
          },
          "lines": true,
          "linewidth": 1,
          "links": [

          ],
          "nullPointMode": "null as zero",
          "percentage": false,
          "pointradius": 5,
          "points": false,
          "renderer": "flot",
          "seriesOverrides": [

          ],
          "spaceLength": 10,
          "span": 12,
          "stack": false,
          "steppedLine": false,
          "styles": [
            {
              "alias": "Time",
              "dateFormat": "YYYY-MM-DD HH:mm:ss",
              "pattern": "Time",
              "type": "hidden"
            },
            {
              "alias": "Memory Usage",
              "colorMode": null,
              "colors": [

              ],
              "dateFormat": "YYYY-MM-DD HH:mm:ss",
              "decimals": 2,
              "link": false,
              "linkTargetBlank": false,
              "linkTooltip": "Drill down",
              "linkUrl": "",
              "pattern": "Value #A",
              "thresholds": [

              ],
              "type": "number",
              "unit": "bytes"
            },
            {
              "alias": "Memory Requests",
              "colorMode": null,
              "colors": [

              ],
              "dateFormat": "YYYY-MM-DD HH:mm:ss",
              "decimals": 2,
              "link": false,
              "linkTargetBlank": false,
              "linkTooltip": "Drill down",
              "linkUrl": "",
              "pattern": "Value #B",
              "thresholds": [

              ],
              "type": "number",
              "unit": "bytes"
            },
            {
              "alias": "Memory Requests %",
              "colorMode": null,
              "colors": [

              ],
              "dateFormat": "YYYY-MM-DD HH:mm:ss",
              "decimals": 2,
              "link": false,
              "linkTargetBlank": false,
              "linkTooltip": "Drill down",
              "linkUrl": "",
              "pattern": "Value #C",
              "thresholds": [

              ],
              "type": "number",
              "unit": "percentunit"
            },
            {
              "alias": "Memory Limits",
              "colorMode": null,
              "colors": [

              ],
              "dateFormat": "YYYY-MM-DD HH:mm:ss",
              "decimals": 2,
              "link": false,
              "linkTargetBlank": false,
              "linkTooltip": "Drill down",
              "linkUrl": "",
              "pattern": "Value #D",
              "thresholds": [

              ],
              "type": "number",
              "unit": "bytes"
            },
            {
              "alias": "Memory Limits %",
              "colorMode": null,
              "colors": [

              ],
              "dateFormat": "YYYY-MM-DD HH:mm:ss",
              "decimals": 2,
              "link": false,
              "linkTargetBlank": false,
              "linkTooltip": "Drill down",
              "linkUrl": "",
              "pattern": "Value #E",
              "thresholds": [

              ],
              "type": "number",
              "unit": "percentunit"
            },
            {
              "alias": "Cluster",
              "colorMode": null,
              "colors": [

              ],
              "dateFormat": "YYYY-MM-DD HH:mm:ss",
              "decimals": 2,
              "link": true,
              "linkTargetBlank": false,
              "linkTooltip": "Drill down",
              "linkUrl": "/d/efa86fd1d0c121a26444b636a3f509a8/k8s-resources-cluster?var-datasource=$datasource&var-cluster=$__cell",
              "pattern": "cluster",
              "thresholds": [

              ],
              "type": "number",
              "unit": "short"
            },
            {
              "alias": "",
              "colorMode": null,
              "colors": [

              ],
              "dateFormat": "YYYY-MM-DD HH:mm:ss",
              "decimals": 2,
              "pattern": "/.*/",
              "thresholds": [

              ],
              "type": "string",
              "unit": "short"
            }
          ],
          "targets": [
            {
              "expr": "sum(container_memory_rss{job=\"kubelet\", container!=\"\"}) by (cluster)",
              "format": "table",
              "instant": true,
              "intervalFactor": 2,
              "legendFormat": "",
              "refId": "A",
              "step": 10
            },
            {
              "expr": "sum(kube_pod_container_resource_requests{job=\"kube-state-metrics\", resource=\"memory\"}) by (cluster)",
              "format": "table",
              "instant": true,
              "intervalFactor": 2,
              "legendFormat": "",
              "refId": "B",
              "step": 10
            },
            {
              "expr": "sum(container_memory_rss{job=\"kubelet\", container!=\"\"}) by (cluster) / sum(kube_pod_container_resource_requests{job=\"kube-state-metrics\", resource=\"memory\"}) by (cluster)",
              "format": "table",
              "instant": true,
              "intervalFactor": 2,
              "legendFormat": "",
              "refId": "C",
              "step": 10
            },
            {
              "expr": "sum(kube_pod_container_resource_limits{job=\"kube-state-metrics\", resource=\"memory\"}) by (cluster)",
              "format": "table",
              "instant": true,
              "intervalFactor": 2,
              "legendFormat": "",
              "refId": "D",
              "step": 10
            },
            {
              "expr": "sum(container_memory_rss{job=\"kubelet\", container!=\"\"}) by (cluster) / sum(kube_pod_container_resource_limits{job=\"kube-state-metrics\", resource=\"memory\"}) by (cluster)",
              "format": "table",
              "instant": true,
              "intervalFactor": 2,
              "legendFormat": "",
              "refId": "E",
              "step": 10
            }
          ],
          "thresholds": [

          ],
          "timeFrom": null,
          "timeShift": null,
          "title": "Requests by Cluster",
          "tooltip": {
            "shared": false,
            "sort": 2,
            "value_type": "individual"
          },
          "transform": "table",
          "type": "table",
          "xaxis": {
            "buckets": null,
            "mode": "time",
            "name": null,
            "show": true,
            "values": [

            ]
          },
          "yaxes": [
            {
              "format": "short",
              "label": null,
              "logBase": 1,
              "max": null,
              "min": 0,
              "show": true
            },
            {
              "format": "short",
              "label": null,
              "logBase": 1,
              "max": null,
              "min": null,
              "show": false
            }
          ]
        }
      ],
      "repeat": null,
      "repeatIteration": null,
      "repeatRowId": null,
      "showTitle": true,
      "title": "Memory Requests",
      "titleSize": "h6"
    }
  ],
  "schemaVersion": 14,
  "style": "dark",
  "tags": [
    "managed",
    "kubernetes",
    "kubernetes",
    "infrastucture"
  ],
  "templating": {
    "list": [
      {
        "current": {
          "text": "default",
          "value": "default"
        },
        "hide": 0,
        "label": "Data Source",
        "name": "datasource",
        "options": [

        ],
        "query": "prometheus",
        "refresh": 1,
        "regex": "",
        "type": "datasource"
      }
    ]
  },
  "time": {
    "from": "now-1h",
    "to": "now"
  },
  "timepicker": {
    "refresh_intervals": [
      "5s",
      "10s",
      "30s",
      "1m",
      "5m",
      "15m",
      "30m",
      "1h",
      "2h",
      "1d"
    ],
    "time_options": [
      "5m",
      "15m",
      "1h",
      "6h",
      "12h",
      "24h",
      "2d",
      "7d",
      "30d"
    ]
  },
  "timezone": "UTC",
  "title": "kubernetes: Compute Resources /  Multi-Cluster",
  "uid": "kubernetes-resources-multicluster",
  "version": 3371
}