{
  "__inputs": [

  ],
  "__requires": [

  ],
  "annotations": {
    "list": [

    ]
  },
  "description": "Uploaded by https://gitlab.com/gitlab-com/runbooks/-/jobs/3271110524 at Thu Nov  3 17:39:27 UTC 2022",
  "editable": false,
  "gnetId": null,
  "graphTooltip": 1,
  "hideControls": false,
  "id": null,
  "links": [

  ],
  "panels": [
    {
      "collapse": false,
      "collapsed": false,
      "gridPos": {
        "h": 1,
        "w": 24,
        "x": 0,
        "y": 0
      },
      "id": 2,
      "panels": [

      ],
      "repeat": null,
      "repeatIteration": null,
      "repeatRowId": null,
      "showTitle": true,
      "title": "open_fds: Open file descriptor utilization per instance",
      "titleSize": "h6",
      "type": "row"
    },
    {
      "datasource": null,
      "description": "",
      "fieldConfig": {
        "defaults": {
          "decimals": 0,
          "displayName": "Severity",
          "links": [

          ],
          "mappings": [

          ],
          "thresholds": {
            "mode": "absolute",
            "steps": [
              {
                "color": "light-orange",
                "value": null
              }
            ]
          },
          "unit": ""
        }
      },
      "gridPos": {
        "h": 4,
        "w": 6,
        "x": 0,
        "y": 1
      },
      "id": 3,
      "links": [

      ],
      "options": {
        "colorMode": "background",
        "graphMode": "none",
        "justifyMode": "auto",
        "orientation": "vertical",
        "reduceOptions": {
          "calcs": [
            "lastNotNull"
          ],
          "fields": "",
          "values": false
        },
        "textMode": "auto"
      },
      "pluginVersion": "7",
      "targets": [
        {
          "expr": "vector(2)\n",
          "format": "time_series",
          "instant": true,
          "interval": "1m",
          "intervalFactor": 3,
          "legendFormat": "",
          "refId": "A"
        }
      ],
      "title": "Saturation Severity",
      "transparent": false,
      "type": "stat"
    },
    {
      "datasource": null,
      "description": "",
      "fieldConfig": {
        "defaults": {
          "decimals": 0,
          "displayName": "Horizontally Scalable",
          "links": [

          ],
          "mappings": [
            {
              "id": 0,
              "text": "No",
              "type": 1,
              "value": "0"
            },
            {
              "id": 1,
              "text": "Yes",
              "type": 1,
              "value": "1"
            }
          ],
          "thresholds": {
            "mode": "absolute",
            "steps": [
              {
                "color": "light-green",
                "value": null
              }
            ]
          },
          "unit": ""
        }
      },
      "gridPos": {
        "h": 4,
        "w": 6,
        "x": 6,
        "y": 1
      },
      "id": 4,
      "links": [

      ],
      "options": {
        "colorMode": "background",
        "graphMode": "none",
        "justifyMode": "auto",
        "orientation": "vertical",
        "reduceOptions": {
          "calcs": [
            "lastNotNull"
          ],
          "fields": "",
          "values": false
        },
        "textMode": "auto"
      },
      "pluginVersion": "7",
      "targets": [
        {
          "expr": "vector(1)\n",
          "format": "time_series",
          "instant": true,
          "interval": "1m",
          "intervalFactor": 3,
          "legendFormat": "",
          "refId": "A"
        }
      ],
      "title": "Scaling Characteristics",
      "transparent": false,
      "type": "stat"
    },
    {
      "datasource": null,
      "description": "",
      "fieldConfig": {
        "defaults": {
          "decimals": 0,
          "displayName": "Tamland",
          "links": [

          ],
          "mappings": [
            {
              "from": "-10",
              "id": 0,
              "text": "Soon",
              "to": "1",
              "type": 2
            }
          ],
          "noValue": "No Forecast",
          "thresholds": {
            "mode": "absolute",
            "steps": [
              {
                "color": "green",
                "value": null
              },
              {
                "color": "red",
                "value": 0
              },
              {
                "color": "orange",
                "value": 45
              }
            ]
          },
          "unit": "d"
        }
      },
      "gridPos": {
        "h": 4,
        "w": 6,
        "x": 12,
        "y": 1
      },
      "id": 5,
      "links": [
        {
          "targetBlank": true,
          "title": "Tamland Report",
          "url": "https://gitlab-com.gitlab.io/gl-infra/tamland/${__field.labels.pagename}.html#mailroom-service-open_fds-resource-saturation"
        }
      ],
      "options": {
        "colorMode": "background",
        "graphMode": "none",
        "justifyMode": "auto",
        "orientation": "vertical",
        "reduceOptions": {
          "calcs": [
            "lastNotNull"
          ],
          "fields": "",
          "values": false
        },
        "textMode": "auto"
      },
      "pluginVersion": "7",
      "targets": [
        {
          "expr": "tamland_forecast_violation_days{component=\"open_fds\",confidence_type=\"mean\",env=\"ops\",environment=\"ops\",threshold_type=\"hard\",type=\"mailroom\"}\n",
          "format": "time_series",
          "instant": true,
          "interval": "1m",
          "intervalFactor": 3,
          "legendFormat": "",
          "refId": "A"
        }
      ],
      "title": "Tamland Predicted Threshold Violation, Average Case",
      "transparent": false,
      "type": "stat"
    },
    {
      "datasource": null,
      "description": "",
      "fieldConfig": {
        "defaults": {
          "decimals": 0,
          "displayName": "Tamland",
          "links": [

          ],
          "mappings": [
            {
              "from": "-10",
              "id": 0,
              "text": "Soon",
              "to": "1",
              "type": 2
            }
          ],
          "noValue": "No Forecast",
          "thresholds": {
            "mode": "absolute",
            "steps": [
              {
                "color": "green",
                "value": null
              },
              {
                "color": "red",
                "value": 0
              },
              {
                "color": "orange",
                "value": 45
              }
            ]
          },
          "unit": "d"
        }
      },
      "gridPos": {
        "h": 4,
        "w": 6,
        "x": 18,
        "y": 1
      },
      "id": 6,
      "links": [
        {
          "targetBlank": true,
          "title": "Tamland Report",
          "url": "https://gitlab-com.gitlab.io/gl-infra/tamland/${__field.labels.pagename}.html#mailroom-service-open_fds-resource-saturation"
        }
      ],
      "options": {
        "colorMode": "background",
        "graphMode": "none",
        "justifyMode": "auto",
        "orientation": "vertical",
        "reduceOptions": {
          "calcs": [
            "lastNotNull"
          ],
          "fields": "",
          "values": false
        },
        "textMode": "auto"
      },
      "pluginVersion": "7",
      "targets": [
        {
          "expr": "tamland_forecast_violation_days{component=\"open_fds\",confidence_type=\"80%\",env=\"ops\",environment=\"ops\",threshold_type=\"hard\",type=\"mailroom\"}\n",
          "format": "time_series",
          "instant": true,
          "interval": "1m",
          "intervalFactor": 3,
          "legendFormat": "",
          "refId": "A"
        }
      ],
      "title": "Tamland Predicted Threshold Violation, Pessimistic Case",
      "transparent": false,
      "type": "stat"
    },
    {
      "aliasColors": {
      },
      "bars": false,
      "dashLength": 10,
      "dashes": false,
      "datasource": "$PROMETHEUS_DS",
      "decimals": 2,
      "description": "Timeseries",
      "fill": 0,
      "fillGradient": 0,
      "gridPos": {
        "h": 12,
        "w": 18,
        "x": 0,
        "y": 2
      },
      "id": 1001792825,
      "legend": {
        "alignAsTable": true,
        "avg": true,
        "current": true,
        "hideEmpty": true,
        "max": true,
        "min": true,
        "rightSide": false,
        "show": true,
        "sideWidth": null,
        "total": false,
        "values": true
      },
      "lines": true,
      "linewidth": 1,
      "links": [

      ],
      "nullPointMode": "null",
      "percentage": false,
      "pointradius": 5,
      "points": false,
      "renderer": "flot",
      "repeat": null,
      "seriesOverrides": [
        {
          "alias": "/^Soft SLO/",
          "color": "#FF4500",
          "dashLength": 4,
          "dashes": true,
          "legend": true,
          "lines": true,
          "linewidth": 2,
          "nullPointMode": "connected",
          "spaceLength": 10,
          "zindex": -2
        },
        {
          "alias": "/^Hard SLO/",
          "color": "#F2495C",
          "dashLength": 4,
          "dashes": true,
          "legend": true,
          "lines": true,
          "linewidth": 4,
          "nullPointMode": "connected",
          "spaceLength": 4,
          "zindex": -2
        },
        {
          "alias": "/aggregated /",
          "color": "#E7D551",
          "linewidth": 2,
          "zindex": 3
        },
        {
          "alias": "/^95th quantile for week/",
          "color": "#37872D",
          "dashLength": 4,
          "dashes": true,
          "legend": true,
          "lines": true,
          "linewidth": 1,
          "nullPointMode": "connected",
          "spaceLength": 10,
          "zindex": -2
        },
        {
          "alias": "/^99th quantile for week/",
          "color": "#56A64B",
          "dashLength": 4,
          "dashes": true,
          "legend": true,
          "lines": true,
          "linewidth": 2,
          "nullPointMode": "connected",
          "spaceLength": 4,
          "zindex": -2
        }
      ],
      "spaceLength": 10,
      "stableId": "saturation-open_fds",
      "stack": false,
      "steppedLine": false,
      "targets": [
        {
          "expr": "clamp_min(\n  clamp_max(\n    max(\n      gitlab_component_saturation:ratio{env=\"$environment\",environment=\"$environment\",stage=\"main\",type=\"mailroom\", component=\"open_fds\"}\n    ) by (component)\n  ,1)\n,0)\n",
          "format": "time_series",
          "interval": "1m",
          "intervalFactor": 3,
          "legendFormat": "aggregated {{ component }}",
          "refId": "A"
        },
        {
          "expr": "gitlab_component_saturation:ratio_quantile95_1w{env=\"$environment\",environment=\"$environment\",stage=\"main\",type=\"mailroom\", component=\"open_fds\"}\n",
          "format": "time_series",
          "interval": "1m",
          "intervalFactor": 3,
          "legendFormat": "95th quantile for week {{ component }}",
          "refId": "B"
        },
        {
          "expr": "gitlab_component_saturation:ratio_quantile99_1w{env=\"$environment\",environment=\"$environment\",stage=\"main\",type=\"mailroom\", component=\"open_fds\"}\n",
          "format": "time_series",
          "interval": "1m",
          "intervalFactor": 3,
          "legendFormat": "99th quantile for week {{ component }}",
          "refId": "C"
        },
        {
          "expr": "avg(slo:max:soft:gitlab_component_saturation:ratio{component=\"open_fds\"}) by (component)\n",
          "format": "time_series",
          "interval": "1m",
          "intervalFactor": 3,
          "legendFormat": "Soft SLO: {{ component }}",
          "refId": "D"
        },
        {
          "expr": "avg(slo:max:hard:gitlab_component_saturation:ratio{component=\"open_fds\"}) by (component)\n",
          "format": "time_series",
          "interval": "1m",
          "intervalFactor": 3,
          "legendFormat": "Hard SLO: {{ component }}",
          "refId": "E"
        }
      ],
      "thresholds": [

      ],
      "timeFrom": null,
      "timeShift": null,
      "title": "Open file descriptor utilization per instance",
      "tooltip": {
        "shared": true,
        "sort": 2,
        "value_type": "individual"
      },
      "type": "graph",
      "xaxis": {
        "buckets": null,
        "mode": "time",
        "name": null,
        "show": true,
        "values": [

        ]
      },
      "yaxes": [
        {
          "format": "percentunit",
          "label": "Saturation %",
          "logBase": 1,
          "max": 1,
          "min": null,
          "show": true
        },
        {
          "format": "short",
          "label": null,
          "logBase": 1,
          "max": 1,
          "min": 0,
          "show": false
        }
      ]
    },
    {
      "content": "Open file descriptor utilization per instance.\n\nSaturation on file descriptor limits may indicate a resource-descriptor leak in the application.\n\nAs a temporary fix, you may want to consider restarting the affected process.\n",
      "datasource": null,
      "gridPos": {
        "h": 12,
        "w": 6,
        "x": 18,
        "y": 2
      },
      "id": 8,
      "mode": "markdown",
      "title": "",
      "type": "text"
    },
    {
      "collapse": false,
      "collapsed": false,
      "gridPos": {
        "h": 1,
        "w": 24,
        "x": 0,
        "y": 100
      },
      "id": 9,
      "panels": [

      ],
      "repeat": null,
      "repeatIteration": null,
      "repeatRowId": null,
      "showTitle": true,
      "title": "kube_horizontalpodautoscaler_desired_replicas: Horizontal Pod Autoscaler Desired Replicas",
      "titleSize": "h6",
      "type": "row"
    },
    {
      "datasource": null,
      "description": "",
      "fieldConfig": {
        "defaults": {
          "decimals": 0,
          "displayName": "Severity",
          "links": [

          ],
          "mappings": [

          ],
          "thresholds": {
            "mode": "absolute",
            "steps": [
              {
                "color": "light-yellow",
                "value": null
              }
            ]
          },
          "unit": ""
        }
      },
      "gridPos": {
        "h": 4,
        "w": 6,
        "x": 0,
        "y": 101
      },
      "id": 10,
      "links": [

      ],
      "options": {
        "colorMode": "background",
        "graphMode": "none",
        "justifyMode": "auto",
        "orientation": "vertical",
        "reduceOptions": {
          "calcs": [
            "lastNotNull"
          ],
          "fields": "",
          "values": false
        },
        "textMode": "auto"
      },
      "pluginVersion": "7",
      "targets": [
        {
          "expr": "vector(3)\n",
          "format": "time_series",
          "instant": true,
          "interval": "1m",
          "intervalFactor": 3,
          "legendFormat": "",
          "refId": "A"
        }
      ],
      "title": "Saturation Severity",
      "transparent": false,
      "type": "stat"
    },
    {
      "datasource": null,
      "description": "",
      "fieldConfig": {
        "defaults": {
          "decimals": 0,
          "displayName": "Horizontally Scalable",
          "links": [

          ],
          "mappings": [
            {
              "id": 0,
              "text": "No",
              "type": 1,
              "value": "0"
            },
            {
              "id": 1,
              "text": "Yes",
              "type": 1,
              "value": "1"
            }
          ],
          "thresholds": {
            "mode": "absolute",
            "steps": [
              {
                "color": "light-green",
                "value": null
              }
            ]
          },
          "unit": ""
        }
      },
      "gridPos": {
        "h": 4,
        "w": 6,
        "x": 6,
        "y": 101
      },
      "id": 11,
      "links": [

      ],
      "options": {
        "colorMode": "background",
        "graphMode": "none",
        "justifyMode": "auto",
        "orientation": "vertical",
        "reduceOptions": {
          "calcs": [
            "lastNotNull"
          ],
          "fields": "",
          "values": false
        },
        "textMode": "auto"
      },
      "pluginVersion": "7",
      "targets": [
        {
          "expr": "vector(1)\n",
          "format": "time_series",
          "instant": true,
          "interval": "1m",
          "intervalFactor": 3,
          "legendFormat": "",
          "refId": "A"
        }
      ],
      "title": "Scaling Characteristics",
      "transparent": false,
      "type": "stat"
    },
    {
      "datasource": null,
      "description": "",
      "fieldConfig": {
        "defaults": {
          "decimals": 0,
          "displayName": "Tamland",
          "links": [

          ],
          "mappings": [
            {
              "from": "-10",
              "id": 0,
              "text": "Soon",
              "to": "1",
              "type": 2
            }
          ],
          "noValue": "No Forecast",
          "thresholds": {
            "mode": "absolute",
            "steps": [
              {
                "color": "green",
                "value": null
              },
              {
                "color": "red",
                "value": 0
              },
              {
                "color": "orange",
                "value": 45
              }
            ]
          },
          "unit": "d"
        }
      },
      "gridPos": {
        "h": 4,
        "w": 6,
        "x": 12,
        "y": 101
      },
      "id": 12,
      "links": [
        {
          "targetBlank": true,
          "title": "Tamland Report",
          "url": "https://gitlab-com.gitlab.io/gl-infra/tamland/${__field.labels.pagename}.html#mailroom-service-kube_horizontalpodautoscaler_desired_replicas-resource-saturation"
        }
      ],
      "options": {
        "colorMode": "background",
        "graphMode": "none",
        "justifyMode": "auto",
        "orientation": "vertical",
        "reduceOptions": {
          "calcs": [
            "lastNotNull"
          ],
          "fields": "",
          "values": false
        },
        "textMode": "auto"
      },
      "pluginVersion": "7",
      "targets": [
        {
          "expr": "tamland_forecast_violation_days{component=\"kube_horizontalpodautoscaler_desired_replicas\",confidence_type=\"mean\",env=\"ops\",environment=\"ops\",threshold_type=\"hard\",type=\"mailroom\"}\n",
          "format": "time_series",
          "instant": true,
          "interval": "1m",
          "intervalFactor": 3,
          "legendFormat": "",
          "refId": "A"
        }
      ],
      "title": "Tamland Predicted Threshold Violation, Average Case",
      "transparent": false,
      "type": "stat"
    },
    {
      "datasource": null,
      "description": "",
      "fieldConfig": {
        "defaults": {
          "decimals": 0,
          "displayName": "Tamland",
          "links": [

          ],
          "mappings": [
            {
              "from": "-10",
              "id": 0,
              "text": "Soon",
              "to": "1",
              "type": 2
            }
          ],
          "noValue": "No Forecast",
          "thresholds": {
            "mode": "absolute",
            "steps": [
              {
                "color": "green",
                "value": null
              },
              {
                "color": "red",
                "value": 0
              },
              {
                "color": "orange",
                "value": 45
              }
            ]
          },
          "unit": "d"
        }
      },
      "gridPos": {
        "h": 4,
        "w": 6,
        "x": 18,
        "y": 101
      },
      "id": 13,
      "links": [
        {
          "targetBlank": true,
          "title": "Tamland Report",
          "url": "https://gitlab-com.gitlab.io/gl-infra/tamland/${__field.labels.pagename}.html#mailroom-service-kube_horizontalpodautoscaler_desired_replicas-resource-saturation"
        }
      ],
      "options": {
        "colorMode": "background",
        "graphMode": "none",
        "justifyMode": "auto",
        "orientation": "vertical",
        "reduceOptions": {
          "calcs": [
            "lastNotNull"
          ],
          "fields": "",
          "values": false
        },
        "textMode": "auto"
      },
      "pluginVersion": "7",
      "targets": [
        {
          "expr": "tamland_forecast_violation_days{component=\"kube_horizontalpodautoscaler_desired_replicas\",confidence_type=\"80%\",env=\"ops\",environment=\"ops\",threshold_type=\"hard\",type=\"mailroom\"}\n",
          "format": "time_series",
          "instant": true,
          "interval": "1m",
          "intervalFactor": 3,
          "legendFormat": "",
          "refId": "A"
        }
      ],
      "title": "Tamland Predicted Threshold Violation, Pessimistic Case",
      "transparent": false,
      "type": "stat"
    },
    {
      "aliasColors": {
      },
      "bars": false,
      "dashLength": 10,
      "dashes": false,
      "datasource": "$PROMETHEUS_DS",
      "decimals": 2,
      "description": "Timeseries",
      "fill": 0,
      "fillGradient": 0,
      "gridPos": {
        "h": 12,
        "w": 18,
        "x": 0,
        "y": 102
      },
      "id": 351198712,
      "legend": {
        "alignAsTable": true,
        "avg": true,
        "current": true,
        "hideEmpty": true,
        "max": true,
        "min": true,
        "rightSide": false,
        "show": true,
        "sideWidth": null,
        "total": false,
        "values": true
      },
      "lines": true,
      "linewidth": 1,
      "links": [

      ],
      "nullPointMode": "null",
      "percentage": false,
      "pointradius": 5,
      "points": false,
      "renderer": "flot",
      "repeat": null,
      "seriesOverrides": [
        {
          "alias": "/^Soft SLO/",
          "color": "#FF4500",
          "dashLength": 4,
          "dashes": true,
          "legend": true,
          "lines": true,
          "linewidth": 2,
          "nullPointMode": "connected",
          "spaceLength": 10,
          "zindex": -2
        },
        {
          "alias": "/^Hard SLO/",
          "color": "#F2495C",
          "dashLength": 4,
          "dashes": true,
          "legend": true,
          "lines": true,
          "linewidth": 4,
          "nullPointMode": "connected",
          "spaceLength": 4,
          "zindex": -2
        },
        {
          "alias": "/aggregated /",
          "color": "#E7D551",
          "linewidth": 2,
          "zindex": 3
        },
        {
          "alias": "/^95th quantile for week/",
          "color": "#37872D",
          "dashLength": 4,
          "dashes": true,
          "legend": true,
          "lines": true,
          "linewidth": 1,
          "nullPointMode": "connected",
          "spaceLength": 10,
          "zindex": -2
        },
        {
          "alias": "/^99th quantile for week/",
          "color": "#56A64B",
          "dashLength": 4,
          "dashes": true,
          "legend": true,
          "lines": true,
          "linewidth": 2,
          "nullPointMode": "connected",
          "spaceLength": 4,
          "zindex": -2
        }
      ],
      "spaceLength": 10,
      "stableId": "saturation-kube_horizontalpodautoscaler_desired_replicas",
      "stack": false,
      "steppedLine": false,
      "targets": [
        {
          "expr": "clamp_min(\n  clamp_max(\n    max(\n      gitlab_component_saturation:ratio{env=\"$environment\",environment=\"$environment\",stage=\"main\",type=\"mailroom\", component=\"kube_horizontalpodautoscaler_desired_replicas\"}\n    ) by (component)\n  ,1)\n,0)\n",
          "format": "time_series",
          "interval": "1m",
          "intervalFactor": 3,
          "legendFormat": "aggregated {{ component }}",
          "refId": "A"
        },
        {
          "expr": "gitlab_component_saturation:ratio_quantile95_1w{env=\"$environment\",environment=\"$environment\",stage=\"main\",type=\"mailroom\", component=\"kube_horizontalpodautoscaler_desired_replicas\"}\n",
          "format": "time_series",
          "interval": "1m",
          "intervalFactor": 3,
          "legendFormat": "95th quantile for week {{ component }}",
          "refId": "B"
        },
        {
          "expr": "gitlab_component_saturation:ratio_quantile99_1w{env=\"$environment\",environment=\"$environment\",stage=\"main\",type=\"mailroom\", component=\"kube_horizontalpodautoscaler_desired_replicas\"}\n",
          "format": "time_series",
          "interval": "1m",
          "intervalFactor": 3,
          "legendFormat": "99th quantile for week {{ component }}",
          "refId": "C"
        },
        {
          "expr": "avg(slo:max:soft:gitlab_component_saturation:ratio{component=\"kube_horizontalpodautoscaler_desired_replicas\"}) by (component)\n",
          "format": "time_series",
          "interval": "1m",
          "intervalFactor": 3,
          "legendFormat": "Soft SLO: {{ component }}",
          "refId": "D"
        },
        {
          "expr": "avg(slo:max:hard:gitlab_component_saturation:ratio{component=\"kube_horizontalpodautoscaler_desired_replicas\"}) by (component)\n",
          "format": "time_series",
          "interval": "1m",
          "intervalFactor": 3,
          "legendFormat": "Hard SLO: {{ component }}",
          "refId": "E"
        }
      ],
      "thresholds": [

      ],
      "timeFrom": null,
      "timeShift": null,
      "title": "Horizontal Pod Autoscaler Desired Replicas",
      "tooltip": {
        "shared": true,
        "sort": 2,
        "value_type": "individual"
      },
      "type": "graph",
      "xaxis": {
        "buckets": null,
        "mode": "time",
        "name": null,
        "show": true,
        "values": [

        ]
      },
      "yaxes": [
        {
          "format": "percentunit",
          "label": "Saturation %",
          "logBase": 1,
          "max": 1,
          "min": null,
          "show": true
        },
        {
          "format": "short",
          "label": null,
          "logBase": 1,
          "max": 1,
          "min": 0,
          "show": false
        }
      ]
    },
    {
      "content": "The [Horizontal Pod Autoscaler](https://kubernetes.io/docs/tasks/run-application/horizontal-pod-autoscale/)\nautomatically scales the number of Pods in a deployment based on metrics.\n\nThe Horizontal Pod Autoscaler has a configured upper maximum. When this\nlimit is reached, the HPA will not increase the number of pods and other\nresource saturation (eg, CPU, memory) may occur.\n",
      "datasource": null,
      "gridPos": {
        "h": 12,
        "w": 6,
        "x": 18,
        "y": 102
      },
      "id": 15,
      "mode": "markdown",
      "title": "",
      "type": "text"
    },
    {
      "collapse": false,
      "collapsed": false,
      "gridPos": {
        "h": 1,
        "w": 24,
        "x": 0,
        "y": 200
      },
      "id": 16,
      "panels": [

      ],
      "repeat": null,
      "repeatIteration": null,
      "repeatRowId": null,
      "showTitle": true,
      "title": "kube_container_cpu: Kube Container CPU Utilization",
      "titleSize": "h6",
      "type": "row"
    },
    {
      "datasource": null,
      "description": "",
      "fieldConfig": {
        "defaults": {
          "decimals": 0,
          "displayName": "Severity",
          "links": [

          ],
          "mappings": [

          ],
          "thresholds": {
            "mode": "absolute",
            "steps": [
              {
                "color": "light-green",
                "value": null
              }
            ]
          },
          "unit": ""
        }
      },
      "gridPos": {
        "h": 4,
        "w": 6,
        "x": 0,
        "y": 201
      },
      "id": 17,
      "links": [

      ],
      "options": {
        "colorMode": "background",
        "graphMode": "none",
        "justifyMode": "auto",
        "orientation": "vertical",
        "reduceOptions": {
          "calcs": [
            "lastNotNull"
          ],
          "fields": "",
          "values": false
        },
        "textMode": "auto"
      },
      "pluginVersion": "7",
      "targets": [
        {
          "expr": "vector(4)\n",
          "format": "time_series",
          "instant": true,
          "interval": "1m",
          "intervalFactor": 3,
          "legendFormat": "",
          "refId": "A"
        }
      ],
      "title": "Saturation Severity",
      "transparent": false,
      "type": "stat"
    },
    {
      "datasource": null,
      "description": "",
      "fieldConfig": {
        "defaults": {
          "decimals": 0,
          "displayName": "Horizontally Scalable",
          "links": [

          ],
          "mappings": [
            {
              "id": 0,
              "text": "No",
              "type": 1,
              "value": "0"
            },
            {
              "id": 1,
              "text": "Yes",
              "type": 1,
              "value": "1"
            }
          ],
          "thresholds": {
            "mode": "absolute",
            "steps": [
              {
                "color": "light-green",
                "value": null
              }
            ]
          },
          "unit": ""
        }
      },
      "gridPos": {
        "h": 4,
        "w": 6,
        "x": 6,
        "y": 201
      },
      "id": 18,
      "links": [

      ],
      "options": {
        "colorMode": "background",
        "graphMode": "none",
        "justifyMode": "auto",
        "orientation": "vertical",
        "reduceOptions": {
          "calcs": [
            "lastNotNull"
          ],
          "fields": "",
          "values": false
        },
        "textMode": "auto"
      },
      "pluginVersion": "7",
      "targets": [
        {
          "expr": "vector(1)\n",
          "format": "time_series",
          "instant": true,
          "interval": "1m",
          "intervalFactor": 3,
          "legendFormat": "",
          "refId": "A"
        }
      ],
      "title": "Scaling Characteristics",
      "transparent": false,
      "type": "stat"
    },
    {
      "datasource": null,
      "description": "",
      "fieldConfig": {
        "defaults": {
          "decimals": 0,
          "displayName": "Tamland",
          "links": [

          ],
          "mappings": [
            {
              "from": "-10",
              "id": 0,
              "text": "Soon",
              "to": "1",
              "type": 2
            }
          ],
          "noValue": "No Forecast",
          "thresholds": {
            "mode": "absolute",
            "steps": [
              {
                "color": "green",
                "value": null
              },
              {
                "color": "red",
                "value": 0
              },
              {
                "color": "orange",
                "value": 45
              }
            ]
          },
          "unit": "d"
        }
      },
      "gridPos": {
        "h": 4,
        "w": 6,
        "x": 12,
        "y": 201
      },
      "id": 19,
      "links": [
        {
          "targetBlank": true,
          "title": "Tamland Report",
          "url": "https://gitlab-com.gitlab.io/gl-infra/tamland/${__field.labels.pagename}.html#mailroom-service-kube_container_cpu-resource-saturation"
        }
      ],
      "options": {
        "colorMode": "background",
        "graphMode": "none",
        "justifyMode": "auto",
        "orientation": "vertical",
        "reduceOptions": {
          "calcs": [
            "lastNotNull"
          ],
          "fields": "",
          "values": false
        },
        "textMode": "auto"
      },
      "pluginVersion": "7",
      "targets": [
        {
          "expr": "tamland_forecast_violation_days{component=\"kube_container_cpu\",confidence_type=\"mean\",env=\"ops\",environment=\"ops\",threshold_type=\"hard\",type=\"mailroom\"}\n",
          "format": "time_series",
          "instant": true,
          "interval": "1m",
          "intervalFactor": 3,
          "legendFormat": "",
          "refId": "A"
        }
      ],
      "title": "Tamland Predicted Threshold Violation, Average Case",
      "transparent": false,
      "type": "stat"
    },
    {
      "datasource": null,
      "description": "",
      "fieldConfig": {
        "defaults": {
          "decimals": 0,
          "displayName": "Tamland",
          "links": [

          ],
          "mappings": [
            {
              "from": "-10",
              "id": 0,
              "text": "Soon",
              "to": "1",
              "type": 2
            }
          ],
          "noValue": "No Forecast",
          "thresholds": {
            "mode": "absolute",
            "steps": [
              {
                "color": "green",
                "value": null
              },
              {
                "color": "red",
                "value": 0
              },
              {
                "color": "orange",
                "value": 45
              }
            ]
          },
          "unit": "d"
        }
      },
      "gridPos": {
        "h": 4,
        "w": 6,
        "x": 18,
        "y": 201
      },
      "id": 20,
      "links": [
        {
          "targetBlank": true,
          "title": "Tamland Report",
          "url": "https://gitlab-com.gitlab.io/gl-infra/tamland/${__field.labels.pagename}.html#mailroom-service-kube_container_cpu-resource-saturation"
        }
      ],
      "options": {
        "colorMode": "background",
        "graphMode": "none",
        "justifyMode": "auto",
        "orientation": "vertical",
        "reduceOptions": {
          "calcs": [
            "lastNotNull"
          ],
          "fields": "",
          "values": false
        },
        "textMode": "auto"
      },
      "pluginVersion": "7",
      "targets": [
        {
          "expr": "tamland_forecast_violation_days{component=\"kube_container_cpu\",confidence_type=\"80%\",env=\"ops\",environment=\"ops\",threshold_type=\"hard\",type=\"mailroom\"}\n",
          "format": "time_series",
          "instant": true,
          "interval": "1m",
          "intervalFactor": 3,
          "legendFormat": "",
          "refId": "A"
        }
      ],
      "title": "Tamland Predicted Threshold Violation, Pessimistic Case",
      "transparent": false,
      "type": "stat"
    },
    {
      "aliasColors": {
      },
      "bars": false,
      "dashLength": 10,
      "dashes": false,
      "datasource": "$PROMETHEUS_DS",
      "decimals": 2,
      "description": "Timeseries",
      "fill": 0,
      "fillGradient": 0,
      "gridPos": {
        "h": 12,
        "w": 18,
        "x": 0,
        "y": 202
      },
      "id": 2713861591,
      "legend": {
        "alignAsTable": true,
        "avg": true,
        "current": true,
        "hideEmpty": true,
        "max": true,
        "min": true,
        "rightSide": false,
        "show": true,
        "sideWidth": null,
        "total": false,
        "values": true
      },
      "lines": true,
      "linewidth": 1,
      "links": [

      ],
      "nullPointMode": "null",
      "percentage": false,
      "pointradius": 5,
      "points": false,
      "renderer": "flot",
      "repeat": null,
      "seriesOverrides": [
        {
          "alias": "/^Soft SLO/",
          "color": "#FF4500",
          "dashLength": 4,
          "dashes": true,
          "legend": true,
          "lines": true,
          "linewidth": 2,
          "nullPointMode": "connected",
          "spaceLength": 10,
          "zindex": -2
        },
        {
          "alias": "/^Hard SLO/",
          "color": "#F2495C",
          "dashLength": 4,
          "dashes": true,
          "legend": true,
          "lines": true,
          "linewidth": 4,
          "nullPointMode": "connected",
          "spaceLength": 4,
          "zindex": -2
        },
        {
          "alias": "/aggregated /",
          "color": "#E7D551",
          "linewidth": 2,
          "zindex": 3
        },
        {
          "alias": "/^95th quantile for week/",
          "color": "#37872D",
          "dashLength": 4,
          "dashes": true,
          "legend": true,
          "lines": true,
          "linewidth": 1,
          "nullPointMode": "connected",
          "spaceLength": 10,
          "zindex": -2
        },
        {
          "alias": "/^99th quantile for week/",
          "color": "#56A64B",
          "dashLength": 4,
          "dashes": true,
          "legend": true,
          "lines": true,
          "linewidth": 2,
          "nullPointMode": "connected",
          "spaceLength": 4,
          "zindex": -2
        }
      ],
      "spaceLength": 10,
      "stableId": "saturation-kube_container_cpu",
      "stack": false,
      "steppedLine": false,
      "targets": [
        {
          "expr": "clamp_min(\n  clamp_max(\n    max(\n      gitlab_component_saturation:ratio{env=\"$environment\",environment=\"$environment\",stage=\"main\",type=\"mailroom\", component=\"kube_container_cpu\"}\n    ) by (component)\n  ,1)\n,0)\n",
          "format": "time_series",
          "interval": "1m",
          "intervalFactor": 3,
          "legendFormat": "aggregated {{ component }}",
          "refId": "A"
        },
        {
          "expr": "gitlab_component_saturation:ratio_quantile95_1w{env=\"$environment\",environment=\"$environment\",stage=\"main\",type=\"mailroom\", component=\"kube_container_cpu\"}\n",
          "format": "time_series",
          "interval": "1m",
          "intervalFactor": 3,
          "legendFormat": "95th quantile for week {{ component }}",
          "refId": "B"
        },
        {
          "expr": "gitlab_component_saturation:ratio_quantile99_1w{env=\"$environment\",environment=\"$environment\",stage=\"main\",type=\"mailroom\", component=\"kube_container_cpu\"}\n",
          "format": "time_series",
          "interval": "1m",
          "intervalFactor": 3,
          "legendFormat": "99th quantile for week {{ component }}",
          "refId": "C"
        },
        {
          "expr": "avg(slo:max:soft:gitlab_component_saturation:ratio{component=\"kube_container_cpu\"}) by (component)\n",
          "format": "time_series",
          "interval": "1m",
          "intervalFactor": 3,
          "legendFormat": "Soft SLO: {{ component }}",
          "refId": "D"
        },
        {
          "expr": "avg(slo:max:hard:gitlab_component_saturation:ratio{component=\"kube_container_cpu\"}) by (component)\n",
          "format": "time_series",
          "interval": "1m",
          "intervalFactor": 3,
          "legendFormat": "Hard SLO: {{ component }}",
          "refId": "E"
        }
      ],
      "thresholds": [

      ],
      "timeFrom": null,
      "timeShift": null,
      "title": "Kube Container CPU Utilization",
      "tooltip": {
        "shared": true,
        "sort": 2,
        "value_type": "individual"
      },
      "type": "graph",
      "xaxis": {
        "buckets": null,
        "mode": "time",
        "name": null,
        "show": true,
        "values": [

        ]
      },
      "yaxes": [
        {
          "format": "percentunit",
          "label": "Saturation %",
          "logBase": 1,
          "max": 1,
          "min": null,
          "show": true
        },
        {
          "format": "short",
          "label": null,
          "logBase": 1,
          "max": 1,
          "min": 0,
          "show": false
        }
      ]
    },
    {
      "content": "Kubernetes containers are allocated a share of CPU. When this is exhausted, the container may be thottled.\n",
      "datasource": null,
      "gridPos": {
        "h": 12,
        "w": 6,
        "x": 18,
        "y": 202
      },
      "id": 22,
      "mode": "markdown",
      "title": "",
      "type": "text"
    },
    {
      "collapse": false,
      "collapsed": false,
      "gridPos": {
        "h": 1,
        "w": 24,
        "x": 0,
        "y": 300
      },
      "id": 23,
      "panels": [

      ],
      "repeat": null,
      "repeatIteration": null,
      "repeatRowId": null,
      "showTitle": true,
      "title": "kube_container_memory: Kube Container Memory Utilization",
      "titleSize": "h6",
      "type": "row"
    },
    {
      "datasource": null,
      "description": "",
      "fieldConfig": {
        "defaults": {
          "decimals": 0,
          "displayName": "Severity",
          "links": [

          ],
          "mappings": [

          ],
          "thresholds": {
            "mode": "absolute",
            "steps": [
              {
                "color": "light-green",
                "value": null
              }
            ]
          },
          "unit": ""
        }
      },
      "gridPos": {
        "h": 4,
        "w": 6,
        "x": 0,
        "y": 301
      },
      "id": 24,
      "links": [

      ],
      "options": {
        "colorMode": "background",
        "graphMode": "none",
        "justifyMode": "auto",
        "orientation": "vertical",
        "reduceOptions": {
          "calcs": [
            "lastNotNull"
          ],
          "fields": "",
          "values": false
        },
        "textMode": "auto"
      },
      "pluginVersion": "7",
      "targets": [
        {
          "expr": "vector(4)\n",
          "format": "time_series",
          "instant": true,
          "interval": "1m",
          "intervalFactor": 3,
          "legendFormat": "",
          "refId": "A"
        }
      ],
      "title": "Saturation Severity",
      "transparent": false,
      "type": "stat"
    },
    {
      "datasource": null,
      "description": "",
      "fieldConfig": {
        "defaults": {
          "decimals": 0,
          "displayName": "Horizontally Scalable",
          "links": [

          ],
          "mappings": [
            {
              "id": 0,
              "text": "No",
              "type": 1,
              "value": "0"
            },
            {
              "id": 1,
              "text": "Yes",
              "type": 1,
              "value": "1"
            }
          ],
          "thresholds": {
            "mode": "absolute",
            "steps": [
              {
                "color": "light-green",
                "value": null
              }
            ]
          },
          "unit": ""
        }
      },
      "gridPos": {
        "h": 4,
        "w": 6,
        "x": 6,
        "y": 301
      },
      "id": 25,
      "links": [

      ],
      "options": {
        "colorMode": "background",
        "graphMode": "none",
        "justifyMode": "auto",
        "orientation": "vertical",
        "reduceOptions": {
          "calcs": [
            "lastNotNull"
          ],
          "fields": "",
          "values": false
        },
        "textMode": "auto"
      },
      "pluginVersion": "7",
      "targets": [
        {
          "expr": "vector(1)\n",
          "format": "time_series",
          "instant": true,
          "interval": "1m",
          "intervalFactor": 3,
          "legendFormat": "",
          "refId": "A"
        }
      ],
      "title": "Scaling Characteristics",
      "transparent": false,
      "type": "stat"
    },
    {
      "datasource": null,
      "description": "",
      "fieldConfig": {
        "defaults": {
          "decimals": 0,
          "displayName": "Tamland",
          "links": [

          ],
          "mappings": [
            {
              "from": "-10",
              "id": 0,
              "text": "Soon",
              "to": "1",
              "type": 2
            }
          ],
          "noValue": "No Forecast",
          "thresholds": {
            "mode": "absolute",
            "steps": [
              {
                "color": "green",
                "value": null
              },
              {
                "color": "red",
                "value": 0
              },
              {
                "color": "orange",
                "value": 45
              }
            ]
          },
          "unit": "d"
        }
      },
      "gridPos": {
        "h": 4,
        "w": 6,
        "x": 12,
        "y": 301
      },
      "id": 26,
      "links": [
        {
          "targetBlank": true,
          "title": "Tamland Report",
          "url": "https://gitlab-com.gitlab.io/gl-infra/tamland/${__field.labels.pagename}.html#mailroom-service-kube_container_memory-resource-saturation"
        }
      ],
      "options": {
        "colorMode": "background",
        "graphMode": "none",
        "justifyMode": "auto",
        "orientation": "vertical",
        "reduceOptions": {
          "calcs": [
            "lastNotNull"
          ],
          "fields": "",
          "values": false
        },
        "textMode": "auto"
      },
      "pluginVersion": "7",
      "targets": [
        {
          "expr": "tamland_forecast_violation_days{component=\"kube_container_memory\",confidence_type=\"mean\",env=\"ops\",environment=\"ops\",threshold_type=\"hard\",type=\"mailroom\"}\n",
          "format": "time_series",
          "instant": true,
          "interval": "1m",
          "intervalFactor": 3,
          "legendFormat": "",
          "refId": "A"
        }
      ],
      "title": "Tamland Predicted Threshold Violation, Average Case",
      "transparent": false,
      "type": "stat"
    },
    {
      "datasource": null,
      "description": "",
      "fieldConfig": {
        "defaults": {
          "decimals": 0,
          "displayName": "Tamland",
          "links": [

          ],
          "mappings": [
            {
              "from": "-10",
              "id": 0,
              "text": "Soon",
              "to": "1",
              "type": 2
            }
          ],
          "noValue": "No Forecast",
          "thresholds": {
            "mode": "absolute",
            "steps": [
              {
                "color": "green",
                "value": null
              },
              {
                "color": "red",
                "value": 0
              },
              {
                "color": "orange",
                "value": 45
              }
            ]
          },
          "unit": "d"
        }
      },
      "gridPos": {
        "h": 4,
        "w": 6,
        "x": 18,
        "y": 301
      },
      "id": 27,
      "links": [
        {
          "targetBlank": true,
          "title": "Tamland Report",
          "url": "https://gitlab-com.gitlab.io/gl-infra/tamland/${__field.labels.pagename}.html#mailroom-service-kube_container_memory-resource-saturation"
        }
      ],
      "options": {
        "colorMode": "background",
        "graphMode": "none",
        "justifyMode": "auto",
        "orientation": "vertical",
        "reduceOptions": {
          "calcs": [
            "lastNotNull"
          ],
          "fields": "",
          "values": false
        },
        "textMode": "auto"
      },
      "pluginVersion": "7",
      "targets": [
        {
          "expr": "tamland_forecast_violation_days{component=\"kube_container_memory\",confidence_type=\"80%\",env=\"ops\",environment=\"ops\",threshold_type=\"hard\",type=\"mailroom\"}\n",
          "format": "time_series",
          "instant": true,
          "interval": "1m",
          "intervalFactor": 3,
          "legendFormat": "",
          "refId": "A"
        }
      ],
      "title": "Tamland Predicted Threshold Violation, Pessimistic Case",
      "transparent": false,
      "type": "stat"
    },
    {
      "aliasColors": {
      },
      "bars": false,
      "dashLength": 10,
      "dashes": false,
      "datasource": "$PROMETHEUS_DS",
      "decimals": 2,
      "description": "Timeseries",
      "fill": 0,
      "fillGradient": 0,
      "gridPos": {
        "h": 12,
        "w": 18,
        "x": 0,
        "y": 302
      },
      "id": 172578411,
      "legend": {
        "alignAsTable": true,
        "avg": true,
        "current": true,
        "hideEmpty": true,
        "max": true,
        "min": true,
        "rightSide": false,
        "show": true,
        "sideWidth": null,
        "total": false,
        "values": true
      },
      "lines": true,
      "linewidth": 1,
      "links": [

      ],
      "nullPointMode": "null",
      "percentage": false,
      "pointradius": 5,
      "points": false,
      "renderer": "flot",
      "repeat": null,
      "seriesOverrides": [
        {
          "alias": "/^Soft SLO/",
          "color": "#FF4500",
          "dashLength": 4,
          "dashes": true,
          "legend": true,
          "lines": true,
          "linewidth": 2,
          "nullPointMode": "connected",
          "spaceLength": 10,
          "zindex": -2
        },
        {
          "alias": "/^Hard SLO/",
          "color": "#F2495C",
          "dashLength": 4,
          "dashes": true,
          "legend": true,
          "lines": true,
          "linewidth": 4,
          "nullPointMode": "connected",
          "spaceLength": 4,
          "zindex": -2
        },
        {
          "alias": "/aggregated /",
          "color": "#E7D551",
          "linewidth": 2,
          "zindex": 3
        },
        {
          "alias": "/^95th quantile for week/",
          "color": "#37872D",
          "dashLength": 4,
          "dashes": true,
          "legend": true,
          "lines": true,
          "linewidth": 1,
          "nullPointMode": "connected",
          "spaceLength": 10,
          "zindex": -2
        },
        {
          "alias": "/^99th quantile for week/",
          "color": "#56A64B",
          "dashLength": 4,
          "dashes": true,
          "legend": true,
          "lines": true,
          "linewidth": 2,
          "nullPointMode": "connected",
          "spaceLength": 4,
          "zindex": -2
        }
      ],
      "spaceLength": 10,
      "stableId": "saturation-kube_container_memory",
      "stack": false,
      "steppedLine": false,
      "targets": [
        {
          "expr": "clamp_min(\n  clamp_max(\n    max(\n      gitlab_component_saturation:ratio{env=\"$environment\",environment=\"$environment\",stage=\"main\",type=\"mailroom\", component=\"kube_container_memory\"}\n    ) by (component)\n  ,1)\n,0)\n",
          "format": "time_series",
          "interval": "1m",
          "intervalFactor": 3,
          "legendFormat": "aggregated {{ component }}",
          "refId": "A"
        },
        {
          "expr": "gitlab_component_saturation:ratio_quantile95_1w{env=\"$environment\",environment=\"$environment\",stage=\"main\",type=\"mailroom\", component=\"kube_container_memory\"}\n",
          "format": "time_series",
          "interval": "1m",
          "intervalFactor": 3,
          "legendFormat": "95th quantile for week {{ component }}",
          "refId": "B"
        },
        {
          "expr": "gitlab_component_saturation:ratio_quantile99_1w{env=\"$environment\",environment=\"$environment\",stage=\"main\",type=\"mailroom\", component=\"kube_container_memory\"}\n",
          "format": "time_series",
          "interval": "1m",
          "intervalFactor": 3,
          "legendFormat": "99th quantile for week {{ component }}",
          "refId": "C"
        },
        {
          "expr": "avg(slo:max:soft:gitlab_component_saturation:ratio{component=\"kube_container_memory\"}) by (component)\n",
          "format": "time_series",
          "interval": "1m",
          "intervalFactor": 3,
          "legendFormat": "Soft SLO: {{ component }}",
          "refId": "D"
        },
        {
          "expr": "avg(slo:max:hard:gitlab_component_saturation:ratio{component=\"kube_container_memory\"}) by (component)\n",
          "format": "time_series",
          "interval": "1m",
          "intervalFactor": 3,
          "legendFormat": "Hard SLO: {{ component }}",
          "refId": "E"
        }
      ],
      "thresholds": [

      ],
      "timeFrom": null,
      "timeShift": null,
      "title": "Kube Container Memory Utilization",
      "tooltip": {
        "shared": true,
        "sort": 2,
        "value_type": "individual"
      },
      "type": "graph",
      "xaxis": {
        "buckets": null,
        "mode": "time",
        "name": null,
        "show": true,
        "values": [

        ]
      },
      "yaxes": [
        {
          "format": "percentunit",
          "label": "Saturation %",
          "logBase": 1,
          "max": 1,
          "min": null,
          "show": true
        },
        {
          "format": "short",
          "label": null,
          "logBase": 1,
          "max": 1,
          "min": 0,
          "show": false
        }
      ]
    },
    {
      "content": "Records the total memory utilization for containers for this service, as a percentage of\nthe memory limit as configured through Kubernetes.\n",
      "datasource": null,
      "gridPos": {
        "h": 12,
        "w": 6,
        "x": 18,
        "y": 302
      },
      "id": 29,
      "mode": "markdown",
      "title": "",
      "type": "text"
    },
    {
      "content": "Made with ❤️ and [Grafonnet](https://github.com/grafana/grafonnet-lib). [Contribute to this dashboard on GitLab.com](https://gitlab.com/gitlab-com/runbooks/blob/master/dashboards)\n",
      "datasource": null,
      "gridPos": {
        "h": 2,
        "w": 24,
        "x": 0,
        "y": 110000
      },
      "id": 30,
      "mode": "markdown",
      "title": "Source",
      "type": "text"
    }
  ],
  "refresh": "",
  "rows": [

  ],
  "schemaVersion": 16,
  "style": "light",
  "tags": [
    "managed",
    "mailroom",
    "mailroom",
    "type:mailroom",
    "capacity-review"
  ],
  "templating": {
    "list": [
      {
        "current": {
          "text": "Global",
          "value": "Global"
        },
        "hide": 0,
        "label": null,
        "name": "PROMETHEUS_DS",
        "options": [

        ],
        "query": "prometheus",
        "refresh": 1,
        "regex": "",
        "type": "datasource"
      },
      {
        "allValue": null,
        "current": {
          "text": "gprd",
          "value": "gprd"
        },
        "datasource": "$PROMETHEUS_DS",
        "hide": 0,
        "includeAll": false,
        "label": null,
        "multi": false,
        "name": "environment",
        "options": [

        ],
        "query": "label_values(gitlab_service_ops:rate, environment)",
        "refresh": 1,
        "regex": "",
        "sort": 1,
        "tagValuesQuery": "",
        "tags": [

        ],
        "tagsQuery": "",
        "type": "query",
        "useTags": false
      }
    ]
  },
  "time": {
    "from": "now-15d/d",
    "to": "now-1d/d"
  },
  "timepicker": {
    "refresh_intervals": [
      "1m",
      "5m",
      "10m",
      "15m",
      "30m"
    ],
    "time_options": [
      "5m",
      "15m",
      "1h",
      "6h",
      "12h",
      "24h",
      "2d",
      "7d",
      "30d"
    ]
  },
  "timezone": "utc",
  "title": "mailroom: Capacity Review",
  "uid": "mailroom-capacity-review",
  "version": 1319
}