{
  "__inputs": [

  ],
  "__requires": [

  ],
  "annotations": {
    "list": [
      {
        "builtIn": 1,
        "datasource": "-- Grafana --",
        "enable": false,
        "hide": false,
        "iconColor": "#96D98D",
        "name": "deploy",
        "showIn": 0,
        "tags": [
          "deploy",
          "$environment"
        ],
        "type": "tags"
      },
      {
        "builtIn": 1,
        "datasource": "-- Grafana --",
        "enable": false,
        "hide": false,
        "iconColor": "#FFEE52",
        "name": "canary-deploy",
        "showIn": 0,
        "tags": [
          "deploy",
          "${environment}-cny"
        ],
        "type": "tags"
      },
      {
        "builtIn": 1,
        "datasource": "-- Grafana --",
        "enable": false,
        "hide": false,
        "iconColor": "#CA95E5",
        "name": "feature-flags",
        "showIn": 0,
        "tags": [
          "feature-flag",
          "${environment}"
        ],
        "type": "tags"
      }
    ]
  },
  "description": "Uploaded by https://gitlab.com/gitlab-com/runbooks/-/jobs/3271110524 at Thu Nov  3 17:34:50 UTC 2022",
  "editable": false,
  "gnetId": null,
  "graphTooltip": 1,
  "hideControls": false,
  "id": null,
  "links": [
    {
      "asDropdown": true,
      "icon": "external link",
      "includeVars": false,
      "keepTime": true,
      "tags": "",
      "targetBlank": false,
      "title": "Platform Triage",
      "type": "link",
      "url": "https://dashboards.gitlab.net/d/general-triage/platform-triage?orgId=1"
    },
    {
      "asDropdown": true,
      "icon": "external link",
      "includeVars": true,
      "keepTime": true,
      "tags": [
        "managed",
        "service overview"
      ],
      "targetBlank": false,
      "title": "Service Overview Dashboards",
      "type": "dashboards",
      "url": ""
    }
  ],
  "panels": [
    {
      "collapse": false,
      "collapsed": false,
      "gridPos": {
        "h": 1,
        "w": 24,
        "x": 0,
        "y": 0
      },
      "id": 2,
      "panels": [

      ],
      "repeat": null,
      "repeatIteration": null,
      "repeatRowId": null,
      "showTitle": true,
      "title": "Webservice (Web) Version",
      "titleSize": "h6",
      "type": "row"
    },
    {
      "aliasColors": {
      },
      "bars": false,
      "dashLength": 10,
      "dashes": false,
      "datasource": "$PROMETHEUS_DS",
      "decimals": 0,
      "description": "",
      "fill": 0,
      "fillGradient": 0,
      "gridPos": {
        "h": 5,
        "w": 12,
        "x": 0,
        "y": 1
      },
      "id": 3,
      "legend": {
        "alignAsTable": true,
        "avg": true,
        "current": true,
        "hideEmpty": true,
        "max": true,
        "min": true,
        "rightSide": false,
        "show": true,
        "sideWidth": null,
        "total": false,
        "values": true
      },
      "lines": true,
      "linewidth": 2,
      "links": [

      ],
      "nullPointMode": "null",
      "percentage": false,
      "pointradius": 5,
      "points": false,
      "renderer": "flot",
      "repeat": null,
      "seriesOverrides": [

      ],
      "spaceLength": 10,
      "stack": false,
      "steppedLine": false,
      "targets": [
        {
          "expr": "count(kube_pod_container_info{env=~\"$environment\", cluster=\"$cluster\", node=~\"^$Node.*$\", namespace=\"$namespace\", container_id!=\"\", pod=~\"^$Deployment.*$\"}) by (image)",
          "format": "time_series",
          "interval": "1m",
          "intervalFactor": 3,
          "legendFormat": "{{ image }}",
          "refId": "A"
        }
      ],
      "thresholds": [

      ],
      "timeFrom": null,
      "timeShift": null,
      "title": "Active Version",
      "tooltip": {
        "shared": true,
        "sort": 2,
        "value_type": "individual"
      },
      "type": "graph",
      "xaxis": {
        "buckets": null,
        "mode": "time",
        "name": null,
        "show": true,
        "values": [

        ]
      },
      "yaxes": [
        {
          "format": "short",
          "label": "",
          "logBase": 1,
          "max": null,
          "min": 0,
          "show": true
        },
        {
          "format": "short",
          "label": null,
          "logBase": 1,
          "max": 1,
          "min": 0,
          "show": false
        }
      ]
    },
    {
      "aliasColors": {
      },
      "bars": false,
      "dashLength": 10,
      "dashes": false,
      "datasource": "$PROMETHEUS_DS",
      "decimals": 0,
      "description": "",
      "fill": 0,
      "fillGradient": 0,
      "gridPos": {
        "h": 5,
        "w": 12,
        "x": 12,
        "y": 1
      },
      "id": 4,
      "legend": {
        "alignAsTable": true,
        "avg": true,
        "current": true,
        "hideEmpty": true,
        "max": true,
        "min": true,
        "rightSide": true,
        "show": true,
        "sideWidth": null,
        "total": false,
        "values": true
      },
      "lines": true,
      "linewidth": 2,
      "links": [

      ],
      "nullPointMode": "null",
      "percentage": false,
      "pointradius": 5,
      "points": false,
      "renderer": "flot",
      "repeat": null,
      "seriesOverrides": [

      ],
      "spaceLength": 10,
      "stack": false,
      "steppedLine": false,
      "targets": [
        {
          "expr": "avg(kube_replicaset_spec_replicas{env=~\"$environment\", cluster=\"$cluster\", namespace=\"$namespace\", replicaset=~\"^$Deployment.*\"}) by (replicaset)",
          "format": "time_series",
          "interval": "1m",
          "intervalFactor": 3,
          "legendFormat": "{{ replicaset }}",
          "refId": "A"
        }
      ],
      "thresholds": [

      ],
      "timeFrom": null,
      "timeShift": null,
      "title": "Active Replicaset",
      "tooltip": {
        "shared": true,
        "sort": 2,
        "value_type": "individual"
      },
      "type": "graph",
      "xaxis": {
        "buckets": null,
        "mode": "time",
        "name": null,
        "show": true,
        "values": [

        ]
      },
      "yaxes": [
        {
          "format": "short",
          "label": "",
          "logBase": 1,
          "max": null,
          "min": 0,
          "show": true
        },
        {
          "format": "short",
          "label": null,
          "logBase": 1,
          "max": 1,
          "min": 0,
          "show": false
        }
      ]
    },
    {
      "collapse": false,
      "collapsed": false,
      "gridPos": {
        "h": 1,
        "w": 24,
        "x": 0,
        "y": 500
      },
      "id": 5,
      "panels": [

      ],
      "repeat": null,
      "repeatIteration": null,
      "repeatRowId": null,
      "showTitle": true,
      "title": "Deployment Info",
      "titleSize": "h6",
      "type": "row"
    },
    {
      "datasource": null,
      "description": "",
      "fieldConfig": {
        "defaults": {
          "color": {
            "mode": "thresholds"
          },
          "links": [

          ],
          "mappings": [

          ],
          "max": 100,
          "min": 0,
          "thresholds": {
            "mode": "absolute",
            "steps": [
              {
                "color": "green",
                "value": null
              },
              {
                "color": "orange",
                "value": 65
              },
              {
                "color": "red",
                "value": 90
              }
            ]
          },
          "unit": "percent"
        }
      },
      "gridPos": {
        "h": 5,
        "w": 8,
        "x": 0,
        "y": 501
      },
      "id": 6,
      "links": [

      ],
      "options": {
        "reduceOptions": {
          "calcs": [
            "lastNotNull"
          ],
          "fields": "",
          "values": false
        },
        "showThresholdLabels": false,
        "showThresholdMarkers": true
      },
      "pluginVersion": "7",
      "targets": [
        {
          "expr": "sum (container_memory_working_set_bytes{env=~\"$environment\", cluster=\"$cluster\", node=~\"^$Node.*$\", namespace=\"$namespace\", pod=~\"^$Deployment.*$\"}) / sum (kube_node_status_allocatable{resource=\"memory\", unit= \"byte\", env=~\"$environment\", node=~\"^$Node.*$\"}) * 100",
          "format": "time_series",
          "instant": false,
          "interval": "1m",
          "intervalFactor": 3,
          "legendFormat": "",
          "refId": "A"
        }
      ],
      "title": "Deployment Memory Usage",
      "transparent": false,
      "type": "gauge"
    },
    {
      "datasource": null,
      "description": "",
      "fieldConfig": {
        "defaults": {
          "color": {
            "mode": "thresholds"
          },
          "links": [

          ],
          "mappings": [

          ],
          "max": 1,
          "min": 0,
          "thresholds": {
            "mode": "absolute",
            "steps": [
              {
                "color": "green",
                "value": null
              },
              {
                "color": "orange",
                "value": 0.65
              },
              {
                "color": "red",
                "value": 0.9
              }
            ]
          },
          "unit": "percentunit"
        }
      },
      "gridPos": {
        "h": 5,
        "w": 8,
        "x": 8,
        "y": 501
      },
      "id": 7,
      "links": [

      ],
      "options": {
        "reduceOptions": {
          "calcs": [
            "lastNotNull"
          ],
          "fields": "",
          "values": false
        },
        "showThresholdLabels": false,
        "showThresholdMarkers": true
      },
      "pluginVersion": "7",
      "targets": [
        {
          "expr": "sum (rate (container_cpu_usage_seconds_total{env=~\"$environment\", cluster=\"$cluster\", node=~\"^$Node.*$\", pod=~\"^$Deployment.*$\"}[2m])) / sum (machine_cpu_cores{env=~\"$environment\", cluster=\"$cluster\", node=~\"^$Node.*$\"}) * 100",
          "format": "time_series",
          "instant": false,
          "interval": "1m",
          "intervalFactor": 3,
          "legendFormat": "",
          "refId": "A"
        }
      ],
      "title": "Deployment CPU Usage",
      "transparent": false,
      "type": "gauge"
    },
    {
      "datasource": null,
      "description": "",
      "fieldConfig": {
        "defaults": {
          "color": {
            "mode": "thresholds"
          },
          "decimals": 0,
          "links": [

          ],
          "mappings": [

          ],
          "max": 100,
          "min": 0,
          "thresholds": {
            "mode": "absolute",
            "steps": [
              {
                "color": "green",
                "value": null
              },
              {
                "color": "orange",
                "value": 1
              },
              {
                "color": "red",
                "value": 30
              }
            ]
          },
          "unit": "none"
        }
      },
      "gridPos": {
        "h": 5,
        "w": 8,
        "x": 16,
        "y": 501
      },
      "id": 8,
      "links": [

      ],
      "options": {
        "reduceOptions": {
          "calcs": [
            "lastNotNull"
          ],
          "fields": "",
          "values": false
        },
        "showThresholdLabels": false,
        "showThresholdMarkers": true
      },
      "pluginVersion": "7",
      "targets": [
        {
          "expr": "((sum(kube_deployment_status_replicas{env=~\"$environment\", cluster=\"$cluster\", namespace=\"$namespace\", deployment=~\"$Deployment.*\"}) or vector(0)) - ((sum(kube_deployment_status_replicas_available{env=~\"$environment\", cluster=\"$cluster\", namespace=\"$namespace\", deployment=~\"$Deployment.*\"}) or vector(0)))) / (sum(kube_deployment_status_replicas{env=~\"$environment\", cluster=\"$cluster\", namespace=\"$namespace\", deployment=~\"$Deployment.*\"}) or vector(0))",
          "format": "time_series",
          "instant": false,
          "interval": "1m",
          "intervalFactor": 3,
          "legendFormat": "",
          "refId": "A"
        }
      ],
      "title": "Unavailable Replicas",
      "transparent": false,
      "type": "gauge"
    },
    {
      "datasource": null,
      "description": "",
      "fieldConfig": {
        "defaults": {
          "decimals": 2,
          "displayName": "",
          "links": [

          ],
          "mappings": [

          ],
          "thresholds": {
            "mode": "absolute",
            "steps": [
              {
                "color": "",
                "value": null
              }
            ]
          },
          "unit": "bytes"
        }
      },
      "gridPos": {
        "h": 3,
        "w": 4,
        "x": 0,
        "y": 503
      },
      "id": 9,
      "links": [

      ],
      "options": {
        "colorMode": "none",
        "graphMode": "none",
        "justifyMode": "auto",
        "orientation": "vertical",
        "reduceOptions": {
          "calcs": [
            "lastNotNull"
          ],
          "fields": "",
          "values": false
        },
        "textMode": "auto"
      },
      "pluginVersion": "7",
      "targets": [
        {
          "expr": "sum (container_memory_working_set_bytes{env=~\"$environment\", cluster=\"$cluster\", node=~\"^$Node.*$\", namespace=\"$namespace\", pod=~\"^$Deployment.*$\"})",
          "format": "time_series",
          "instant": false,
          "interval": "1m",
          "intervalFactor": 3,
          "legendFormat": "",
          "refId": "A"
        }
      ],
      "title": "Memory Used",
      "transparent": false,
      "type": "stat"
    },
    {
      "datasource": null,
      "description": "",
      "fieldConfig": {
        "defaults": {
          "decimals": 2,
          "displayName": "",
          "links": [

          ],
          "mappings": [

          ],
          "thresholds": {
            "mode": "absolute",
            "steps": [
              {
                "color": "",
                "value": null
              }
            ]
          },
          "unit": "bytes"
        }
      },
      "gridPos": {
        "h": 3,
        "w": 4,
        "x": 4,
        "y": 503
      },
      "id": 10,
      "links": [

      ],
      "options": {
        "colorMode": "none",
        "graphMode": "none",
        "justifyMode": "auto",
        "orientation": "vertical",
        "reduceOptions": {
          "calcs": [
            "lastNotNull"
          ],
          "fields": "",
          "values": false
        },
        "textMode": "auto"
      },
      "pluginVersion": "7",
      "targets": [
        {
          "expr": "sum (kube_node_status_allocatable{env=~\"$environment\", cluster=\"$cluster\", resource=\"memory\", unit=\"byte\"})",
          "format": "time_series",
          "instant": false,
          "interval": "1m",
          "intervalFactor": 3,
          "legendFormat": "",
          "refId": "A"
        }
      ],
      "title": "Memory Total (cluster)",
      "transparent": false,
      "type": "stat"
    },
    {
      "datasource": null,
      "description": "",
      "fieldConfig": {
        "defaults": {
          "decimals": 0,
          "displayName": "",
          "links": [

          ],
          "mappings": [

          ],
          "thresholds": {
            "mode": "absolute",
            "steps": [
              {
                "color": "",
                "value": null
              }
            ]
          },
          "unit": "none"
        }
      },
      "gridPos": {
        "h": 3,
        "w": 4,
        "x": 8,
        "y": 503
      },
      "id": 11,
      "links": [

      ],
      "options": {
        "colorMode": "none",
        "graphMode": "none",
        "justifyMode": "auto",
        "orientation": "vertical",
        "reduceOptions": {
          "calcs": [
            "lastNotNull"
          ],
          "fields": "",
          "values": false
        },
        "textMode": "auto"
      },
      "pluginVersion": "7",
      "targets": [
        {
          "expr": "sum (rate (container_cpu_usage_seconds_total{env=~\"$environment\", cluster=\"$cluster\", node=~\"^$Node.*$\", namespace=\"$namespace\", pod=~\"^$Deployment.*$\"}[1m]))",
          "format": "time_series",
          "instant": false,
          "interval": "1m",
          "intervalFactor": 3,
          "legendFormat": "",
          "refId": "A"
        }
      ],
      "title": "CPU Cores Used",
      "transparent": false,
      "type": "stat"
    },
    {
      "datasource": null,
      "description": "",
      "fieldConfig": {
        "defaults": {
          "decimals": 0,
          "displayName": "",
          "links": [

          ],
          "mappings": [

          ],
          "thresholds": {
            "mode": "absolute",
            "steps": [
              {
                "color": "",
                "value": null
              }
            ]
          },
          "unit": "none"
        }
      },
      "gridPos": {
        "h": 3,
        "w": 4,
        "x": 12,
        "y": 503
      },
      "id": 12,
      "links": [

      ],
      "options": {
        "colorMode": "none",
        "graphMode": "none",
        "justifyMode": "auto",
        "orientation": "vertical",
        "reduceOptions": {
          "calcs": [
            "lastNotNull"
          ],
          "fields": "",
          "values": false
        },
        "textMode": "auto"
      },
      "pluginVersion": "7",
      "targets": [
        {
          "expr": "sum (machine_cpu_cores{env=~\"$environment\", cluster=\"$cluster\"})",
          "format": "time_series",
          "instant": false,
          "interval": "1m",
          "intervalFactor": 3,
          "legendFormat": "",
          "refId": "A"
        }
      ],
      "title": "CPU Cores Total (cluster)",
      "transparent": false,
      "type": "stat"
    },
    {
      "datasource": null,
      "description": "",
      "fieldConfig": {
        "defaults": {
          "decimals": 0,
          "displayName": "",
          "links": [

          ],
          "mappings": [

          ],
          "thresholds": {
            "mode": "absolute",
            "steps": [
              {
                "color": "",
                "value": null
              }
            ]
          },
          "unit": "none"
        }
      },
      "gridPos": {
        "h": 3,
        "w": 4,
        "x": 16,
        "y": 503
      },
      "id": 13,
      "links": [

      ],
      "options": {
        "colorMode": "none",
        "graphMode": "none",
        "justifyMode": "auto",
        "orientation": "vertical",
        "reduceOptions": {
          "calcs": [
            "lastNotNull"
          ],
          "fields": "",
          "values": false
        },
        "textMode": "auto"
      },
      "pluginVersion": "7",
      "targets": [
        {
          "expr": "sum(kube_deployment_status_replicas_available{env=~\"$environment\", cluster=\"$cluster\", namespace=\"$namespace\", deployment=~\"$Deployment.*\"})",
          "format": "time_series",
          "instant": false,
          "interval": "1m",
          "intervalFactor": 3,
          "legendFormat": "",
          "refId": "A"
        }
      ],
      "title": "Pods available (cluster)",
      "transparent": false,
      "type": "stat"
    },
    {
      "datasource": null,
      "description": "",
      "fieldConfig": {
        "defaults": {
          "decimals": 0,
          "displayName": "",
          "links": [

          ],
          "mappings": [

          ],
          "thresholds": {
            "mode": "absolute",
            "steps": [
              {
                "color": "",
                "value": null
              }
            ]
          },
          "unit": "none"
        }
      },
      "gridPos": {
        "h": 3,
        "w": 4,
        "x": 20,
        "y": 503
      },
      "id": 14,
      "links": [

      ],
      "options": {
        "colorMode": "none",
        "graphMode": "none",
        "justifyMode": "auto",
        "orientation": "vertical",
        "reduceOptions": {
          "calcs": [
            "lastNotNull"
          ],
          "fields": "",
          "values": false
        },
        "textMode": "auto"
      },
      "pluginVersion": "7",
      "targets": [
        {
          "expr": "sum(kube_deployment_status_replicas{env=~\"$environment\", cluster=\"$cluster\", namespace=\"$namespace\", deployment=~\"$Deployment.*\"})",
          "format": "time_series",
          "instant": false,
          "interval": "1m",
          "intervalFactor": 3,
          "legendFormat": "",
          "refId": "A"
        }
      ],
      "title": "Pods total (cluster)",
      "transparent": false,
      "type": "stat"
    },
    {
      "collapse": false,
      "collapsed": false,
      "gridPos": {
        "h": 1,
        "w": 24,
        "x": 0,
        "y": 1000
      },
      "id": 15,
      "panels": [

      ],
      "repeat": null,
      "repeatIteration": null,
      "repeatRowId": null,
      "showTitle": true,
      "title": "CPU",
      "titleSize": "h6",
      "type": "row"
    },
    {
      "aliasColors": {
      },
      "bars": false,
      "dashLength": 10,
      "dashes": false,
      "datasource": "$PROMETHEUS_DS",
      "decimals": 3,
      "fill": 0,
      "fillGradient": 0,
      "gridPos": {
        "h": 10,
        "w": 24,
        "x": 0,
        "y": 1001
      },
      "id": 16,
      "legend": {
        "alignAsTable": true,
        "avg": false,
        "current": true,
        "hideEmpty": false,
        "max": true,
        "min": false,
        "rightSide": true,
        "show": true,
        "sideWidth": null,
        "total": false,
        "values": true
      },
      "lines": true,
      "linewidth": 2,
      "links": [

      ],
      "nullPointMode": "null",
      "percentage": false,
      "pointradius": 5,
      "points": false,
      "renderer": "flot",
      "repeat": null,
      "seriesOverrides": [

      ],
      "spaceLength": 10,
      "stack": false,
      "steppedLine": false,
      "targets": [
        {
          "expr": "sum (rate (container_cpu_usage_seconds_total{env=~\"$environment\", cluster=\"$cluster\", node=~\"^$Node.*$\", namespace=\"$namespace\", image!=\"\", pod=~\"^$Deployment.*$\"}[1m])) by (pod,node)",
          "format": "time_series",
          "interval": "1m",
          "intervalFactor": 3,
          "legendFormat": "real: {{ pod }}",
          "refId": "A"
        },
        {
          "expr": "sum (kube_pod_container_resource_requests{env=~\"$environment\", cluster=\"$cluster\", node=~\"^$Node.*$\", namespace=\"$namespace\", resource=\"cpu\", unit=\"core\", pod=~\"^$Deployment.*$\"}) by (pod,node)",
          "format": "time_series",
          "interval": "1m",
          "intervalFactor": 3,
          "legendFormat": "rqst: {{ pod }}",
          "refId": "B"
        }
      ],
      "thresholds": [

      ],
      "timeFrom": null,
      "timeShift": null,
      "title": "Usage",
      "tooltip": {
        "shared": true,
        "sort": 0,
        "value_type": "individual"
      },
      "type": "graph",
      "xaxis": {
        "buckets": null,
        "mode": "time",
        "name": null,
        "show": true,
        "values": [

        ]
      },
      "yaxes": [
        {
          "format": "none",
          "label": "cores",
          "logBase": 1,
          "max": null,
          "min": null,
          "show": true
        },
        {
          "format": "short",
          "label": null,
          "logBase": 1,
          "max": 1,
          "min": 0,
          "show": false
        }
      ]
    },
    {
      "columns": [

      ],
      "datasource": "$PROMETHEUS_DS",
      "gridPos": {
        "h": 10,
        "w": 24,
        "x": 0,
        "y": 1011
      },
      "id": 17,
      "links": [

      ],
      "styles": [
        {
          "alias": "Time",
          "pattern": "Time",
          "type": "hidden"
        },
        {
          "alias": "Pod",
          "decimals": 0,
          "link": true,
          "linkTooltip": "Drill Down",
          "linkUrl": "/d/kubernetes-resources-pod/k8s-resources-pod?var-datasource=$datasource&var-cluster=$cluster&var-namespace=$namespace&var-pod=$__cell",
          "pattern": "pod",
          "type": "number",
          "unit": "short"
        },
        {
          "alias": "CPU Usage",
          "decimals": 3,
          "pattern": "Value #A",
          "type": "number",
          "unit": "short"
        },
        {
          "alias": "CPU Requests",
          "decimals": 3,
          "pattern": "Value #B",
          "type": "number",
          "unit": "short"
        },
        {
          "alias": "CPU Usage %",
          "decimals": 0,
          "pattern": "Value #C",
          "type": "number",
          "unit": "percentunit"
        }
      ],
      "targets": [
        {
          "expr": "sum(label_replace(node_namespace_pod_container:container_cpu_usage_seconds_total:sum_rate{env=~\"$environment\"}, \"pod\", \"$1\", \"pod\", \"(.*)\") * on(namespace,pod) group_left(workload) mixin_pod_workload{env=~\"$environment\", cluster=\"$cluster\", namespace=\"$namespace\", workload=~\"^$Deployment.*\"}) by (pod)",
          "format": "table",
          "instant": true,
          "interval": "1m",
          "intervalFactor": 3,
          "legendFormat": "",
          "refId": "A"
        },
        {
          "expr": "sum(kube_pod_container_resource_requests{resource=\"cpu\", unit=\"core\", env=~\"$environment\"} * on(namespace,pod) group_left(workload) mixin_pod_workload{env=~\"$environment\", cluster=\"$cluster\", namespace=\"$namespace\", workload=~\"^$Deployment.*\"}) by (pod)",
          "format": "table",
          "instant": true,
          "interval": "1m",
          "intervalFactor": 3,
          "legendFormat": "",
          "refId": "B"
        },
        {
          "expr": "sum(label_replace(namespace_pod_container:container_cpu_usage_seconds_total:sum_rate{env=~\"$environment\"}, \"pod\", \"$1\", \"pod\", \"(.*)\") * on(pod) group_left(workload) mixin_pod_workload{env=~\"$environment\", cluster=\"$cluster\", namespace=\"$namespace\", workload=~\"^$Deployment.*\"}) by (pod) / sum(kube_pod_container_resource_requests{resource=\"cpu\", unit=\"core\", env=~\"$environment\"} * on(pod) group_left(workload) mixin_pod_workload{env=~\"$environment\", cluster=\"$cluster\", namespace=\"$namespace\", workload=~\"^$Deployment.*\"}) by (pod)",
          "format": "table",
          "instant": true,
          "interval": "1m",
          "intervalFactor": 3,
          "legendFormat": "",
          "refId": "C"
        }
      ],
      "timeFrom": null,
      "timeShift": null,
      "title": "Quota",
      "type": "table"
    },
    {
      "collapse": false,
      "collapsed": false,
      "gridPos": {
        "h": 1,
        "w": 24,
        "x": 0,
        "y": 2000
      },
      "id": 18,
      "panels": [

      ],
      "repeat": null,
      "repeatIteration": null,
      "repeatRowId": null,
      "showTitle": true,
      "title": "Memory",
      "titleSize": "h6",
      "type": "row"
    },
    {
      "aliasColors": {
      },
      "bars": false,
      "dashLength": 10,
      "dashes": false,
      "datasource": "$PROMETHEUS_DS",
      "decimals": 3,
      "fill": 0,
      "fillGradient": 0,
      "gridPos": {
        "h": 10,
        "w": 24,
        "x": 0,
        "y": 2001
      },
      "id": 19,
      "legend": {
        "alignAsTable": true,
        "avg": false,
        "current": true,
        "hideEmpty": false,
        "max": true,
        "min": false,
        "rightSide": true,
        "show": true,
        "sideWidth": null,
        "total": false,
        "values": true
      },
      "lines": true,
      "linewidth": 2,
      "links": [

      ],
      "nullPointMode": "null",
      "percentage": false,
      "pointradius": 5,
      "points": false,
      "renderer": "flot",
      "repeat": null,
      "seriesOverrides": [

      ],
      "spaceLength": 10,
      "stack": false,
      "steppedLine": false,
      "targets": [
        {
          "expr": "sum (container_memory_working_set_bytes{env=~\"$environment\", cluster=\"$cluster\", node=~\"^$Node.*$\", namespace=\"$namespace\", id!=\"/\",pod=~\"^$Deployment.*$\", container=\"webservice\"}) by (pod)",
          "format": "time_series",
          "interval": "1m",
          "intervalFactor": 3,
          "legendFormat": "real: {{ pod }}",
          "refId": "A"
        }
      ],
      "thresholds": [

      ],
      "timeFrom": null,
      "timeShift": null,
      "title": "Usage",
      "tooltip": {
        "shared": true,
        "sort": 0,
        "value_type": "individual"
      },
      "type": "graph",
      "xaxis": {
        "buckets": null,
        "mode": "time",
        "name": null,
        "show": true,
        "values": [

        ]
      },
      "yaxes": [
        {
          "decimals": 3,
          "format": "bytes",
          "label": null,
          "logBase": 1,
          "max": null,
          "min": null,
          "show": true
        },
        {
          "decimals": 3,
          "format": "bytes",
          "label": null,
          "logBase": 1,
          "max": null,
          "min": null,
          "show": true
        }
      ]
    },
    {
      "columns": [

      ],
      "datasource": "$PROMETHEUS_DS",
      "gridPos": {
        "h": 10,
        "w": 24,
        "x": 0,
        "y": 2011
      },
      "id": 20,
      "links": [

      ],
      "styles": [
        {
          "alias": "Time",
          "pattern": "Time",
          "type": "hidden"
        },
        {
          "alias": "Pod",
          "decimals": 0,
          "link": true,
          "linkTooltip": "Drill Down",
          "linkUrl": "/d/kubernetes-resources-pod/k8s-resources-pod?var-datasource=$datasource&var-cluster=$cluster&var-namespace=$namespace&var-pod=$__cell",
          "pattern": "pod",
          "type": "number",
          "unit": "short"
        },
        {
          "alias": "Memory Usage",
          "decimals": 2,
          "pattern": "Value #A",
          "type": "number",
          "unit": "bytes"
        },
        {
          "alias": "Memory Requests",
          "decimals": 2,
          "pattern": "Value #B",
          "type": "number",
          "unit": "bytes"
        },
        {
          "alias": "Memory Usage %",
          "decimals": 1,
          "pattern": "Value #C",
          "type": "number",
          "unit": "percentunit"
        }
      ],
      "targets": [
        {
          "expr": "sum(label_replace(container_memory_usage_bytes{env=~\"$environment\", container!=\"\"}, \"pod\", \"$1\", \"pod\", \"(.*)\") * on(pod) group_left(workload) mixin_pod_workload{env=~\"$environment\", cluster=\"$cluster\", namespace=\"$namespace\", workload=~\"^$Deployment.*\"}) by (pod)",
          "format": "table",
          "instant": true,
          "interval": "1m",
          "intervalFactor": 3,
          "legendFormat": "",
          "refId": "A"
        },
        {
          "expr": "sum(kube_pod_container_resource_requests{resource=\"memory\", unit=\"byte\", env=~\"$environment\"} * on(pod) group_left(workload) mixin_pod_workload{env=~\"$environment\", cluster=\"$cluster\", namespace=\"$namespace\", workload=~\"^$Deployment.*\"}) by (pod)",
          "format": "table",
          "instant": true,
          "interval": "1m",
          "intervalFactor": 3,
          "legendFormat": "",
          "refId": "B"
        },
        {
          "expr": "sum(label_replace(container_memory_usage_bytes{env=~\"$environment\", container!=\"\"}, \"pod\", \"$1\", \"pod\", \"(.*)\") * on(pod) group_left(workload) mixin_pod_workload{env=~\"$environment\", cluster=\"$cluster\", namespace=\"$namespace\", workload=~\"^$Deployment.*\"}) by (pod) /sum(kube_pod_container_resource_requests{resource=\"memory\", unit=\"byte\", env=~\"$environment\"} * on(pod) group_left(workload) mixin_pod_workload{env=~\"$environment\", cluster=\"$cluster\", namespace=\"$namespace\", workload=~\"^$Deployment.*\"}) by (pod)",
          "format": "table",
          "instant": true,
          "interval": "1m",
          "intervalFactor": 3,
          "legendFormat": "",
          "refId": "C"
        }
      ],
      "timeFrom": null,
      "timeShift": null,
      "title": "Quota",
      "type": "table"
    },
    {
      "collapse": false,
      "collapsed": false,
      "gridPos": {
        "h": 1,
        "w": 24,
        "x": 0,
        "y": 3000
      },
      "id": 21,
      "panels": [

      ],
      "repeat": null,
      "repeatIteration": null,
      "repeatRowId": null,
      "showTitle": true,
      "title": "Network",
      "titleSize": "h6",
      "type": "row"
    },
    {
      "aliasColors": {
      },
      "bars": false,
      "dashLength": 10,
      "dashes": false,
      "datasource": "$PROMETHEUS_DS",
      "decimals": 1,
      "fill": 1,
      "fillGradient": 0,
      "gridPos": {
        "h": 10,
        "w": 24,
        "x": 0,
        "y": 3001
      },
      "id": 22,
      "legend": {
        "alignAsTable": true,
        "avg": false,
        "current": true,
        "hideEmpty": false,
        "max": true,
        "min": false,
        "rightSide": true,
        "show": true,
        "sideWidth": null,
        "total": false,
        "values": true
      },
      "lines": true,
      "linewidth": 2,
      "links": [

      ],
      "nullPointMode": "null",
      "percentage": false,
      "pointradius": 5,
      "points": false,
      "renderer": "flot",
      "repeat": null,
      "seriesOverrides": [

      ],
      "spaceLength": 10,
      "stack": false,
      "steppedLine": false,
      "targets": [
        {
          "expr": "sum (rate (container_network_receive_bytes_total{env=~\"$environment\", cluster=\"$cluster\", node=~\"^$Node.*$\", namespace=\"$namespace\", id!=\"/\",pod=~\"^$Deployment.*$\"}[1m])) by (pod)",
          "format": "time_series",
          "interval": "1m",
          "intervalFactor": 3,
          "legendFormat": "-> {{ pod }}",
          "refId": "A"
        },
        {
          "expr": "- sum( rate (container_network_transmit_bytes_total{env=~\"$environment\", cluster=\"$cluster\", node=~\"^$Node.*$\", namespace=\"$namespace\", id!=\"/\",pod=~\"^$Deployment.*$\"}[1m])) by (pod)",
          "format": "time_series",
          "interval": "1m",
          "intervalFactor": 3,
          "legendFormat": "<- {{ pod }}",
          "refId": "B"
        }
      ],
      "thresholds": [

      ],
      "timeFrom": null,
      "timeShift": null,
      "title": "All processes network I/O",
      "tooltip": {
        "shared": true,
        "sort": 0,
        "value_type": "individual"
      },
      "type": "graph",
      "xaxis": {
        "buckets": null,
        "mode": "time",
        "name": null,
        "show": true,
        "values": [

        ]
      },
      "yaxes": [
        {
          "decimals": 1,
          "format": "Bps",
          "label": null,
          "logBase": 1,
          "max": null,
          "min": null,
          "show": true
        },
        {
          "decimals": 1,
          "format": "Bps",
          "label": null,
          "logBase": 1,
          "max": null,
          "min": null,
          "show": true
        }
      ]
    }
  ],
  "refresh": "",
  "rows": [

  ],
  "schemaVersion": 16,
  "style": "light",
  "tags": [
    "managed",
    "web",
    "web"
  ],
  "templating": {
    "list": [
      {
        "current": {
          "text": "Global",
          "value": "Global"
        },
        "hide": 0,
        "label": null,
        "name": "PROMETHEUS_DS",
        "options": [

        ],
        "query": "prometheus",
        "refresh": 1,
        "regex": "",
        "type": "datasource"
      },
      {
        "allValue": null,
        "current": {
          "text": "gprd",
          "value": "gprd"
        },
        "datasource": "$PROMETHEUS_DS",
        "hide": 0,
        "includeAll": false,
        "label": null,
        "multi": false,
        "name": "environment",
        "options": [

        ],
        "query": "label_values(gitlab_service_ops:rate, environment)",
        "refresh": 1,
        "regex": "",
        "sort": 1,
        "tagValuesQuery": "",
        "tags": [

        ],
        "tagsQuery": "",
        "type": "query",
        "useTags": false
      },
      {
        "allValue": null,
        "current": {
          "text": "gprd-gitlab-gke ",
          "value": "gprd-gitlab-gke "
        },
        "datasource": "$PROMETHEUS_DS",
        "hide": 0,
        "includeAll": false,
        "label": null,
        "multi": false,
        "name": "cluster",
        "options": [

        ],
        "query": "label_values(kube_pod_container_info{environment=\"$environment\"}, cluster)",
        "refresh": 1,
        "regex": "",
        "sort": 1,
        "tagValuesQuery": "",
        "tags": [

        ],
        "tagsQuery": "",
        "type": "query",
        "useTags": false
      },
      {
        "allValue": null,
        "current": {
          "text": "main",
          "value": "main"
        },
        "hide": 0,
        "includeAll": false,
        "label": "",
        "multi": false,
        "name": "stage",
        "options": [
          {
            "text": "main",
            "value": "main"
          },
          {
            "text": "cny",
            "value": "cny"
          },
          {
            "text": "",
            "value": ""
          }
        ],
        "query": "main,cny,",
        "refresh": 0,
        "type": "custom"
      },
      {
        "allValue": null,
        "current": {
          "text": "gitlab",
          "value": "gitlab"
        },
        "datasource": "$PROMETHEUS_DS",
        "hide": 0,
        "includeAll": false,
        "label": null,
        "multi": false,
        "name": "namespace",
        "options": [

        ],
        "query": "label_values(kube_pod_container_info{environment=\"$environment\"}, namespace)",
        "refresh": 1,
        "regex": "",
        "sort": 1,
        "tagValuesQuery": "",
        "tags": [

        ],
        "tagsQuery": "",
        "type": "query",
        "useTags": false
      },
      {
        "allValue": ".*",
        "current": {
          "text": "NewMergeRequestWorker",
          "value": "NewMergeRequestWorker"
        },
        "datasource": "$PROMETHEUS_DS",
        "hide": 0,
        "includeAll": true,
        "label": null,
        "multi": false,
        "name": "Node",
        "options": [

        ],
        "query": "query_result(count(count_over_time(kube_node_labels{environment=\"$environment\", cluster=\"$cluster\"}[1w])) by (label_kubernetes_io_hostname))",
        "refresh": 2,
        "regex": "/.*=\"(.*)\".*/",
        "sort": 0,
        "tagValuesQuery": "",
        "tags": [

        ],
        "tagsQuery": "",
        "type": "query",
        "useTags": false
      },
      {
        "allValue": null,
        "current": {
          "text": "gitlab-(cny-)?webservice-web",
          "value": "gitlab-(cny-)?webservice-web"
        },
        "hide": 2,
        "includeAll": false,
        "label": "",
        "multi": false,
        "name": "Deployment",
        "options": [
          {
            "text": "gitlab-(cny-)?webservice-web",
            "value": "gitlab-(cny-)?webservice-web"
          },
          {
            "text": "",
            "value": ""
          }
        ],
        "query": "gitlab-(cny-)?webservice-web,",
        "refresh": 0,
        "type": "custom"
      }
    ]
  },
  "time": {
    "from": "now-6h/m",
    "to": "now/m"
  },
  "timepicker": {
    "refresh_intervals": [
      "1m",
      "5m",
      "10m",
      "15m",
      "30m"
    ],
    "time_options": [
      "5m",
      "15m",
      "1h",
      "6h",
      "12h",
      "24h",
      "2d",
      "7d",
      "30d"
    ]
  },
  "timezone": "utc",
  "title": "web: Pod Info",
  "uid": "web-pod",
  "version": 1250
}